frame,time,team_id,player_id,x,y,id,fragment,type
29467,1178.68,1,6,39.79,-4.37,5667,0,REAL
29471,1178.84,1,6,39.88,-4.39,5668,0,REAL
29475,1179,1,6,39.93,-4.39,5669,0,REAL
29479,1179.16,1,6,39.99,-4.41,5670,0,REAL
29483,1179.32,1,6,40.07,-4.45,5671,0,REAL
29487,1179.48,1,6,40.18,-4.52,5672,0,REAL
29491,1179.64,1,6,40.3,-4.64,5673,0,REAL
29495,1179.8,1,6,40.46,-4.78,5674,0,REAL
29499,1179.96,1,6,40.65,-5.04,5675,0,REAL
29503,1180.12,1,6,40.85,-5.32,5676,0,REAL
29507,1180.28,1,6,41.04,-5.67,5677,0,REAL
29511,1180.44,1,6,41.21,-5.99,5678,0,REAL
29515,1180.6,1,6,41.37,-6.27,5679,0,REAL
29519,1180.76,1,6,41.52,-6.49,5680,0,REAL
29523,1180.92,1,6,41.63,-6.62,5681,0,REAL
29527,1181.08,1,6,41.77,-6.75,5682,0,REAL
29531,1181.24,1,6,41.9,-6.83,5683,0,REAL
29535,1181.4,1,6,42.02,-6.85,5684,0,REAL
29539,1181.56,1,6,42.15,-6.81,5685,0,REAL
29543,1181.72,1,6,42.24,-6.69,5686,0,REAL
29547,1181.88,1,6,42.35,-6.49,5687,0,REAL
29551,1182.04,1,6,42.37,-6.29,5688,0,REAL
29555,1182.2,1,6,42.15,-6.33,5689,0,REAL
29559,1182.36,1,6,41.96,-6.36,5690,0,REAL
29563,1182.52,1,6,41.77,-6.4,5691,0,REAL
29567,1182.68,1,6,41.57,-6.44,5692,0,REAL
29571,1182.84,1,6,41.4,-6.47,5693,0,REAL
29575,1183,1,6,41.23,-6.51,5694,0,REAL
29579,1183.16,1,6,41.05,-6.55,5695,0,REAL
29583,1183.32,1,6,40.9,-6.58,5696,0,REAL
29587,1183.48,1,6,40.74,-6.62,5697,0,REAL
29591,1183.64,1,6,40.6,-6.66,5698,0,REAL
29595,1183.8,1,6,40.46,-6.69,5699,0,REAL
29603,1184.12,1,6,40.18,-6.77,5701,0,REAL
29607,1184.28,1,6,40.07,-6.8,5702,0,REAL
29615,1184.6,1,6,39.85,-6.88,5704,0,REAL
29619,1184.76,1,6,39.74,-6.91,5705,0,REAL
29623,1184.92,1,6,39.63,-6.95,5706,0,REAL
29627,1185.08,1,6,39.54,-6.99,5707,0,REAL
29631,1185.24,1,6,39.46,-7.02,5708,0,REAL
29635,1185.4,1,6,39.38,-7.06,5709,0,REAL
29639,1185.56,1,6,39.32,-7.1,5710,0,REAL
29643,1185.72,1,6,39.24,-7.13,5711,0,REAL
29647,1185.88,1,6,39.18,-7.17,5712,0,REAL
29651,1186.04,1,6,39.13,-7.21,5713,0,REAL
29655,1186.2,1,6,39.09,-7.24,5714,0,REAL
29659,1186.36,1,6,39.04,-7.28,5715,0,REAL
29663,1186.52,1,6,39.02,-7.32,5716,0,REAL
29667,1186.68,1,6,38.99,-7.35,5717,0,REAL
29671,1186.84,1,6,38.96,-7.39,5718,0,REAL
29675,1187,1,6,38.96,-7.43,5719,0,REAL
29679,1187.16,1,6,38.95,-7.46,5720,0,REAL
29687,1187.48,1,6,38.95,-7.54,5722,0,REAL
29691,1187.64,1,6,38.96,-7.57,5723,0,REAL
29695,1187.8,1,6,38.98,-7.61,5724,0,REAL
29699,1187.96,1,6,38.99,-7.65,5725,0,REAL
29703,1188.12,1,6,39.02,-7.68,5726,0,REAL
29707,1188.28,1,6,39.07,-7.72,5727,0,REAL
29711,1188.44,1,6,39.1,-7.76,5728,0,REAL
29715,1188.6,1,6,39.15,-7.79,5729,0,REAL
29723,1188.92,1,6,39.27,-7.87,5731,0,REAL
29727,1189.08,1,6,39.34,-7.9,5732,0,REAL
29731,1189.24,1,6,39.41,-7.94,5733,0,REAL
29735,1189.4,1,6,39.49,-7.98,5734,0,REAL
29739,1189.56,1,6,39.57,-8.01,5735,0,REAL
29743,1189.72,1,6,39.68,-8.05,5736,0,REAL
29747,1189.88,1,6,39.77,-8.09,5737,0,REAL
29751,1190.04,1,6,39.88,-8.12,5738,0,REAL
29759,1190.36,1,6,40.1,-8.2,5740,0,REAL
29763,1190.52,1,6,40.24,-8.23,5741,0,REAL
29767,1190.68,1,6,40.37,-8.27,5742,0,REAL
29771,1190.84,1,6,40.51,-8.31,5743,0,REAL
29775,1191,1,6,40.65,-8.34,5744,0,REAL
29779,1191.16,1,6,40.79,-8.38,5745,0,REAL
29783,1191.32,1,6,40.96,-8.42,5746,0,REAL
29787,1191.48,1,6,41.12,-8.45,5747,0,REAL
29795,1191.8,1,6,41.46,-8.53,5749,0,REAL
29799,1191.96,1,6,41.65,-8.56,5750,0,REAL
29803,1192.12,1,6,41.82,-8.6,5751,0,REAL
29807,1192.28,1,6,42.02,-8.64,5752,0,REAL
29811,1192.44,1,6,42.23,-8.67,5753,0,REAL
29815,1192.6,1,6,42.43,-8.71,5754,0,REAL
29819,1192.76,1,6,42.65,-8.75,5755,0,REAL
29823,1192.92,1,6,42.87,-8.78,5756,0,REAL
29827,1193.08,1,6,43.1,-8.82,5757,0,REAL
29831,1193.24,1,6,43.32,-8.86,5758,0,REAL
29835,1193.4,1,6,43.57,-8.89,5759,0,REAL
29839,1193.56,1,6,43.96,-9.1,5760,0,REAL
29843,1193.72,1,6,44.32,-9.31,5761,0,REAL
29847,1193.88,1,6,44.6,-9.47,5762,0,REAL
29851,1194.04,1,6,44.79,-9.59,5763,0,REAL
29855,1194.2,1,6,44.9,-9.66,5764,0,REAL
29859,1194.36,1,6,44.98,-9.7,5765,0,REAL
29863,1194.52,1,6,44.99,-9.71,5766,0,REAL
29867,1194.68,1,6,44.99,-9.69,5767,0,REAL
29871,1194.84,1,6,44.96,-9.65,5768,0,REAL
29875,1195,1,6,44.91,-9.59,5769,0,REAL
29883,1195.32,1,6,44.88,-9.47,5771,0,REAL
29887,1195.48,1,6,44.88,-9.4,5772,0,REAL
29891,1195.64,1,6,44.87,-9.34,5773,0,REAL
29895,1195.8,1,6,44.85,-9.24,5774,0,REAL
29907,1196.28,1,6,44.85,-9.06,5777,0,REAL
29911,1196.44,1,6,44.84,-8.99,5778,0,REAL
29915,1196.6,1,6,44.82,-8.88,5779,0,REAL
29919,1196.76,1,6,44.79,-8.76,5780,0,REAL
29923,1196.92,1,6,44.76,-8.62,5781,0,REAL
29927,1197.08,1,6,44.71,-8.46,5782,0,REAL
29931,1197.24,1,6,44.66,-8.26,5783,0,REAL
29935,1197.4,1,6,44.62,-8.06,5784,0,REAL
29939,1197.56,1,6,44.54,-7.83,5785,0,REAL
29943,1197.72,1,6,44.41,-7.62,5786,0,REAL
29947,1197.88,1,6,44.3,-7.47,5787,0,REAL
29951,1198.04,1,6,44.21,-7.32,5788,0,REAL
29955,1198.2,1,6,44.07,-7.08,5789,0,REAL
29959,1198.36,1,6,43.96,-6.8,5790,0,REAL
29963,1198.52,1,6,43.88,-6.57,5791,0,REAL
29967,1198.68,1,6,43.9,-6.38,5792,0,REAL
29971,1198.84,1,6,43.96,-6.24,5793,0,REAL
29975,1199,1,6,44.1,-6.04,5794,0,REAL
29979,1199.16,1,6,44.32,-5.86,5795,0,REAL
29983,1199.32,1,6,44.65,-5.71,5796,0,REAL
29987,1199.48,1,6,45.1,-5.6,5797,0,REAL
29991,1199.64,1,6,45.65,-5.54,5798,0,REAL
29995,1199.8,1,6,46.35,-5.54,5799,0,REAL
29999,1199.96,1,6,47.2,-5.61,5800,0,REAL
