frame,time,team_id,player_id,x,y,id,fragment,type
9107,364.28,2,21,24.1,-0.15,577,0,REAL
9111,364.44,2,21,24.63,-0.22,578,0,REAL
9115,364.6,2,21,25.18,-0.29,579,0,REAL
9119,364.76,2,21,25.77,-0.2,580,0,REAL
9123,364.92,2,21,26.26,-0.01,581,0,REAL
9127,365.08,2,21,26.6,0.22,582,0,REAL
9131,365.24,2,21,26.85,0.47,583,0,REAL
9135,365.4,2,21,26.99,0.75,584,0,REAL
9139,365.56,2,21,27.04,1.03,585,0,REAL
9143,365.72,2,21,27.01,1.31,586,0,REAL
9147,365.88,2,21,26.88,1.66,587,0,REAL
9151,366.04,2,21,26.74,1.88,588,0,REAL
9155,366.2,2,21,26.55,2.06,589,0,REAL
9159,366.36,2,21,26.35,2.25,590,0,REAL
9163,366.52,2,21,26.16,2.39,591,0,REAL
9167,366.68,2,21,26.02,2.48,592,0,REAL
9171,366.84,2,21,25.9,2.55,593,0,REAL
9175,367,2,21,25.85,2.63,594,0,REAL
9179,367.16,2,21,25.85,2.66,595,0,REAL
9183,367.32,2,21,25.91,2.64,596,0,REAL
9187,367.48,2,21,26.04,2.63,597,0,REAL
9191,367.64,2,21,26.18,2.56,598,0,REAL
9195,367.8,2,21,26.35,2.47,599,0,REAL
9199,367.96,2,21,26.51,2.38,600,0,REAL
9203,368.12,2,21,26.68,2.31,601,0,REAL
9207,368.28,2,21,26.88,2.25,602,0,REAL
9211,368.44,2,21,27.07,2.2,603,0,REAL
9215,368.6,2,21,27.27,2.11,604,0,REAL
9219,368.76,2,21,27.43,2.05,605,0,REAL
9223,368.92,2,21,27.59,2,606,0,REAL
9227,369.08,2,21,27.73,1.93,607,0,REAL
9231,369.24,2,21,27.85,1.88,608,0,REAL
9235,369.4,2,21,27.96,1.82,609,0,REAL
9239,369.56,2,21,28.04,1.75,610,0,REAL
9243,369.72,2,21,28.13,1.68,611,0,REAL
9247,369.88,2,21,28.18,1.6,612,0,REAL
9251,370.04,2,21,28.23,1.54,613,0,REAL
9255,370.2,2,21,28.24,1.49,614,0,REAL
9263,370.52,2,21,28.23,1.52,616,0,REAL
9267,370.68,2,21,28.21,1.59,617,0,REAL
9271,370.84,2,21,28.15,1.72,618,0,REAL
9275,371,2,21,28.07,1.89,619,0,REAL
9279,371.16,2,21,27.96,2.07,620,0,REAL
9283,371.32,2,21,27.85,2.3,621,0,REAL
9287,371.48,2,21,27.73,2.55,622,0,REAL
9291,371.64,2,21,27.57,2.81,623,0,REAL
9295,371.8,2,21,27.4,3.03,624,0,REAL
9299,371.96,2,21,27.24,3.22,625,0,REAL
9303,372.12,2,21,27.07,3.36,626,0,REAL
9307,372.28,2,21,26.9,3.45,627,0,REAL
9311,372.44,2,21,26.73,3.49,628,0,REAL
9315,372.6,2,21,26.54,3.55,629,0,REAL
9323,372.92,2,21,26.18,3.64,631,0,REAL
9327,373.08,2,21,25.99,3.7,632,0,REAL
9331,373.24,2,21,25.79,3.77,633,0,REAL
9335,373.4,2,21,25.6,3.85,634,0,REAL
9339,373.56,2,21,25.41,3.98,635,0,REAL
9343,373.72,2,21,25.24,4.11,636,0,REAL
9347,373.88,2,21,25.07,4.2,637,0,REAL
9351,374.04,2,21,24.93,4.29,638,0,REAL
9355,374.2,2,21,24.82,4.39,639,0,REAL
9359,374.36,2,21,24.74,4.47,640,0,REAL
9363,374.52,2,21,24.68,4.53,641,0,REAL
9367,374.68,2,21,24.65,4.63,642,0,REAL
9371,374.84,2,21,24.63,4.73,643,0,REAL
9375,375,2,21,24.63,4.81,644,0,REAL
9379,375.16,2,21,24.65,4.93,645,0,REAL
9383,375.32,2,21,24.68,5.06,646,0,REAL
9387,375.48,2,21,24.71,5.22,647,0,REAL
9391,375.64,2,21,24.74,5.35,648,0,REAL
9395,375.8,2,21,24.76,5.49,649,0,REAL
9399,375.96,2,21,24.77,5.63,650,0,REAL
9403,376.12,2,21,24.77,5.77,651,0,REAL
9407,376.28,2,21,24.76,5.91,652,0,REAL
9411,376.44,2,21,24.71,6.06,653,0,REAL
9415,376.6,2,21,24.63,6.23,654,0,REAL
9419,376.76,2,21,24.52,6.38,655,0,REAL
9423,376.92,2,21,24.38,6.55,656,0,REAL
9427,377.08,2,21,24.26,6.74,657,0,REAL
9431,377.24,2,21,24.13,6.95,658,0,REAL
9435,377.4,2,21,23.99,7.16,659,0,REAL
9439,377.56,2,21,23.85,7.41,660,0,REAL
9443,377.72,2,21,23.71,7.63,661,0,REAL
9447,377.88,2,21,23.55,7.84,662,0,REAL
9451,378.04,2,21,23.41,8.07,663,0,REAL
9455,378.2,2,21,23.27,8.31,664,0,REAL
9459,378.36,2,21,23.12,8.56,665,0,REAL
9463,378.52,2,21,22.96,8.8,666,0,REAL
9467,378.68,2,21,22.79,9.04,667,0,REAL
9471,378.84,2,21,22.63,9.27,668,0,REAL
9475,379,2,21,22.51,9.49,669,0,REAL
9479,379.16,2,21,22.4,9.73,670,0,REAL
9483,379.32,2,21,22.34,9.97,671,0,REAL
9487,379.48,2,21,22.27,10.22,672,0,REAL
9491,379.64,2,21,22.21,10.45,673,0,REAL
9495,379.8,2,21,22.15,10.72,674,0,REAL
9499,379.96,2,21,22.07,11.02,675,0,REAL
9503,380.12,2,21,22.02,11.3,676,0,REAL
9507,380.28,2,21,21.96,11.6,677,0,REAL
9511,380.44,2,21,21.88,11.88,678,0,REAL
9515,380.6,2,21,21.8,12.13,679,0,REAL
9519,380.76,2,21,21.71,12.36,680,0,REAL
9523,380.92,2,21,21.62,12.63,681,0,REAL
9527,381.08,2,21,21.52,12.84,682,0,REAL
9531,381.24,2,21,21.48,13.05,683,0,REAL
9535,381.4,2,21,21.4,13.2,684,0,REAL
9539,381.56,2,21,21.32,13.34,685,0,REAL
9543,381.72,2,21,21.23,13.48,686,0,REAL
9547,381.88,2,21,21.13,13.63,687,0,REAL
9551,382.04,2,21,21.04,13.84,688,0,REAL
9555,382.2,2,21,20.95,14.03,689,0,REAL
9559,382.36,2,21,20.87,14.21,690,0,REAL
9563,382.52,2,21,20.79,14.36,691,0,REAL
9567,382.68,2,21,20.73,14.5,692,0,REAL
9571,382.84,2,21,20.66,14.64,693,0,REAL
9575,383,2,21,20.63,14.74,694,0,REAL
9579,383.16,2,21,20.6,14.81,695,0,REAL
9583,383.32,2,21,20.59,14.84,696,0,REAL
9591,383.64,2,21,20.59,14.77,698,0,REAL
9595,383.8,2,21,20.6,14.63,699,0,REAL
9599,383.96,2,21,20.65,14.45,700,0,REAL
9603,384.12,2,21,20.7,14.3,701,0,REAL
9607,384.28,2,21,20.76,14.16,702,0,REAL
9611,384.44,2,21,20.8,13.97,703,0,REAL
9615,384.6,2,21,20.87,13.77,704,0,REAL
