frame,time,team_id,player_id,x,y,id,fragment,type
8123,324.92,2,5,40.46,-28.21,331,0,REAL
8127,325.08,2,5,39.96,-27.74,332,0,REAL
8131,325.24,2,5,39.52,-27.3,333,0,REAL
8135,325.4,2,5,39.15,-26.88,334,0,REAL
8139,325.56,2,5,38.84,-26.57,335,0,REAL
8143,325.72,2,5,38.65,-26.34,336,0,REAL
8147,325.88,2,5,38.45,-26.04,337,0,REAL
8151,326.04,2,5,38.34,-25.62,338,0,REAL
8155,326.2,2,5,38.34,-25.19,339,0,REAL
8159,326.36,2,5,38.46,-24.87,340,0,REAL
8163,326.52,2,5,38.68,-24.76,341,0,REAL
8167,326.68,2,5,38.84,-24.54,342,0,REAL
8171,326.84,2,5,38.95,-24.25,343,0,REAL
8175,327,2,5,39.04,-23.93,344,0,REAL
8179,327.16,2,5,39.21,-23.66,345,0,REAL
8183,327.32,2,5,39.35,-23.34,346,0,REAL
8187,327.48,2,5,39.41,-23.08,347,0,REAL
8191,327.64,2,5,39.49,-23,348,0,REAL
8195,327.8,2,5,39.62,-23.14,349,0,REAL
8199,327.96,2,5,39.74,-23.27,350,0,REAL
8203,328.12,2,5,39.77,-23.1,351,0,REAL
8207,328.28,2,5,39.85,-22.93,352,0,REAL
8211,328.44,2,5,39.99,-22.86,353,0,REAL
8215,328.6,2,5,40.21,-22.88,354,0,REAL
8219,328.76,2,5,40.4,-22.83,355,0,REAL
8223,328.92,2,5,40.54,-22.63,356,0,REAL
8227,329.08,2,5,40.66,-22.46,357,0,REAL
8231,329.24,2,5,40.77,-22.3,358,0,REAL
8235,329.4,2,5,40.82,-22.15,359,0,REAL
8239,329.56,2,5,40.84,-21.99,360,0,REAL
8243,329.72,2,5,40.79,-21.79,361,0,REAL
8247,329.88,2,5,40.7,-21.54,362,0,REAL
8251,330.04,2,5,40.54,-21.19,363,0,REAL
8255,330.2,2,5,40.34,-20.75,364,0,REAL
8259,330.36,2,5,40.1,-20.25,365,0,REAL
8263,330.52,2,5,39.91,-19.87,366,0,REAL
8267,330.68,2,5,39.77,-19.59,367,0,REAL
8271,330.84,2,5,39.66,-19.44,368,0,REAL
8275,331,2,5,39.52,-19.31,369,0,REAL
8279,331.16,2,5,39.4,-19.21,370,0,REAL
8283,331.32,2,5,39.29,-19.2,371,0,REAL
8287,331.48,2,5,39.16,-19.23,372,0,REAL
8291,331.64,2,5,39.02,-19.29,373,0,REAL
8295,331.8,2,5,38.87,-19.34,374,0,REAL
8299,331.96,2,5,38.71,-19.36,375,0,REAL
8303,332.12,2,5,38.54,-19.33,376,0,REAL
8307,332.28,2,5,38.38,-19.3,377,0,REAL
8311,332.44,2,5,38.27,-19.31,378,0,REAL
8319,332.76,2,5,38.13,-19.31,380,0,REAL
8323,332.92,2,5,38.13,-19.33,381,0,REAL
8327,333.08,2,5,38.15,-19.38,382,0,REAL
8331,333.24,2,5,38.2,-19.41,383,0,REAL
8335,333.4,2,5,38.27,-19.38,384,0,REAL
8339,333.56,2,5,38.35,-19.35,385,0,REAL
8343,333.72,2,5,38.43,-19.29,386,0,REAL
8347,333.88,2,5,38.54,-19.25,387,0,REAL
8351,334.04,2,5,38.63,-19.18,388,0,REAL
8355,334.2,2,5,38.76,-19.09,389,0,REAL
8359,334.36,2,5,38.84,-18.9,390,0,REAL
8363,334.52,2,5,38.9,-18.68,391,0,REAL
8367,334.68,2,5,38.96,-18.5,392,0,REAL
8371,334.84,2,5,39.09,-18.45,393,0,REAL
8375,335,2,5,39.23,-18.48,394,0,REAL
8379,335.16,2,5,39.41,-18.65,395,0,REAL
8383,335.32,2,5,39.66,-18.94,396,0,REAL
8391,335.64,2,5,40.16,-19.5,398,0,REAL
8395,335.8,2,5,40.43,-19.8,399,0,REAL
8399,335.96,2,5,40.66,-20.01,400,0,REAL
8403,336.12,2,5,40.9,-20.21,401,0,REAL
8407,336.28,2,5,41.13,-20.37,402,0,REAL
8411,336.44,2,5,41.34,-20.51,403,0,REAL
8415,336.6,2,5,41.49,-20.53,404,0,REAL
8419,336.76,2,5,41.62,-20.53,405,0,REAL
8423,336.92,2,5,41.77,-20.61,406,0,REAL
8427,337.08,2,5,41.93,-20.76,407,0,REAL
8431,337.24,2,5,42.12,-21.01,408,0,REAL
8435,337.4,2,5,42.32,-21.24,409,0,REAL
8439,337.56,2,5,42.51,-21.47,410,0,REAL
8443,337.72,2,5,42.68,-21.61,411,0,REAL
8447,337.88,2,5,42.85,-21.72,412,0,REAL
8451,338.04,2,5,43.02,-21.78,413,0,REAL
8455,338.2,2,5,43.18,-21.82,414,0,REAL
8463,338.52,2,5,43.43,-21.82,416,0,REAL
8467,338.68,2,5,43.59,-21.88,417,0,REAL
8471,338.84,2,5,43.7,-21.8,418,0,REAL
8475,339,2,5,43.82,-21.74,419,0,REAL
8479,339.16,2,5,44.02,-21.87,420,0,REAL
8483,339.32,2,5,44.18,-21.93,421,0,REAL
8487,339.48,2,5,44.32,-21.93,422,0,REAL
8491,339.64,2,5,44.4,-21.8,423,0,REAL
8495,339.8,2,5,44.48,-21.64,424,0,REAL
8499,339.96,2,5,44.52,-21.44,425,0,REAL
8503,340.12,2,5,44.54,-21.19,426,0,REAL
8507,340.28,2,5,44.55,-20.93,427,0,REAL
8511,340.44,2,5,44.62,-20.79,428,0,REAL
8515,340.6,2,5,44.7,-20.78,429,0,REAL
8519,340.76,2,5,44.79,-20.88,430,0,REAL
8523,340.92,2,5,45.01,-21.16,431,0,REAL
8527,341.08,2,5,45.2,-21.4,432,0,REAL
8531,341.24,2,5,45.4,-21.72,433,0,REAL
8535,341.4,2,5,45.62,-21.98,434,0,REAL
8539,341.56,2,5,45.82,-22.24,435,0,REAL
8543,341.72,2,5,45.99,-22.48,436,0,REAL
8547,341.88,2,5,46.1,-22.6,437,0,REAL
8551,342.04,2,5,46.05,-22.41,438,0,REAL
8555,342.2,2,5,45.95,-22.18,439,0,REAL
8559,342.36,2,5,45.74,-21.8,440,0,REAL
8563,342.52,2,5,45.46,-21.41,441,0,REAL
8567,342.68,2,5,45.13,-21.06,442,0,REAL
8571,342.84,2,5,44.71,-20.69,443,0,REAL
8575,343,2,5,44.23,-20.31,444,0,REAL
8579,343.16,2,5,43.77,-20.09,445,0,REAL
8583,343.32,2,5,43.27,-19.87,446,0,REAL
8587,343.48,2,5,42.68,-19.49,447,0,REAL
8591,343.64,2,5,42.1,-19.04,448,0,REAL
8595,343.8,2,5,41.6,-18.81,449,0,REAL
8599,343.96,2,5,41.13,-18.69,450,0,REAL
8603,344.12,2,5,40.62,-18.55,451,0,REAL
8607,344.28,2,5,40.1,-18.41,452,0,REAL
8611,344.44,2,5,39.68,-18.54,453,0,REAL
8615,344.6,2,5,39.16,-18.45,454,0,REAL
8619,344.76,2,5,38.68,-18.44,455,0,REAL
8623,344.92,2,5,38.15,-18.38,456,0,REAL
8627,345.08,2,5,37.59,-18.29,457,0,REAL
8631,345.24,2,5,36.99,-18.09,458,0,REAL
