frame,time,team_id,player_id,x,y,id,fragment,type
37425,1497,1,22,-31.66,-14.62,7656,0,"SYM X"
37429,1497.16,1,22,-31.450000000000003,-14.45,7657,0,"SYM X"
37433,1497.32,1,22,-31.27,-14.36,7658,0,"SYM X"
37437,1497.48,1,22,-31.13,-14.23,7659,0,"SYM X"
37441,1497.64,1,22,-30.990000000000002,-14.12,7660,0,"SYM X"
37445,1497.8,1,22,-30.869999999999997,-14,7661,0,"SYM X"
37449,1497.96,1,22,-30.779999999999998,-13.78,7662,0,"SYM X"
37453,1498.12,1,22,-30.74,-13.5,7663,0,"SYM X"
37457,1498.28,1,22,-30.7,-13.24,7664,0,"SYM X"
37461,1498.44,1,22,-30.67,-12.97,7665,0,"SYM X"
37473,1498.92,1,22,-30.67,-12.21,7668,0,"SYM X"
37477,1499.08,1,22,-30.64,-11.92,7669,0,"SYM X"
37481,1499.24,1,22,-30.63,-11.66,7670,0,"SYM X"
37485,1499.4,1,22,-30.6,-11.44,7671,0,"SYM X"
37489,1499.56,1,22,-30.560000000000002,-11.27,7672,0,"SYM X"
37493,1499.72,1,22,-30.490000000000002,-11.09,7673,0,"SYM X"
37497,1499.88,1,22,-30.389999999999997,-10.96,7674,0,"SYM X"
37501,1500.04,1,22,-30.31,-10.73,7675,0,"SYM X"
37505,1500.2,1,22,-30.23,-10.46,7676,0,"SYM X"
37509,1500.36,1,22,-30.13,-10.25,7677,0,"SYM X"
37513,1500.52,1,22,-30.009999999999998,-10.09,7678,0,"SYM X"
37517,1500.68,1,22,-29.849999999999998,-9.97,7679,0,"SYM X"
37521,1500.84,1,22,-29.63,-9.89,7680,0,"SYM X"
37525,1501,1,22,-29.42,-9.78,7681,0,"SYM X"
37529,1501.16,1,22,-29.259999999999998,-9.6,7682,0,"SYM X"
37533,1501.32,1,22,-29.03,-9.57,7683,0,"SYM X"
37537,1501.48,1,22,-28.840000000000003,-9.51,7684,0,"SYM X"
37541,1501.64,1,22,-28.639999999999997,-9.48,7685,0,"SYM X"
37549,1501.96,1,22,-28.28,-9.4,7687,0,"SYM X"
37553,1502.12,1,22,-28.160000000000004,-9.29,7688,0,"SYM X"
37557,1502.28,1,22,-28.029999999999998,-9.12,7689,0,"SYM X"
37561,1502.44,1,22,-27.939999999999998,-8.96,7690,0,"SYM X"
37565,1502.6,1,22,-27.83,-8.79,7691,0,"SYM X"
37569,1502.76,1,22,-27.729999999999997,-8.58,7692,0,"SYM X"
37573,1502.92,1,22,-27.580000000000002,-8.42,7693,0,"SYM X"
37577,1503.08,1,22,-27.42,-8.24,7694,0,"SYM X"
37581,1503.24,1,22,-27.310000000000002,-8.04,7695,0,"SYM X"
37585,1503.4,1,22,-27.23,-7.81,7696,0,"SYM X"
37589,1503.56,1,22,-27.1,-7.65,7697,0,"SYM X"
37593,1503.72,1,22,-26.959999999999997,-7.52,7698,0,"SYM X"
37597,1503.88,1,22,-26.880000000000003,-7.35,7699,0,"SYM X"
37601,1504.04,1,22,-26.78,-7.23,7700,0,"SYM X"
37605,1504.2,1,22,-26.67,-7.14,7701,0,"SYM X"
37609,1504.36,1,22,-26.580000000000002,-7.01,7702,0,"SYM X"
37613,1504.52,1,22,-26.479999999999997,-6.87,7703,0,"SYM X"
37617,1504.68,1,22,-26.349999999999998,-6.75,7704,0,"SYM X"
37621,1504.84,1,22,-26.200000000000003,-6.68,7705,0,"SYM X"
37625,1505,1,22,-26.060000000000002,-6.6,7706,0,"SYM X"
37633,1505.32,1,22,-25.7,-6.48,7708,0,"SYM X"
37637,1505.48,1,22,-25.520000000000003,-6.41,7709,0,"SYM X"
37641,1505.64,1,22,-25.349999999999998,-6.24,7710,0,"SYM X"
37645,1505.8,1,22,-25.16,-6.1,7711,0,"SYM X"
37649,1505.96,1,22,-24.950000000000003,-6.02,7712,0,"SYM X"
37653,1506.12,1,22,-24.78,-5.86,7713,0,"SYM X"
37657,1506.28,1,22,-24.62,-5.75,7714,0,"SYM X"
37661,1506.44,1,22,-24.42,-5.66,7715,0,"SYM X"
37665,1506.6,1,22,-24.24,-5.54,7716,0,"SYM X"
37669,1506.76,1,22,-24.1,-5.36,7717,0,"SYM X"
37673,1506.92,1,22,-23.950000000000003,-5.22,7718,0,"SYM X"
37677,1507.08,1,22,-23.770000000000003,-5.15,7719,0,"SYM X"
37681,1507.24,1,22,-23.630000000000003,-5.05,7720,0,"SYM X"
37685,1507.4,1,22,-23.509999999999998,-4.9,7721,0,"SYM X"
37689,1507.56,1,22,-23.340000000000003,-4.82,7722,0,"SYM X"
37693,1507.72,1,22,-23.17,-4.76,7723,0,"SYM X"
37697,1507.88,1,22,-22.990000000000002,-4.66,7724,0,"SYM X"
37701,1508.04,1,22,-22.840000000000003,-4.59,7725,0,"SYM X"
37705,1508.2,1,22,-22.689999999999998,-4.51,7726,0,"SYM X"
37709,1508.36,1,22,-22.53,-4.44,7727,0,"SYM X"
37713,1508.52,1,22,-22.39,-4.38,7728,0,"SYM X"
37717,1508.68,1,22,-22.270000000000003,-4.37,7729,0,"SYM X"
37721,1508.84,1,22,-22.130000000000003,-4.36,7730,0,"SYM X"
37725,1509,1,22,-22.020000000000003,-4.34,7731,0,"SYM X"
37729,1509.16,1,22,-21.9,-4.38,7732,0,"SYM X"
37733,1509.32,1,22,-21.770000000000003,-4.43,7733,0,"SYM X"
37737,1509.48,1,22,-21.630000000000003,-4.44,7734,0,"SYM X"
37741,1509.64,1,22,-21.520000000000003,-4.45,7735,0,"SYM X"
37745,1509.8,1,22,-21.380000000000003,-4.51,7736,0,"SYM X"
37749,1509.96,1,22,-21.22,-4.61,7737,0,"SYM X"
37753,1510.12,1,22,-21.06,-4.7,7738,0,"SYM X"
37757,1510.28,1,22,-20.9,-4.77,7739,0,"SYM X"
37761,1510.44,1,22,-20.740000000000002,-4.83,7740,0,"SYM X"
37765,1510.6,1,22,-20.6,-4.9,7741,0,"SYM X"
37769,1510.76,1,22,-20.470000000000002,-4.94,7742,0,"SYM X"
37773,1510.92,1,22,-20.36,-4.98,7743,0,"SYM X"
37777,1511.08,1,22,-20.200000000000003,-5.08,7744,0,"SYM X"
37781,1511.24,1,22,-20.060000000000002,-5.14,7745,0,"SYM X"
37785,1511.4,1,22,-19.93,-5.2,7746,0,"SYM X"
37789,1511.56,1,22,-19.810000000000002,-5.2,7747,0,"SYM X"
37793,1511.72,1,22,-19.689999999999998,-5.16,7748,0,"SYM X"
37797,1511.88,1,22,-19.54,-5.14,7749,0,"SYM X"
37801,1512.04,1,22,-19.340000000000003,-5.19,7750,0,"SYM X"
37805,1512.2,1,22,-19.060000000000002,-5.37,7751,0,"SYM X"
37813,1512.52,1,22,-18.42,-5.81,7753,0,"SYM X"
37817,1512.68,1,22,-18.090000000000003,-6.02,7754,0,"SYM X"
37821,1512.84,1,22,-17.790000000000003,-6.23,7755,0,"SYM X"
37825,1513,1,22,-17.540000000000003,-6.42,7756,0,"SYM X"
37829,1513.16,1,22,-17.29,-6.6,7757,0,"SYM X"
37833,1513.32,1,22,-17.040000000000003,-6.81,7758,0,"SYM X"
37837,1513.48,1,22,-16.860000000000003,-6.91,7759,0,"SYM X"
37841,1513.64,1,22,-16.72,-6.97,7760,0,"SYM X"
37845,1513.8,1,22,-16.630000000000003,-6.95,7761,0,"SYM X"
37849,1513.96,1,22,-16.56,-6.84,7762,0,"SYM X"
37853,1514.12,1,22,-16.51,-6.72,7763,0,"SYM X"
37857,1514.28,1,22,-16.430000000000003,-6.63,7764,0,"SYM X"
37861,1514.44,1,22,-16.330000000000002,-6.54,7765,0,"SYM X"
37865,1514.6,1,22,-16.250000000000004,-6.43,7766,0,"SYM X"
37869,1514.76,1,22,-16.200000000000003,-6.31,7767,0,"SYM X"
37873,1514.92,1,22,-16.130000000000003,-6.2,7768,0,"SYM X"
37877,1515.08,1,22,-16.08,-6.16,7769,0,"SYM X"
37881,1515.24,1,22,-16.04,-6.13,7770,0,"SYM X"
37885,1515.4,1,22,-16.020000000000003,-6.14,7771,0,"SYM X"
37889,1515.56,1,22,-15.99,-6.23,7772,0,"SYM X"
37893,1515.72,1,22,-16.01,-6.32,7773,0,"SYM X"
37897,1515.88,1,22,-16.04,-6.4,7774,0,"SYM X"
37901,1516.04,1,22,-16.020000000000003,-6.65,7775,0,"SYM X"
37905,1516.2,1,22,-16.020000000000003,-6.92,7776,0,"SYM X"
37909,1516.36,1,22,-16.1,-7.13,7777,0,"SYM X"
37913,1516.52,1,22,-16.220000000000002,-7.31,7778,0,"SYM X"
37917,1516.68,1,22,-16.400000000000002,-7.47,7779,0,"SYM X"
37921,1516.84,1,22,-16.650000000000002,-7.59,7780,0,"SYM X"
37925,1517,1,22,-16.970000000000002,-7.65,7781,0,"SYM X"
37929,1517.16,1,22,-17.34,-7.78,7782,0,"SYM X"
37933,1517.32,1,22,-17.72,-7.93,7783,0,"SYM X"
37937,1517.48,1,22,-18.2,-8.04,7784,0,"SYM X"
37941,1517.64,1,22,-18.689999999999998,-8.15,7785,0,"SYM X"
