frame,time,team_id,player_id,x,y,id,fragment,type
37425,1497,1,22,-31.66,-4.3400000000000025,7656,0,"ROT 180"
37429,1497.16,1,22,-31.45,-4.5100000000000025,7657,0,"ROT 180"
37433,1497.32,1,22,-31.27,-4.600000000000002,7658,0,"ROT 180"
37437,1497.48,1,22,-31.13,-4.730000000000001,7659,0,"ROT 180"
37441,1497.64,1,22,-30.99,-4.8400000000000025,7660,0,"ROT 180"
37445,1497.8,1,22,-30.869999999999997,-4.960000000000002,7661,0,"ROT 180"
37449,1497.96,1,22,-30.779999999999998,-5.180000000000002,7662,0,"ROT 180"
37453,1498.12,1,22,-30.74,-5.460000000000002,7663,0,"ROT 180"
37457,1498.28,1,22,-30.7,-5.7200000000000015,7664,0,"ROT 180"
37461,1498.44,1,22,-30.669999999999998,-5.990000000000001,7665,0,"ROT 180"
37473,1498.92,1,22,-30.669999999999998,-6.750000000000001,7668,0,"ROT 180"
37477,1499.08,1,22,-30.639999999999997,-7.040000000000002,7669,0,"ROT 180"
37481,1499.24,1,22,-30.63,-7.300000000000002,7670,0,"ROT 180"
37485,1499.4,1,22,-30.599999999999998,-7.520000000000002,7671,0,"ROT 180"
37489,1499.56,1,22,-30.56,-7.690000000000002,7672,0,"ROT 180"
37493,1499.72,1,22,-30.49,-7.870000000000002,7673,0,"ROT 180"
37497,1499.88,1,22,-30.389999999999997,-8,7674,0,"ROT 180"
37501,1500.04,1,22,-30.31,-8.23,7675,0,"ROT 180"
37505,1500.2,1,22,-30.229999999999997,-8.5,7676,0,"ROT 180"
37509,1500.36,1,22,-30.13,-8.71,7677,0,"ROT 180"
37513,1500.52,1,22,-30.009999999999998,-8.870000000000001,7678,0,"ROT 180"
37517,1500.68,1,22,-29.849999999999998,-8.99,7679,0,"ROT 180"
37521,1500.84,1,22,-29.63,-9.07,7680,0,"ROT 180"
37525,1501,1,22,-29.419999999999998,-9.180000000000001,7681,0,"ROT 180"
37529,1501.16,1,22,-29.259999999999998,-9.360000000000001,7682,0,"ROT 180"
37533,1501.32,1,22,-29.029999999999998,-9.39,7683,0,"ROT 180"
37537,1501.48,1,22,-28.84,-9.450000000000001,7684,0,"ROT 180"
37541,1501.64,1,22,-28.639999999999997,-9.48,7685,0,"ROT 180"
37549,1501.96,1,22,-28.279999999999998,-9.56,7687,0,"ROT 180"
37553,1502.12,1,22,-28.16,-9.670000000000002,7688,0,"ROT 180"
37557,1502.28,1,22,-28.029999999999998,-9.840000000000002,7689,0,"ROT 180"
37561,1502.44,1,22,-27.939999999999998,-10,7690,0,"ROT 180"
37565,1502.6,1,22,-27.83,-10.170000000000002,7691,0,"ROT 180"
37569,1502.76,1,22,-27.729999999999997,-10.38,7692,0,"ROT 180"
37573,1502.92,1,22,-27.58,-10.540000000000001,7693,0,"ROT 180"
37577,1503.08,1,22,-27.419999999999998,-10.72,7694,0,"ROT 180"
37581,1503.24,1,22,-27.31,-10.920000000000002,7695,0,"ROT 180"
37585,1503.4,1,22,-27.229999999999997,-11.150000000000002,7696,0,"ROT 180"
37589,1503.56,1,22,-27.099999999999998,-11.31,7697,0,"ROT 180"
37593,1503.72,1,22,-26.959999999999997,-11.440000000000001,7698,0,"ROT 180"
37597,1503.88,1,22,-26.88,-11.610000000000001,7699,0,"ROT 180"
37601,1504.04,1,22,-26.779999999999998,-11.73,7700,0,"ROT 180"
37605,1504.2,1,22,-26.669999999999998,-11.820000000000002,7701,0,"ROT 180"
37609,1504.36,1,22,-26.58,-11.950000000000001,7702,0,"ROT 180"
37613,1504.52,1,22,-26.479999999999997,-12.090000000000002,7703,0,"ROT 180"
37617,1504.68,1,22,-26.349999999999998,-12.21,7704,0,"ROT 180"
37621,1504.84,1,22,-26.2,-12.280000000000001,7705,0,"ROT 180"
37625,1505,1,22,-26.06,-12.360000000000001,7706,0,"ROT 180"
37633,1505.32,1,22,-25.7,-12.48,7708,0,"ROT 180"
37637,1505.48,1,22,-25.52,-12.55,7709,0,"ROT 180"
37641,1505.64,1,22,-25.349999999999998,-12.72,7710,0,"ROT 180"
37645,1505.8,1,22,-25.16,-12.860000000000001,7711,0,"ROT 180"
37649,1505.96,1,22,-24.95,-12.940000000000001,7712,0,"ROT 180"
37653,1506.12,1,22,-24.779999999999998,-13.100000000000001,7713,0,"ROT 180"
37657,1506.28,1,22,-24.619999999999997,-13.21,7714,0,"ROT 180"
37661,1506.44,1,22,-24.419999999999998,-13.3,7715,0,"ROT 180"
37665,1506.6,1,22,-24.24,-13.420000000000002,7716,0,"ROT 180"
37669,1506.76,1,22,-24.099999999999998,-13.600000000000001,7717,0,"ROT 180"
37673,1506.92,1,22,-23.95,-13.740000000000002,7718,0,"ROT 180"
37677,1507.08,1,22,-23.77,-13.81,7719,0,"ROT 180"
37681,1507.24,1,22,-23.63,-13.91,7720,0,"ROT 180"
37685,1507.4,1,22,-23.509999999999998,-14.06,7721,0,"ROT 180"
37689,1507.56,1,22,-23.34,-14.14,7722,0,"ROT 180"
37693,1507.72,1,22,-23.169999999999998,-14.200000000000001,7723,0,"ROT 180"
37697,1507.88,1,22,-22.99,-14.3,7724,0,"ROT 180"
37701,1508.04,1,22,-22.84,-14.370000000000001,7725,0,"ROT 180"
37705,1508.2,1,22,-22.689999999999998,-14.450000000000001,7726,0,"ROT 180"
37709,1508.36,1,22,-22.529999999999998,-14.52,7727,0,"ROT 180"
37713,1508.52,1,22,-22.389999999999997,-14.580000000000002,7728,0,"ROT 180"
37717,1508.68,1,22,-22.27,-14.59,7729,0,"ROT 180"
37721,1508.84,1,22,-22.13,-14.600000000000001,7730,0,"ROT 180"
37725,1509,1,22,-22.02,-14.620000000000001,7731,0,"ROT 180"
37729,1509.16,1,22,-21.9,-14.580000000000002,7732,0,"ROT 180"
37733,1509.32,1,22,-21.77,-14.530000000000001,7733,0,"ROT 180"
37737,1509.48,1,22,-21.63,-14.52,7734,0,"ROT 180"
37741,1509.64,1,22,-21.52,-14.510000000000002,7735,0,"ROT 180"
37745,1509.8,1,22,-21.38,-14.450000000000001,7736,0,"ROT 180"
37749,1509.96,1,22,-21.22,-14.350000000000001,7737,0,"ROT 180"
37753,1510.12,1,22,-21.06,-14.260000000000002,7738,0,"ROT 180"
37757,1510.28,1,22,-20.9,-14.190000000000001,7739,0,"ROT 180"
37761,1510.44,1,22,-20.74,-14.13,7740,0,"ROT 180"
37765,1510.6,1,22,-20.599999999999998,-14.06,7741,0,"ROT 180"
37769,1510.76,1,22,-20.47,-14.02,7742,0,"ROT 180"
37773,1510.92,1,22,-20.36,-13.98,7743,0,"ROT 180"
37777,1511.08,1,22,-20.2,-13.88,7744,0,"ROT 180"
37781,1511.24,1,22,-20.06,-13.82,7745,0,"ROT 180"
37785,1511.4,1,22,-19.93,-13.76,7746,0,"ROT 180"
37789,1511.56,1,22,-19.81,-13.76,7747,0,"ROT 180"
37793,1511.72,1,22,-19.689999999999998,-13.8,7748,0,"ROT 180"
37797,1511.88,1,22,-19.54,-13.82,7749,0,"ROT 180"
37801,1512.04,1,22,-19.34,-13.77,7750,0,"ROT 180"
37805,1512.2,1,22,-19.06,-13.59,7751,0,"ROT 180"
37813,1512.52,1,22,-18.419999999999998,-13.15,7753,0,"ROT 180"
37817,1512.68,1,22,-18.09,-12.940000000000001,7754,0,"ROT 180"
37821,1512.84,1,22,-17.79,-12.73,7755,0,"ROT 180"
37825,1513,1,22,-17.54,-12.54,7756,0,"ROT 180"
37829,1513.16,1,22,-17.29,-12.36,7757,0,"ROT 180"
37833,1513.32,1,22,-17.04,-12.15,7758,0,"ROT 180"
37837,1513.48,1,22,-16.86,-12.05,7759,0,"ROT 180"
37841,1513.64,1,22,-16.72,-11.99,7760,0,"ROT 180"
37845,1513.8,1,22,-16.63,-12.01,7761,0,"ROT 180"
37849,1513.96,1,22,-16.56,-12.120000000000001,7762,0,"ROT 180"
37853,1514.12,1,22,-16.509999999999998,-12.24,7763,0,"ROT 180"
37857,1514.28,1,22,-16.43,-12.33,7764,0,"ROT 180"
37861,1514.44,1,22,-16.33,-12.42,7765,0,"ROT 180"
37865,1514.6,1,22,-16.25,-12.530000000000001,7766,0,"ROT 180"
37869,1514.76,1,22,-16.2,-12.65,7767,0,"ROT 180"
37873,1514.92,1,22,-16.13,-12.76,7768,0,"ROT 180"
37877,1515.08,1,22,-16.08,-12.8,7769,0,"ROT 180"
37881,1515.24,1,22,-16.04,-12.83,7770,0,"ROT 180"
37885,1515.4,1,22,-16.02,-12.82,7771,0,"ROT 180"
37889,1515.56,1,22,-15.989999999999998,-12.73,7772,0,"ROT 180"
37893,1515.72,1,22,-16.009999999999998,-12.64,7773,0,"ROT 180"
37897,1515.88,1,22,-16.04,-12.559999999999999,7774,0,"ROT 180"
37901,1516.04,1,22,-16.02,-12.309999999999999,7775,0,"ROT 180"
37905,1516.2,1,22,-16.02,-12.04,7776,0,"ROT 180"
37909,1516.36,1,22,-16.099999999999998,-11.83,7777,0,"ROT 180"
37913,1516.52,1,22,-16.22,-11.65,7778,0,"ROT 180"
37917,1516.68,1,22,-16.4,-11.49,7779,0,"ROT 180"
37921,1516.84,1,22,-16.65,-11.370000000000001,7780,0,"ROT 180"
37925,1517,1,22,-16.97,-11.309999999999999,7781,0,"ROT 180"
37929,1517.16,1,22,-17.34,-11.18,7782,0,"ROT 180"
37933,1517.32,1,22,-17.72,-11.030000000000001,7783,0,"ROT 180"
37937,1517.48,1,22,-18.2,-10.920000000000002,7784,0,"ROT 180"
37941,1517.64,1,22,-18.689999999999998,-10.81,7785,0,"ROT 180"
