frame,time,team_id,player_id,x,y,id,fragment,type
24311,972.44,1,43,-28.770000000000003,22.289999999999996,4378,0,"ROT 180"
24315,972.6,1,43,-28.980000000000004,22.679999999999996,4379,0,"ROT 180"
24319,972.76,1,43,-29.270000000000003,23.169999999999998,4380,0,"ROT 180"
24323,972.92,1,43,-29.590000000000003,23.749999999999996,4381,0,"ROT 180"
24327,973.08,1,43,-29.94,24.45,4382,0,"ROT 180"
24331,973.24,1,43,-30.380000000000003,24.97,4383,0,"ROT 180"
24335,973.4,1,43,-30.800000000000004,25.609999999999996,4384,0,"ROT 180"
24339,973.56,1,43,-31.270000000000003,26.13,4385,0,"ROT 180"
24343,973.72,1,43,-31.730000000000004,26.58,4386,0,"ROT 180"
24347,973.88,1,43,-32.2,26.959999999999997,4387,0,"ROT 180"
24351,974.04,1,43,-32.550000000000004,27.27,4388,0,"ROT 180"
24355,974.2,1,43,-32.980000000000004,27.589999999999996,4389,0,"ROT 180"
24359,974.36,1,43,-33.410000000000004,27.799999999999997,4390,0,"ROT 180"
24363,974.52,1,43,-33.800000000000004,27.889999999999997,4391,0,"ROT 180"
24367,974.68,1,43,-34.150000000000006,27.83,4392,0,"ROT 180"
24371,974.84,1,43,-34.45,27.589999999999996,4393,0,"ROT 180"
24375,975,1,43,-34.720000000000006,27.169999999999998,4394,0,"ROT 180"
24379,975.16,1,43,-34.910000000000004,26.54,4395,0,"ROT 180"
24383,975.32,1,43,-34.56,26.15,4396,0,"ROT 180"
24387,975.48,1,43,-34.13,25.9,4397,0,"ROT 180"
24391,975.64,1,43,-33.84,25.639999999999997,4398,0,"ROT 180"
24395,975.8,1,43,-33.650000000000006,25.389999999999997,4399,0,"ROT 180"
24399,975.96,1,43,-33.58,25.139999999999997,4400,0,"ROT 180"
24403,976.12,1,43,-33.620000000000005,24.88,4401,0,"ROT 180"
24407,976.28,1,43,-33.800000000000004,24.63,4402,0,"ROT 180"
24411,976.44,1,43,-34.08,24.369999999999997,4403,0,"ROT 180"
24415,976.6,1,43,-34.480000000000004,24.119999999999997,4404,0,"ROT 180"
24419,976.76,1,43,-34.730000000000004,23.859999999999996,4405,0,"ROT 180"
24423,976.92,1,43,-34.2,23.599999999999998,4406,0,"ROT 180"
24427,977.08,1,43,-33.660000000000004,23.33,4407,0,"ROT 180"
24431,977.24,1,43,-33.120000000000005,23.069999999999997,4408,0,"ROT 180"
24435,977.4,1,43,-32.58,22.799999999999997,4409,0,"ROT 180"
24439,977.56,1,43,-32.2,22.529999999999998,4410,0,"ROT 180"
24443,977.72,1,43,-32.150000000000006,22.27,4411,0,"ROT 180"
24447,977.88,1,43,-32.410000000000004,21.999999999999996,4412,0,"ROT 180"
24451,978.04,1,43,-32.49,21.84,4413,0,"ROT 180"
24455,978.2,1,43,-32.24,21.779999999999998,4414,0,"ROT 180"
24459,978.36,1,43,-32.08,21.709999999999997,4415,0,"ROT 180"
24463,978.52,1,43,-31.990000000000002,21.65,4416,0,"ROT 180"
24467,978.68,1,43,-31.990000000000002,21.59,4417,0,"ROT 180"
24471,978.84,1,43,-32.08,21.529999999999998,4418,0,"ROT 180"
24475,979,1,43,-32.24,21.47,4419,0,"ROT 180"
24479,979.16,1,43,-32.49,21.4,4420,0,"ROT 180"
24483,979.32,1,43,-32.84,21.34,4421,0,"ROT 180"
24487,979.48,1,43,-33.260000000000005,21.279999999999998,4422,0,"ROT 180"
24491,979.64,1,43,-33.77,21.22,4423,0,"ROT 180"
24495,979.8,1,43,-34.400000000000006,20.619999999999997,4424,0,"ROT 180"
24499,979.96,1,43,-34.84,20.4,4425,0,"ROT 180"
24503,980.12,1,43,-35.19,20.409999999999997,4426,0,"ROT 180"
24507,980.28,1,43,-35.45,20.509999999999998,4427,0,"ROT 180"
24511,980.44,1,43,-35.730000000000004,20.529999999999994,4428,0,"ROT 180"
24515,980.6,1,43,-36.050000000000004,20.339999999999996,4429,0,"ROT 180"
24519,980.76,1,43,-36.34,20.33,4430,0,"ROT 180"
24523,980.92,1,43,-36.480000000000004,20.249999999999996,4431,0,"ROT 180"
24527,981.08,1,43,-36.61,20.169999999999995,4432,0,"ROT 180"
24531,981.24,1,43,-36.690000000000005,20.089999999999996,4433,0,"ROT 180"
24535,981.4,1,43,-36.74,20.009999999999998,4434,0,"ROT 180"
24539,981.56,1,43,-36.79,19.939999999999998,4435,0,"ROT 180"
24543,981.72,1,43,-36.800000000000004,19.869999999999997,4436,0,"ROT 180"
24551,982.04,1,43,-36.800000000000004,19.699999999999996,4438,0,"ROT 180"
24555,982.2,1,43,-36.81,19.65,4439,0,"ROT 180"
24559,982.36,1,43,-36.86,19.629999999999995,4440,0,"ROT 180"
24563,982.52,1,43,-36.88,19.639999999999997,4441,0,"ROT 180"
24567,982.68,1,43,-36.910000000000004,19.65,4442,0,"ROT 180"
24571,982.84,1,43,-36.940000000000005,19.679999999999996,4443,0,"ROT 180"
24575,983,1,43,-36.980000000000004,19.639999999999997,4444,0,"ROT 180"
24587,983.48,1,43,-36.980000000000004,19.489999999999995,4447,0,"ROT 180"
24591,983.64,1,43,-36.97,19.409999999999997,4448,0,"ROT 180"
24595,983.8,1,43,-36.95,19.289999999999996,4449,0,"ROT 180"
24599,983.96,1,43,-36.940000000000005,19.15,4450,0,"ROT 180"
24603,984.12,1,43,-36.910000000000004,18.959999999999994,4451,0,"ROT 180"
24607,984.28,1,43,-36.870000000000005,18.729999999999997,4452,0,"ROT 180"
24611,984.44,1,43,-36.59,18.47,4453,0,"ROT 180"
24615,984.6,1,43,-36.06,18.229999999999997,4454,0,"ROT 180"
24619,984.76,1,43,-35.660000000000004,17.989999999999995,4455,0,"ROT 180"
24623,984.92,1,43,-35.38,17.749999999999996,4456,0,"ROT 180"
24627,985.08,1,43,-35.27,17.509999999999998,4457,0,"ROT 180"
24631,985.24,1,43,-35.300000000000004,17.269999999999996,4458,0,"ROT 180"
24635,985.4,1,43,-35.480000000000004,17.019999999999996,4459,0,"ROT 180"
24639,985.56,1,43,-35.83,16.779999999999994,4460,0,"ROT 180"
24643,985.72,1,43,-36.300000000000004,16.54,4461,0,"ROT 180"
24647,985.88,1,43,-35.77,16.409999999999997,4462,0,"ROT 180"
24651,986.04,1,43,-35.230000000000004,16.269999999999996,4463,0,"ROT 180"
24655,986.2,1,43,-34.72,16.139999999999993,4464,0,"ROT 180"
24659,986.36,1,43,-34.410000000000004,15.999999999999996,4465,0,"ROT 180"
24663,986.52,1,43,-34.34,15.869999999999996,4466,0,"ROT 180"
24667,986.68,1,43,-34.510000000000005,15.729999999999995,4467,0,"ROT 180"
24671,986.84,1,43,-34.910000000000004,15.599999999999996,4468,0,"ROT 180"
24675,987,1,43,-35.08,15.449999999999998,4469,0,"ROT 180"
24679,987.16,1,43,-35.11,15.269999999999996,4470,0,"ROT 180"
24683,987.32,1,43,-35.11,15.059999999999997,4471,0,"ROT 180"
24687,987.48,1,43,-35.09,14.839999999999996,4472,0,"ROT 180"
24691,987.64,1,43,-35.050000000000004,14.599999999999996,4473,0,"ROT 180"
24699,987.96,1,43,-34.910000000000004,14.099999999999996,4475,0,"ROT 180"
24703,988.12,1,43,-34.81,13.809999999999997,4476,0,"ROT 180"
24707,988.28,1,43,-34.760000000000005,13.599999999999996,4477,0,"ROT 180"
24711,988.44,1,43,-34.68,13.439999999999996,4478,0,"ROT 180"
24715,988.6,1,43,-34.59,13.299999999999995,4479,0,"ROT 180"
24719,988.76,1,43,-34.52,13.189999999999996,4480,0,"ROT 180"
24723,988.92,1,43,-34.47,13.099999999999996,4481,0,"ROT 180"
24727,989.08,1,43,-34.45,13.039999999999996,4482,0,"ROT 180"
24731,989.24,1,43,-34.44,12.989999999999997,4483,0,"ROT 180"
24735,989.4,1,43,-34.43,13.009999999999996,4484,0,"ROT 180"
24739,989.56,1,43,-34.410000000000004,13.039999999999996,4485,0,"ROT 180"
24743,989.72,1,43,-34.410000000000004,13.049999999999995,4486,0,"ROT 180"
24747,989.88,1,43,-34.400000000000006,13.019999999999996,4487,0,"ROT 180"
24751,990.04,1,43,-34.400000000000006,13.029999999999996,4488,0,"ROT 180"
24755,990.2,1,43,-34.38,13.029999999999996,4489,0,"ROT 180"
24759,990.36,1,43,-34.370000000000005,13.019999999999996,4490,0,"ROT 180"
24763,990.52,1,43,-34.370000000000005,13.009999999999996,4491,0,"ROT 180"
24767,990.68,1,43,-34.36,13.049999999999995,4492,0,"ROT 180"
24771,990.84,1,43,-34.34,13.089999999999996,4493,0,"ROT 180"
24775,991,1,43,-34.34,13.099999999999996,4494,0,"ROT 180"
24779,991.16,1,43,-34.36,13.099999999999996,4495,0,"ROT 180"
24787,991.48,1,43,-34.400000000000006,13.059999999999997,4497,0,"ROT 180"
24791,991.64,1,43,-34.410000000000004,13.059999999999997,4498,0,"ROT 180"
24795,991.8,1,43,-34.410000000000004,13.029999999999996,4499,0,"ROT 180"
24799,991.96,1,43,-34.400000000000006,12.979999999999997,4500,0,"ROT 180"
24803,992.12,1,43,-34.370000000000005,12.909999999999997,4501,0,"ROT 180"
24807,992.28,1,43,-34.300000000000004,12.809999999999995,4502,0,"ROT 180"
24811,992.44,1,43,-34.230000000000004,12.699999999999996,4503,0,"ROT 180"
24815,992.6,1,43,-34.120000000000005,12.549999999999997,4504,0,"ROT 180"
24823,992.92,1,43,-33.04,12.629999999999995,4506,0,"ROT 180"
24827,993.08,1,43,-32.49,12.669999999999998,4507,0,"ROT 180"
24831,993.24,1,43,-32.010000000000005,12.709999999999997,4508,0,"ROT 180"
24835,993.4,1,43,-31.76,12.739999999999998,4509,0,"ROT 180"
24839,993.56,1,43,-31.770000000000003,12.779999999999998,4510,0,"ROT 180"
24843,993.72,1,43,-32.08,12.809999999999997,4511,0,"ROT 180"
24847,993.88,1,43,-32.22,12.709999999999997,4512,0,"ROT 180"
24851,994.04,1,43,-31.980000000000004,12.479999999999997,4513,0,"ROT 180"
24855,994.2,1,43,-31.720000000000002,12.309999999999997,4514,0,"ROT 180"
24859,994.36,1,43,-31.43,12.169999999999998,4515,0,"ROT 180"
24863,994.52,1,43,-31.119999999999997,12.059999999999997,4516,0,"ROT 180"
24867,994.68,1,43,-30.8,11.969999999999997,4517,0,"ROT 180"
24871,994.84,1,43,-30.48,11.889999999999997,4518,0,"ROT 180"
24875,995,1,43,-30.05,11.769999999999996,4519,0,"ROT 180"
24879,995.16,1,43,-29.7,11.619999999999997,4520,0,"ROT 180"
24883,995.32,1,43,-29.36,11.459999999999997,4521,0,"ROT 180"
24887,995.48,1,43,-29.02,11.239999999999998,4522,0,"ROT 180"
24891,995.64,1,43,-28.68,11.029999999999998,4523,0,"ROT 180"
24895,995.8,1,43,-28.37,10.719999999999997,4524,0,"ROT 180"
24899,995.96,1,43,-28.060000000000002,10.369999999999997,4525,0,"ROT 180"
24903,996.12,1,43,-27.8,9.909999999999997,4526,0,"ROT 180"
24907,996.28,1,43,-27.48,9.519999999999996,4527,0,"ROT 180"
24911,996.44,1,43,-27.2,9.039999999999997,4528,0,"ROT 180"
24915,996.6,1,43,-26.9,8.539999999999997,4529,0,"ROT 180"
24919,996.76,1,43,-26.65,7.919999999999998,4530,0,"ROT 180"
24923,996.92,1,43,-26.47,7.329999999999997,4531,0,"ROT 180"
24927,997.08,1,43,-26.34,6.689999999999998,4532,0,"ROT 180"
24931,997.24,1,43,-26.22,6.079999999999997,4533,0,"ROT 180"
24935,997.4,1,43,-26.12,5.379999999999997,4534,0,"ROT 180"
24939,997.56,1,43,-25.99,4.7399999999999975,4535,0,"ROT 180"
24943,997.72,1,43,-25.88,4.099999999999997,4536,0,"ROT 180"
24947,997.88,1,43,-25.7,3.5599999999999974,4537,0,"ROT 180"
24951,998.04,1,43,-25.51,2.9199999999999977,4538,0,"ROT 180"
24955,998.2,1,43,-25.23,2.409999999999998,4539,0,"ROT 180"
24959,998.36,1,43,-24.88,1.8799999999999968,4540,0,"ROT 180"
24963,998.52,1,43,-24.44,1.4399999999999973,4541,0,"ROT 180"
24967,998.68,1,43,-23.98,0.9699999999999989,4542,0,"ROT 180"
24971,998.84,1,43,-23.41,0.5799999999999983,4543,0,"ROT 180"
24975,999,1,43,-22.84,0.21999999999999886,4544,0,"ROT 180"
24979,999.16,1,43,-22.27,-0.05000000000000249,4545,0,"ROT 180"
24983,999.32,1,43,-21.83,-0.1700000000000017,4546,0,"ROT 180"
24987,999.48,1,43,-21.2,-0.33000000000000185,4547,0,"ROT 180"
24991,999.64,1,43,-20.56,-0.4200000000000017,4548,0,"ROT 180"
24995,999.8,1,43,-19.93,-0.45000000000000284,4549,0,"ROT 180"
24999,999.96,1,43,-19.3,-0.4400000000000013,4550,0,"ROT 180"
25003,1000.12,1,43,-18.69,-0.37000000000000277,4551,0,"ROT 180"
25007,1000.28,1,43,-18.09,-0.23000000000000131,4552,0,"ROT 180"
25011,1000.44,1,43,-17.54,-0.0500000000000016,4553,0,"ROT 180"
25015,1000.6,1,43,-16.98,0.019999999999998685,4554,0,"ROT 180"
25019,1000.76,1,43,-16.39,0.029999999999998472,4555,0,"ROT 180"
25023,1000.92,1,43,-15.82,0.049999999999998046,4556,0,"ROT 180"
25027,1001.08,1,43,-15.25,0.05999999999999961,4557,0,"ROT 180"
25031,1001.24,1,43,-14.68,0.08999999999999897,4558,0,"ROT 180"
25035,1001.4,1,43,-14.100000000000001,0.09999999999999876,4559,0,"ROT 180"
25039,1001.56,1,43,-13.530000000000001,0.11999999999999833,4560,0,"ROT 180"
25043,1001.72,1,43,-12.95,0.12999999999999812,4561,0,"ROT 180"
25047,1001.88,1,43,-12.370000000000001,0.15999999999999925,4562,0,"ROT 180"
25051,1002.04,1,43,-11.8,0.16999999999999904,4563,0,"ROT 180"
25055,1002.2,1,43,-11.229999999999997,0.18999999999999861,4564,0,"ROT 180"
25059,1002.36,1,43,-10.64,0.20999999999999908,4565,0,"ROT 180"
25063,1002.52,1,43,-10.060000000000002,0.22000000000000064,4566,0,"ROT 180"
25067,1002.68,1,43,-9.5,0.2400000000000002,4567,0,"ROT 180"
25071,1002.84,1,43,-8.909999999999997,0.2599999999999998,4568,0,"ROT 180"
25075,1003,1,43,-8.340000000000003,0.27999999999999936,4569,0,"ROT 180"
25079,1003.16,1,43,-7.770000000000003,0.28999999999999915,4570,0,"ROT 180"
25083,1003.32,1,43,-7.200000000000003,0.3100000000000005,4571,0,"ROT 180"
25087,1003.48,1,43,-6.770000000000003,0.2400000000000002,4572,0,"ROT 180"
25091,1003.64,1,43,-6.579999999999998,0.09999999999999964,4573,0,"ROT 180"
25095,1003.8,1,43,-6.520000000000003,-0.02999999999999936,4574,0,"ROT 180"
25099,1003.96,1,43,-6.579999999999998,-0.1899999999999995,4575,0,"ROT 180"
25103,1004.12,1,43,-6.759999999999998,-0.33000000000000007,4576,0,"ROT 180"
25107,1004.28,1,43,-7.060000000000002,-0.46000000000000085,4577,0,"ROT 180"
25111,1004.44,1,43,-7.5,-0.5999999999999996,4578,0,"ROT 180"
25115,1004.6,1,43,-8.009999999999998,-0.6500000000000004,4579,0,"ROT 180"
25119,1004.76,1,43,-8.509999999999998,-0.620000000000001,4580,0,"ROT 180"
25123,1004.92,1,43,-9.049999999999997,-0.5899999999999999,4581,0,"ROT 180"
25127,1005.08,1,43,-9.590000000000003,-0.5600000000000005,4582,0,"ROT 180"
25131,1005.24,1,43,-10.119999999999997,-0.5299999999999994,4583,0,"ROT 180"
25135,1005.4,1,43,-10.64,-0.5099999999999998,4584,0,"ROT 180"
25139,1005.56,1,43,-11.119999999999997,-0.4700000000000015,4585,0,"ROT 180"
25143,1005.72,1,43,-11.620000000000001,-0.4400000000000004,4586,0,"ROT 180"
25147,1005.88,1,43,-12.120000000000001,-0.40000000000000124,4587,0,"ROT 180"
25151,1006.04,1,43,-12.620000000000001,-0.3700000000000019,4588,0,"ROT 180"
25155,1006.2,1,43,-13.120000000000001,-0.34000000000000075,4589,0,"ROT 180"
25163,1006.52,1,43,-14.16,-0.28000000000000025,4591,0,"ROT 180"
25167,1006.68,1,43,-14.690000000000001,-0.2400000000000011,4592,0,"ROT 180"
25171,1006.84,1,43,-15.21,-0.21000000000000174,4593,0,"ROT 180"
25175,1007,1,43,-15.75,-0.1900000000000004,4594,0,"ROT 180"
25179,1007.16,1,43,-16.64,-0.33000000000000096,4595,0,"ROT 180"
25183,1007.32,1,43,-17.55,-0.45000000000000195,4596,0,"ROT 180"
25187,1007.48,1,43,-18.45,-0.5800000000000018,4597,0,"ROT 180"
25191,1007.64,1,43,-19.34,-0.7000000000000028,4598,0,"ROT 180"
25195,1007.8,1,43,-20.22,-0.8400000000000016,4599,0,"ROT 180"
25199,1007.96,1,43,-21.08,-1.0100000000000016,4600,0,"ROT 180"
25203,1008.12,1,43,-21.91,-1.2000000000000028,4601,0,"ROT 180"
25207,1008.28,1,43,-22.91,-1.5100000000000016,4602,0,"ROT 180"
25211,1008.44,1,43,-23.68,-1.8800000000000026,4603,0,"ROT 180"
25215,1008.6,1,43,-24.43,-2.3400000000000016,4604,0,"ROT 180"
25219,1008.76,1,43,-25.15,-2.8700000000000028,4605,0,"ROT 180"
25223,1008.92,1,43,-25.77,-3.3800000000000026,4606,0,"ROT 180"
25227,1009.08,1,43,-26.34,-3.8800000000000026,4607,0,"ROT 180"
25231,1009.24,1,43,-26.79,-4.330000000000002,4608,0,"ROT 180"
25235,1009.4,1,43,-27.16,-4.760000000000002,4609,0,"ROT 180"
25239,1009.56,1,43,-27.47,-5.130000000000003,4610,0,"ROT 180"
25243,1009.72,1,43,-27.73,-5.460000000000003,4611,0,"ROT 180"
25247,1009.88,1,43,-27.88,-5.710000000000003,4612,0,"ROT 180"
25251,1010.04,1,43,-28.019999999999996,-6.010000000000002,4613,0,"ROT 180"
25255,1010.2,1,43,-28.119999999999997,-6.290000000000003,4614,0,"ROT 180"
25259,1010.36,1,43,-28.199999999999996,-6.590000000000003,4615,0,"ROT 180"
25267,1010.68,1,43,-28.479999999999997,-7.210000000000001,4617,0,"ROT 180"
25271,1010.84,1,43,-28.729999999999997,-7.540000000000003,4618,0,"ROT 180"
25275,1011,1,43,-28.949999999999996,-7.73,4619,0,"ROT 180"
25279,1011.16,1,43,-29.269999999999996,-7.940000000000003,4620,0,"ROT 180"
25283,1011.32,1,43,-29.699999999999996,-8.190000000000003,4621,0,"ROT 180"
25287,1011.48,1,43,-30.199999999999996,-8.420000000000003,4622,0,"ROT 180"
25291,1011.64,1,43,-30.769999999999996,-8.650000000000004,4623,0,"ROT 180"
25295,1011.8,1,43,-31.369999999999997,-8.940000000000003,4624,0,"ROT 180"
25299,1011.96,1,43,-31.9,-9.210000000000003,4625,0,"ROT 180"
25303,1012.12,1,43,-32.36,-9.540000000000004,4626,0,"ROT 180"
25307,1012.28,1,43,-32.69,-9.900000000000004,4627,0,"ROT 180"
25311,1012.44,1,43,-32.9,-10.310000000000004,4628,0,"ROT 180"
25315,1012.6,1,43,-32.91,-10.690000000000003,4629,0,"ROT 180"
25319,1012.76,1,43,-32.769999999999996,-11.130000000000003,4630,0,"ROT 180"
25323,1012.92,1,43,-32.48,-11.530000000000001,4631,0,"ROT 180"
25327,1013.08,1,43,-32.06,-11.940000000000001,4632,0,"ROT 180"
25331,1013.24,1,43,-31.519999999999996,-12.290000000000003,4633,0,"ROT 180"
25335,1013.4,1,43,-30.979999999999997,-12.740000000000002,4634,0,"ROT 180"
25339,1013.56,1,43,-30.479999999999997,-13.260000000000002,4635,0,"ROT 180"
25343,1013.72,1,43,-30.019999999999996,-13.760000000000002,4636,0,"ROT 180"
25347,1013.88,1,43,-29.63,-14.260000000000002,4637,0,"ROT 180"
25351,1014.04,1,43,-29.31,-14.810000000000002,4638,0,"ROT 180"
25355,1014.2,1,43,-29.08,-15.330000000000002,4639,0,"ROT 180"
25359,1014.36,1,43,-28.949999999999996,-15.880000000000003,4640,0,"ROT 180"
25363,1014.52,1,43,-28.869999999999997,-16.340000000000003,4641,0,"ROT 180"
25367,1014.68,1,43,-28.799999999999997,-16.740000000000002,4642,0,"ROT 180"
25371,1014.84,1,43,-28.759999999999998,-17.07,4643,0,"ROT 180"
25375,1015,1,43,-28.729999999999997,-17.37,4644,0,"ROT 180"
25383,1015.32,1,43,-28.729999999999997,-17.69,4646,0,"ROT 180"
25387,1015.48,1,43,-28.769999999999996,-17.8,4647,0,"ROT 180"
25391,1015.64,1,43,-28.839999999999996,-17.87,4648,0,"ROT 180"
25395,1015.8,1,43,-28.939999999999998,-17.880000000000003,4649,0,"ROT 180"
25399,1015.96,1,43,-29.049999999999997,-17.830000000000002,4650,0,"ROT 180"
25403,1016.12,1,43,-29.159999999999997,-17.71,4651,0,"ROT 180"
25407,1016.28,1,43,-29.33,-17.6,4652,0,"ROT 180"
25411,1016.44,1,43,-29.519999999999996,-17.46,4653,0,"ROT 180"
25415,1016.6,1,43,-29.729999999999997,-17.26,4654,0,"ROT 180"
25419,1016.76,1,43,-29.929999999999996,-17.01,4655,0,"ROT 180"
25423,1016.92,1,43,-30.049999999999997,-16.660000000000004,4656,0,"ROT 180"
25427,1017.08,1,43,-30.159999999999997,-16.3,4657,0,"ROT 180"
25431,1017.24,1,43,-30.259999999999998,-15.880000000000003,4658,0,"ROT 180"
25435,1017.4,1,43,-30.31,-15.420000000000002,4659,0,"ROT 180"
25439,1017.56,1,43,-30.339999999999996,-14.920000000000002,4660,0,"ROT 180"
25443,1017.72,1,43,-30.339999999999996,-14.410000000000004,4661,0,"ROT 180"
25447,1017.88,1,43,-30.31,-13.900000000000002,4662,0,"ROT 180"
25451,1018.04,1,43,-30.269999999999996,-13.370000000000001,4663,0,"ROT 180"
25455,1018.2,1,43,-30.199999999999996,-12.8,4664,0,"ROT 180"
25459,1018.36,1,43,-30.089999999999996,-12.23,4665,0,"ROT 180"
25463,1018.52,1,43,-29.99,-11.73,4666,0,"ROT 180"
25467,1018.68,1,43,-29.88,-11.21,4667,0,"ROT 180"
25471,1018.84,1,43,-29.74,-10.670000000000003,4668,0,"ROT 180"
25479,1019.16,1,43,-29.439999999999998,-9.710000000000003,4670,0,"ROT 180"
25483,1019.32,1,43,-29.269999999999996,-9.260000000000003,4671,0,"ROT 180"
25487,1019.48,1,43,-29.089999999999996,-8.770000000000005,4672,0,"ROT 180"
25491,1019.64,1,43,-28.88,-8.3,4673,0,"ROT 180"
25495,1019.8,1,43,-28.689999999999998,-7.850000000000001,4674,0,"ROT 180"
25499,1019.96,1,43,-28.479999999999997,-7.440000000000001,4675,0,"ROT 180"
25503,1020.12,1,43,-28.299999999999997,-6.990000000000002,4676,0,"ROT 180"
25507,1020.28,1,43,-28.089999999999996,-6.540000000000003,4677,0,"ROT 180"
25511,1020.44,1,43,-27.869999999999997,-6.080000000000002,4678,0,"ROT 180"
25515,1020.6,1,43,-27.689999999999998,-5.620000000000003,4679,0,"ROT 180"
25519,1020.76,1,43,-27.509999999999998,-5.150000000000002,4680,0,"ROT 180"
25523,1020.92,1,43,-27.31,-4.670000000000002,4681,0,"ROT 180"
25527,1021.08,1,43,-27.12,-4.210000000000003,4682,0,"ROT 180"
25531,1021.24,1,43,-26.95,-3.7900000000000027,4683,0,"ROT 180"
25535,1021.4,1,43,-26.81,-3.4400000000000013,4684,0,"ROT 180"
25539,1021.56,1,43,-26.69,-3.150000000000002,4685,0,"ROT 180"
25543,1021.72,1,43,-26.59,-2.9200000000000026,4686,0,"ROT 180"
25547,1021.88,1,43,-26.49,-2.730000000000003,4687,0,"ROT 180"
