frame,time,team_id,player_id,x,y,id,fragment,type
12032,481.28,1,18,4.54,4.82,1308,0,REAL
12036,481.44,1,18,4.55,5.64,1309,0,REAL
12040,481.6,1,18,4.59,6.45,1310,0,REAL
12044,481.76,1,18,4.62,7.3,1311,0,REAL
12048,481.92,1,18,4.63,8.14,1312,0,REAL
12052,482.08,1,18,4.59,9.03,1313,0,REAL
12056,482.24,1,18,4.55,9.96,1314,0,REAL
12060,482.4,1,18,4.48,10.88,1315,0,REAL
12064,482.56,1,18,4.36,11.8,1316,0,REAL
12068,482.72,1,18,4.26,12.77,1317,0,REAL
12072,482.88,1,18,4.16,13.78,1318,0,REAL
12076,483.04,1,18,4.16,14.93,1319,0,REAL
12080,483.2,1,18,4.2,16.14,1320,0,REAL
12084,483.36,1,18,4.27,17.29,1321,0,REAL
12088,483.52,1,18,4.34,18.42,1322,0,REAL
12092,483.68,1,18,4.38,19.45,1323,0,REAL
12096,483.84,1,18,4.38,20.34,1324,0,REAL
12100,484,1,18,4.29,21.1,1325,0,REAL
12104,484.16,1,18,4.08,21.7,1326,0,REAL
12108,484.32,1,18,3.76,22.14,1327,0,REAL
12112,484.48,1,18,3.34,22.48,1328,0,REAL
12116,484.64,1,18,2.86,22.7,1329,0,REAL
12120,484.8,1,18,2.31,22.78,1330,0,REAL
12124,484.96,1,18,1.76,22.84,1331,0,REAL
12128,485.12,1,18,1.2,22.88,1332,0,REAL
12132,485.28,1,18,0.7,22.95,1333,0,REAL
12136,485.44,1,18,0.27,22.91,1334,0,REAL
12140,485.6,1,18,-0.16,22.85,1335,0,REAL
12144,485.76,1,18,-0.56,22.77,1336,0,REAL
12148,485.92,1,18,-0.95,22.66,1337,0,REAL
12152,486.08,1,18,-1.37,22.5,1338,0,REAL
12156,486.24,1,18,-1.77,22.31,1339,0,REAL
12160,486.4,1,18,-2.03,22.16,1340,0,REAL
12164,486.56,1,18,-2.37,21.96,1341,0,REAL
12168,486.72,1,18,-2.62,21.84,1342,0,REAL
12172,486.88,1,18,-2.78,21.8,1343,0,REAL
12176,487.04,1,18,-2.87,21.88,1344,0,REAL
12180,487.2,1,18,-2.84,22.07,1345,0,REAL
12184,487.36,1,18,-2.67,22.45,1346,0,REAL
12188,487.52,1,18,-2.71,22.64,1347,0,REAL
12192,487.68,1,18,-2.69,22.53,1348,0,REAL
12196,487.84,1,18,-2.64,22.6,1349,0,REAL
12200,488,1,18,-2.67,22.73,1350,0,REAL
12204,488.16,1,18,-2.66,22.88,1351,0,REAL
12208,488.32,1,18,-2.62,23,1352,0,REAL
12212,488.48,1,18,-2.52,23.13,1353,0,REAL
12216,488.64,1,18,-2.38,23.27,1354,0,REAL
12220,488.8,1,18,-2.19,23.41,1355,0,REAL
12224,488.96,1,18,-1.95,23.53,1356,0,REAL
12228,489.12,1,18,-1.69,23.67,1357,0,REAL
12232,489.28,1,18,-1.35,23.8,1358,0,REAL
12236,489.44,1,18,-0.99,23.93,1359,0,REAL
12240,489.6,1,18,-1.06,23.41,1360,0,REAL
12244,489.76,1,18,-1.02,23.28,1361,0,REAL
12248,489.92,1,18,-0.85,23.45,1362,0,REAL
12252,490.08,1,18,-0.67,23.71,1363,0,REAL
12256,490.24,1,18,-0.38,24.13,1364,0,REAL
12260,490.4,1,18,-0.05,24.52,1365,0,REAL
12264,490.56,1,18,0.33,24.79,1366,0,REAL
12268,490.72,1,18,0.01,23.55,1367,0,REAL
12272,490.88,1,18,0.23,23.59,1368,0,REAL
12276,491.04,1,18,0.48,23.64,1369,0,REAL
12284,491.36,1,18,0.98,23.72,1371,0,REAL
12288,491.52,1,18,1.24,23.77,1372,0,REAL
12292,491.68,1,18,1.52,23.81,1373,0,REAL
12296,491.84,1,18,1.8,23.85,1374,0,REAL
12300,492,1,18,2.08,23.89,1375,0,REAL
12304,492.16,1,18,2.37,23.95,1376,0,REAL
12308,492.32,1,18,2.66,23.98,1377,0,REAL
12312,492.48,1,18,2.97,24.02,1378,0,REAL
12316,492.64,1,18,3.27,24.07,1379,0,REAL
12320,492.8,1,18,3.59,24.11,1380,0,REAL
12324,492.96,1,18,3.93,24.16,1381,0,REAL
12332,493.28,1,18,4.59,24.24,1383,0,REAL
12340,493.6,1,18,5.29,24.32,1385,0,REAL
12344,493.76,1,18,5.65,24.38,1386,0,REAL
12348,493.92,1,18,6.02,24.41,1387,0,REAL
12352,494.08,1,18,6.4,24.45,1388,0,REAL
12356,494.24,1,18,6.82,24.55,1389,0,REAL
12360,494.4,1,18,7.35,24.82,1390,0,REAL
12364,494.56,1,18,7.87,25.11,1391,0,REAL
12368,494.72,1,18,8.35,25.42,1392,0,REAL
12372,494.88,1,18,8.82,25.75,1393,0,REAL
12376,495.04,1,18,9.27,26.09,1394,0,REAL
12380,495.2,1,18,9.71,26.41,1395,0,REAL
12384,495.36,1,18,10.13,26.73,1396,0,REAL
12388,495.52,1,18,10.7,27.11,1397,0,REAL
12392,495.68,1,18,11.13,27.38,1398,0,REAL
12396,495.84,1,18,11.6,27.66,1399,0,REAL
12400,496,1,18,12.07,27.89,1400,0,REAL
12404,496.16,1,18,12.55,28.11,1401,0,REAL
12408,496.32,1,18,13.04,28.3,1402,0,REAL
12412,496.48,1,18,13.55,28.44,1403,0,REAL
12416,496.64,1,18,14.09,28.58,1404,0,REAL
12420,496.8,1,18,14.63,28.64,1405,0,REAL
12424,496.96,1,18,15.18,28.72,1406,0,REAL
12428,497.12,1,18,15.71,28.72,1407,0,REAL
12432,497.28,1,18,16.27,28.75,1408,0,REAL
12436,497.44,1,18,16.79,28.75,1409,0,REAL
12440,497.6,1,18,17.32,28.77,1410,0,REAL
12444,497.76,1,18,17.84,28.8,1411,0,REAL
12448,497.92,1,18,18.32,28.81,1412,0,REAL
12452,498.08,1,18,18.79,28.88,1413,0,REAL
12456,498.24,1,18,19.21,28.97,1414,0,REAL
12460,498.4,1,18,19.6,29.09,1415,0,REAL
12464,498.56,1,18,19.98,29.22,1416,0,REAL
12468,498.72,1,18,20.34,29.34,1417,0,REAL
12472,498.88,1,18,20.66,29.48,1418,0,REAL
12476,499.04,1,18,20.98,29.61,1419,0,REAL
12480,499.2,1,18,21.27,29.72,1420,0,REAL
12484,499.36,1,18,21.54,29.84,1421,0,REAL
12488,499.52,1,18,21.8,29.97,1422,0,REAL
12492,499.68,1,18,22.07,30.08,1423,0,REAL
12496,499.84,1,18,22.34,30.22,1424,0,REAL
12500,500,1,18,22.59,30.33,1425,0,REAL
12504,500.16,1,18,22.85,30.44,1426,0,REAL
12508,500.32,1,18,23.09,30.58,1427,0,REAL
12512,500.48,1,18,23.34,30.7,1428,0,REAL
12516,500.64,1,18,23.55,30.86,1429,0,REAL
12520,500.8,1,18,23.79,30.98,1430,0,REAL
12524,500.96,1,18,24.02,31.13,1431,0,REAL
12528,501.12,1,18,24.24,31.27,1432,0,REAL
12532,501.28,1,18,24.43,31.42,1433,0,REAL
12536,501.44,1,18,24.62,31.58,1434,0,REAL
12540,501.6,1,18,24.79,31.72,1435,0,REAL
12544,501.76,1,18,24.91,31.86,1436,0,REAL
12548,501.92,1,18,25.04,31.97,1437,0,REAL
12552,502.08,1,18,25.12,32.08,1438,0,REAL
12556,502.24,1,18,25.15,32.14,1439,0,REAL
12560,502.4,1,18,25.15,32.2,1440,0,REAL
12564,502.56,1,18,25.12,32.22,1441,0,REAL
12568,502.72,1,18,25.07,32.19,1442,0,REAL
12572,502.88,1,18,24.98,32.13,1443,0,REAL
12576,503.04,1,18,24.88,32.02,1444,0,REAL
12580,503.2,1,18,24.74,31.86,1445,0,REAL
12584,503.36,1,18,24.6,31.67,1446,0,REAL
12588,503.52,1,18,24.43,31.47,1447,0,REAL
12592,503.68,1,18,24.23,31.27,1448,0,REAL
12596,503.84,1,18,24.01,31,1449,0,REAL
12600,504,1,18,23.76,30.75,1450,0,REAL
12604,504.16,1,18,23.49,30.47,1451,0,REAL
12608,504.32,1,18,23.21,30.2,1452,0,REAL
12612,504.48,1,18,22.9,29.94,1453,0,REAL
12616,504.64,1,18,22.59,29.66,1454,0,REAL
12620,504.8,1,18,22.27,29.36,1455,0,REAL
12628,505.12,1,18,21.65,28.7,1457,0,REAL
12632,505.28,1,18,21.35,28.33,1458,0,REAL
12636,505.44,1,18,21.1,27.89,1459,0,REAL
12640,505.6,1,18,20.91,27.44,1460,0,REAL
12644,505.76,1,18,20.76,26.92,1461,0,REAL
12648,505.92,1,18,20.63,26.39,1462,0,REAL
12652,506.08,1,18,20.59,25.77,1463,0,REAL
12656,506.24,1,18,20.62,25.16,1464,0,REAL
12660,506.4,1,18,20.68,24.56,1465,0,REAL
12664,506.56,1,18,20.77,24.02,1466,0,REAL
12668,506.72,1,18,20.93,23.53,1467,0,REAL
12672,506.88,1,18,21.16,23.14,1468,0,REAL
12676,507.04,1,18,21.4,22.95,1469,0,REAL
12680,507.2,1,18,21.66,22.89,1470,0,REAL
12684,507.36,1,18,21.91,23.02,1471,0,REAL
12688,507.52,1,18,22.13,23.34,1472,0,REAL
12692,507.68,1,18,22.35,23.75,1473,0,REAL
12696,507.84,1,18,22.54,24.3,1474,0,REAL
12700,508,1,18,22.62,24.93,1475,0,REAL
12704,508.16,1,18,22.6,25.68,1476,0,REAL
12708,508.32,1,18,22.46,26.52,1477,0,REAL
12712,508.48,1,18,22.27,27.39,1478,0,REAL
12716,508.64,1,18,21.95,28.36,1479,0,REAL
12720,508.8,1,18,21.54,29.36,1480,0,REAL
12724,508.96,1,18,21.07,30.39,1481,0,REAL
12728,509.12,1,18,20.57,31.44,1482,0,REAL
12732,509.28,1,18,19.96,32.47,1483,0,REAL
12736,509.44,1,18,19.32,33.44,1484,0,REAL
12740,509.6,1,18,18.65,34.31,1485,0,REAL
12744,509.76,1,18,17.99,35.05,1486,0,REAL
12748,509.92,1,18,17.4,35.56,1487,0,REAL
12752,510.08,1,18,16.82,35.91,1488,0,REAL
12756,510.24,1,18,16.27,36.08,1489,0,REAL
12760,510.4,1,18,15.76,36.13,1490,0,REAL
12764,510.56,1,18,15.27,36.11,1491,0,REAL
12768,510.72,1,18,14.87,36,1492,0,REAL
12772,510.88,1,18,14.46,35.91,1493,0,REAL
12776,511.04,1,18,14.05,35.84,1494,0,REAL
12780,511.2,1,18,13.65,35.8,1495,0,REAL
12784,511.36,1,18,13.21,35.77,1496,0,REAL
12788,511.52,1,18,12.71,35.77,1497,0,REAL
12792,511.68,1,18,12.2,35.8,1498,0,REAL
12796,511.84,1,18,11.68,35.81,1499,0,REAL
12800,512,1,18,11.13,35.78,1500,0,REAL
12804,512.16,1,18,10.59,35.73,1501,0,REAL
12808,512.32,1,18,10.04,35.63,1502,0,REAL
12812,512.48,1,18,9.49,35.48,1503,0,REAL
12816,512.64,1,18,8.96,35.33,1504,0,REAL
12820,512.8,1,18,8.43,35.16,1505,0,REAL
12824,512.96,1,18,7.93,34.97,1506,0,REAL
12828,513.12,1,18,7.46,34.77,1507,0,REAL
12832,513.28,1,18,7.04,34.58,1508,0,REAL
12836,513.44,1,18,6.65,34.41,1509,0,REAL
12840,513.6,1,18,6.33,34.27,1510,0,REAL
12844,513.76,1,18,6.04,34.17,1511,0,REAL
12848,513.92,1,18,5.8,34.11,1512,0,REAL
12852,514.08,1,18,5.59,34.06,1513,0,REAL
12856,514.24,1,18,5.41,34.06,1514,0,REAL
12860,514.4,1,18,5.26,34.09,1515,0,REAL
12868,514.72,1,18,4.98,34.19,1517,0,REAL
12872,514.88,1,18,4.86,34.25,1518,0,REAL
12876,515.04,1,18,4.72,34.3,1519,0,REAL
12880,515.2,1,18,4.58,34.33,1520,0,REAL
12884,515.36,1,18,4.41,34.36,1521,0,REAL
12888,515.52,1,18,4.24,34.38,1522,0,REAL
12892,515.68,1,18,4.09,34.38,1523,0,REAL
12896,515.84,1,18,3.95,34.36,1524,0,REAL
12900,516,1,18,3.81,34.36,1525,0,REAL
12904,516.16,1,18,3.7,34.34,1526,0,REAL
12908,516.32,1,18,3.61,34.34,1527,0,REAL
12912,516.48,1,18,3.52,34.36,1528,0,REAL
12916,516.64,1,18,3.48,34.41,1529,0,REAL
12920,516.8,1,18,3.44,34.47,1530,0,REAL
12924,516.96,1,18,3.43,34.52,1531,0,REAL
12928,517.12,1,18,3.41,34.59,1532,0,REAL
12936,517.44,1,18,3.41,34.75,1534,0,REAL
12940,517.6,1,18,3.38,34.81,1535,0,REAL
12944,517.76,1,18,3.38,34.84,1536,0,REAL
12948,517.92,1,18,3.4,34.84,1537,0,REAL
12952,518.08,1,18,3.38,34.84,1538,0,REAL
12956,518.24,1,18,3.37,34.83,1539,0,REAL
12960,518.4,1,18,3.34,34.8,1540,0,REAL
12964,518.56,1,18,3.33,34.77,1541,0,REAL
12968,518.72,1,18,3.3,34.75,1542,0,REAL
12972,518.88,1,18,3.26,34.69,1543,0,REAL
12976,519.04,1,18,3.22,34.64,1544,0,REAL
12980,519.2,1,18,3.18,34.58,1545,0,REAL
12984,519.36,1,18,3.12,34.52,1546,0,REAL
12988,519.52,1,18,3.05,34.44,1547,0,REAL
12992,519.68,1,18,2.98,34.36,1548,0,REAL
12996,519.84,1,18,2.91,34.27,1549,0,REAL
13000,520,1,18,2.68,34.34,1550,0,REAL
13004,520.16,1,18,2.43,34.41,1551,0,REAL
13008,520.32,1,18,2.31,34.48,1552,0,REAL
13012,520.48,1,18,2.41,34.55,1553,0,REAL
13016,520.64,1,18,2.26,34.44,1554,0,REAL
13020,520.8,1,18,2.02,34.33,1555,0,REAL
13024,520.96,1,18,1.84,34.25,1556,0,REAL
13028,521.12,1,18,1.73,34.23,1557,0,REAL
13032,521.28,1,18,1.66,34.23,1558,0,REAL
13036,521.44,1,18,1.61,34.27,1559,0,REAL
13040,521.6,1,18,1.59,34.33,1560,0,REAL
13044,521.76,1,18,1.56,34.39,1561,0,REAL
13048,521.92,1,18,1.54,34.45,1562,0,REAL
13052,522.08,1,18,1.49,34.5,1563,0,REAL
13056,522.24,1,18,1.44,34.52,1564,0,REAL
13060,522.4,1,18,1.36,34.53,1565,0,REAL
13064,522.56,1,18,1.24,34.55,1566,0,REAL
13068,522.72,1,18,1.16,34.56,1567,0,REAL
13072,522.88,1,18,1.06,34.59,1568,0,REAL
13076,523.04,1,18,0.99,34.61,1569,0,REAL
13080,523.2,1,18,0.91,34.66,1570,0,REAL
13084,523.36,1,18,0.84,34.69,1571,0,REAL
13088,523.52,1,18,0.8,34.75,1572,0,REAL
13092,523.68,1,18,0.74,34.8,1573,0,REAL
13096,523.84,1,18,0.72,34.81,1574,0,REAL
13100,524,1,18,0.7,34.84,1575,0,REAL
13104,524.16,1,18,0.69,34.86,1576,0,REAL
13108,524.32,1,18,0.68,34.86,1577,0,REAL
13116,524.64,1,18,0.69,34.84,1579,0,REAL
13120,524.8,1,18,0.72,34.83,1580,0,REAL
13124,524.96,1,18,0.79,34.81,1581,0,REAL
13132,525.28,1,18,0.95,34.81,1583,0,REAL
13136,525.44,1,18,1.06,34.84,1584,0,REAL
13140,525.6,1,18,1.2,34.88,1585,0,REAL
13144,525.76,1,18,1.36,34.94,1586,0,REAL
13148,525.92,1,18,1.52,34.98,1587,0,REAL
13152,526.08,1,18,1.7,35.02,1588,0,REAL
13156,526.24,1,18,1.9,35.06,1589,0,REAL
13160,526.4,1,18,2.11,35.11,1590,0,REAL
13168,526.72,1,18,2.52,35.11,1592,0,REAL
13172,526.88,1,18,2.72,35.13,1593,0,REAL
13176,527.04,1,18,2.91,35.17,1594,0,REAL
13180,527.2,1,18,3.09,35.22,1595,0,REAL
13184,527.36,1,18,3.23,35.28,1596,0,REAL
13188,527.52,1,18,3.33,35.3,1597,0,REAL
13192,527.68,1,18,3.34,35.25,1598,0,REAL
13196,527.84,1,18,3.3,35.16,1599,0,REAL
13200,528,1,18,3.22,35.02,1600,0,REAL
13204,528.16,1,18,3.05,34.81,1601,0,REAL
13208,528.32,1,18,2.84,34.52,1602,0,REAL
13212,528.48,1,18,2.58,34.14,1603,0,REAL
13216,528.64,1,18,2.29,33.7,1604,0,REAL
13220,528.8,1,18,1.97,33.22,1605,0,REAL
13224,528.96,1,18,1.65,32.72,1606,0,REAL
13228,529.12,1,18,1.34,32.23,1607,0,REAL
13232,529.28,1,18,1.09,31.8,1608,0,REAL
13236,529.44,1,18,0.88,31.38,1609,0,REAL
13240,529.6,1,18,0.69,30.97,1610,0,REAL
13244,529.76,1,18,0.52,30.55,1611,0,REAL
13248,529.92,1,18,0.37,30.16,1612,0,REAL
13252,530.08,1,18,0.23,29.8,1613,0,REAL
13256,530.24,1,18,0.09,29.5,1614,0,REAL
13260,530.4,1,18,-0.05,29.19,1615,0,REAL
13264,530.56,1,18,-0.2,28.86,1616,0,REAL
