frame,time,team_id,player_id,x,y,id,fragment,type
24057,962.28,1,2,-40.41,13.159999999999995,4314,0,"ROT 180"
24061,962.44,1,2,-39.23,13.629999999999997,4315,0,"ROT 180"
24065,962.6,1,2,-38.03,14.099999999999996,4316,0,"ROT 180"
24073,962.92,1,2,-35.67,14.879999999999997,4318,0,"ROT 180"
24077,963.08,1,2,-34.53,15.219999999999997,4319,0,"ROT 180"
24081,963.24,1,2,-33.41,15.549999999999997,4320,0,"ROT 180"
24085,963.4,1,2,-32.239999999999995,15.939999999999998,4321,0,"ROT 180"
24089,963.56,1,2,-31.029999999999998,16.38,4322,0,"ROT 180"
24093,963.72,1,2,-29.849999999999998,16.849999999999998,4323,0,"ROT 180"
24097,963.88,1,2,-28.729999999999997,17.299999999999997,4324,0,"ROT 180"
24101,964.04,1,2,-27.599999999999998,17.769999999999996,4325,0,"ROT 180"
24105,964.2,1,2,-26.479999999999997,18.24,4326,0,"ROT 180"
24109,964.36,1,2,-25.319999999999997,18.849999999999998,4327,0,"ROT 180"
24113,964.52,1,2,-24.099999999999998,19.549999999999997,4328,0,"ROT 180"
24117,964.68,1,2,-22.909999999999997,20.24,4329,0,"ROT 180"
24121,964.84,1,2,-21.759999999999998,20.919999999999998,4330,0,"ROT 180"
24125,965,1,2,-20.709999999999997,21.459999999999997,4331,0,"ROT 180"
24129,965.16,1,2,-19.74,21.88,4332,0,"ROT 180"
24133,965.32,1,2,-18.919999999999998,22.2,4333,0,"ROT 180"
24137,965.48,1,2,-18.21,22.38,4334,0,"ROT 180"
24141,965.64,1,2,-17.509999999999998,22.58,4335,0,"ROT 180"
24145,965.8,1,2,-16.9,22.74,4336,0,"ROT 180"
24149,965.96,1,2,-16.369999999999997,22.84,4337,0,"ROT 180"
24153,966.12,1,2,-15.93,22.919999999999998,4338,0,"ROT 180"
24157,966.28,1,2,-15.479999999999997,23.08,4339,0,"ROT 180"
24161,966.44,1,2,-15.07,23.279999999999998,4340,0,"ROT 180"
24165,966.6,1,2,-14.589999999999996,23.56,4341,0,"ROT 180"
24169,966.76,1,2,-14.099999999999994,23.9,4342,0,"ROT 180"
24173,966.92,1,2,-13.640000000000002,24.23,4343,0,"ROT 180"
24177,967.08,1,2,-13.239999999999997,24.560000000000002,4344,0,"ROT 180"
24181,967.24,1,2,-12.9,24.84,4345,0,"ROT 180"
24185,967.4,1,2,-12.65,25.060000000000002,4346,0,"ROT 180"
24189,967.56,1,2,-12.449999999999998,25.28,4347,0,"ROT 180"
24193,967.72,1,2,-12.349999999999996,25.42,4348,0,"ROT 180"
24197,967.88,1,2,-12.239999999999997,25.619999999999997,4349,0,"ROT 180"
24201,968.04,1,2,-12.210000000000003,25.799999999999997,4350,0,"ROT 180"
24205,968.2,1,2,-12.180000000000001,25.979999999999997,4351,0,"ROT 180"
24209,968.36,1,2,-12.210000000000003,26.17,4352,0,"ROT 180"
24213,968.52,1,2,-12.180000000000001,26.439999999999998,4353,0,"ROT 180"
24217,968.68,1,2,-12.239999999999997,26.619999999999997,4354,0,"ROT 180"
24221,968.84,1,2,-12.239999999999997,26.810000000000002,4355,0,"ROT 180"
24225,969,1,2,-12.26,26.939999999999998,4356,0,"ROT 180"
24229,969.16,1,2,-12.320000000000002,27.049999999999997,4357,0,"ROT 180"
24233,969.32,1,2,-12.430000000000001,27.17,4358,0,"ROT 180"
24237,969.48,1,2,-12.589999999999998,27.310000000000002,4359,0,"ROT 180"
24241,969.64,1,2,-12.779999999999996,27.47,4360,0,"ROT 180"
24245,969.8,1,2,-12.989999999999997,27.6,4361,0,"ROT 180"
24249,969.96,1,2,-13.15,27.72,4362,0,"ROT 180"
24253,970.12,1,2,-13.339999999999998,27.810000000000002,4363,0,"ROT 180"
24257,970.28,1,2,-13.540000000000001,27.84,4364,0,"ROT 180"
24261,970.44,1,2,-13.729999999999999,27.85,4365,0,"ROT 180"
24265,970.6,1,2,-13.849999999999996,27.880000000000003,4366,0,"ROT 180"
24269,970.76,1,2,-13.930000000000001,27.880000000000003,4367,0,"ROT 180"
24273,970.92,1,2,-13.989999999999997,27.85,4368,0,"ROT 180"
24277,971.08,1,2,-14.029999999999996,27.79,4369,0,"ROT 180"
24281,971.24,1,2,-14.029999999999996,27.66,4370,0,"ROT 180"
24285,971.4,1,2,-14.070000000000002,27.490000000000002,4371,0,"ROT 180"
24289,971.56,1,2,-14.129999999999997,27.299999999999997,4372,0,"ROT 180"
24293,971.72,1,2,-14.210000000000003,27.060000000000002,4373,0,"ROT 180"
24297,971.88,1,2,-14.320000000000002,26.799999999999997,4374,0,"ROT 180"
24301,972.04,1,2,-14.460000000000003,26.509999999999998,4375,0,"ROT 180"
24305,972.2,1,2,-14.62,26.189999999999998,4376,0,"ROT 180"
24309,972.36,1,2,-14.849999999999996,25.869999999999997,4377,0,"ROT 180"
24313,972.52,1,2,-15.129999999999997,25.54,4378,0,"ROT 180"
24317,972.68,1,2,-15.4,25.259999999999998,4379,0,"ROT 180"
24321,972.84,1,2,-15.710000000000003,25.04,4380,0,"ROT 180"
24325,973,1,2,-16.009999999999998,24.84,4381,0,"ROT 180"
24329,973.16,1,2,-16.309999999999995,24.709999999999997,4382,0,"ROT 180"
24333,973.32,1,2,-16.599999999999994,24.59,4383,0,"ROT 180"
24337,973.48,1,2,-16.879999999999995,24.48,4384,0,"ROT 180"
24341,973.64,1,2,-17.169999999999995,24.349999999999998,4385,0,"ROT 180"
24345,973.8,1,2,-17.449999999999996,24.22,4386,0,"ROT 180"
24349,973.96,1,2,-17.71,24.099999999999998,4387,0,"ROT 180"
24353,974.12,1,2,-17.949999999999996,24.06,4388,0,"ROT 180"
24357,974.28,1,2,-18.169999999999995,24.02,4389,0,"ROT 180"
24361,974.44,1,2,-18.43,23.95,4390,0,"ROT 180"
24365,974.6,1,2,-18.779999999999994,23.81,4391,0,"ROT 180"
24369,974.76,1,2,-19.169999999999998,23.63,4392,0,"ROT 180"
24373,974.92,1,2,-19.549999999999997,23.47,4393,0,"ROT 180"
24377,975.08,1,2,-19.959999999999997,23.279999999999998,4394,0,"ROT 180"
24381,975.24,1,2,-20.439999999999998,22.99,4395,0,"ROT 180"
24385,975.4,1,2,-20.939999999999998,22.7,4396,0,"ROT 180"
24389,975.56,1,2,-21.459999999999997,22.349999999999998,4397,0,"ROT 180"
24393,975.72,1,2,-21.99,21.959999999999997,4398,0,"ROT 180"
24397,975.88,1,2,-22.529999999999998,21.519999999999996,4399,0,"ROT 180"
24401,976.04,1,2,-23.06,21.119999999999997,4400,0,"ROT 180"
24405,976.2,1,2,-23.549999999999997,20.74,4401,0,"ROT 180"
24409,976.36,1,2,-23.97,20.4,4402,0,"ROT 180"
24413,976.52,1,2,-24.369999999999997,20.089999999999996,4403,0,"ROT 180"
24417,976.68,1,2,-24.74,19.79,4404,0,"ROT 180"
24421,976.84,1,2,-25.119999999999997,19.47,4405,0,"ROT 180"
24425,977,1,2,-25.419999999999998,19.169999999999998,4406,0,"ROT 180"
24429,977.16,1,2,-25.659999999999997,18.97,4407,0,"ROT 180"
24433,977.32,1,2,-25.859999999999996,18.759999999999998,4408,0,"ROT 180"
24437,977.48,1,2,-26.069999999999997,18.56,4409,0,"ROT 180"
24441,977.64,1,2,-26.209999999999997,18.4,4410,0,"ROT 180"
24445,977.8,1,2,-26.339999999999996,18.259999999999998,4411,0,"ROT 180"
24449,977.96,1,2,-26.459999999999997,18.08,4412,0,"ROT 180"
24453,978.12,1,2,-26.569999999999997,17.909999999999997,4413,0,"ROT 180"
24457,978.28,1,2,-26.669999999999998,17.74,4414,0,"ROT 180"
24461,978.44,1,2,-26.779999999999998,17.599999999999998,4415,0,"ROT 180"
24465,978.6,1,2,-26.859999999999996,17.459999999999997,4416,0,"ROT 180"
24469,978.76,1,2,-26.929999999999996,17.33,4417,0,"ROT 180"
24473,978.92,1,2,-26.99,17.2,4418,0,"ROT 180"
24477,979.08,1,2,-27.029999999999998,17.04,4419,0,"ROT 180"
24481,979.24,1,2,-27.029999999999998,16.909999999999997,4420,0,"ROT 180"
24485,979.4,1,2,-26.99,16.81,4421,0,"ROT 180"
24489,979.56,1,2,-26.919999999999998,16.689999999999998,4422,0,"ROT 180"
24493,979.72,1,2,-26.819999999999997,16.56,4423,0,"ROT 180"
24497,979.88,1,2,-26.709999999999997,16.419999999999998,4424,0,"ROT 180"
24501,980.04,1,2,-26.569999999999997,16.279999999999998,4425,0,"ROT 180"
24505,980.2,1,2,-26.449999999999996,16.13,4426,0,"ROT 180"
24509,980.36,1,2,-26.279999999999998,16.02,4427,0,"ROT 180"
24513,980.52,1,2,-26.109999999999996,15.959999999999997,4428,0,"ROT 180"
24517,980.68,1,2,-25.949999999999996,15.95,4429,0,"ROT 180"
24521,980.84,1,2,-25.779999999999998,15.969999999999999,4430,0,"ROT 180"
24525,981,1,2,-25.639999999999997,15.979999999999997,4431,0,"ROT 180"
24529,981.16,1,2,-25.49,16.06,4432,0,"ROT 180"
24533,981.32,1,2,-25.349999999999998,16.15,4433,0,"ROT 180"
24537,981.48,1,2,-25.189999999999998,16.259999999999998,4434,0,"ROT 180"
24541,981.64,1,2,-25.029999999999998,16.349999999999998,4435,0,"ROT 180"
24545,981.8,1,2,-24.919999999999998,16.38,4436,0,"ROT 180"
24549,981.96,1,2,-24.819999999999997,16.349999999999998,4437,0,"ROT 180"
24553,982.12,1,2,-24.72,16.31,4438,0,"ROT 180"
24557,982.28,1,2,-24.619999999999997,16.29,4439,0,"ROT 180"
24561,982.44,1,2,-24.509999999999998,16.259999999999998,4440,0,"ROT 180"
24565,982.6,1,2,-24.419999999999998,16.22,4441,0,"ROT 180"
24569,982.76,1,2,-24.319999999999997,16.189999999999998,4442,0,"ROT 180"
24573,982.92,1,2,-24.24,16.15,4443,0,"ROT 180"
24577,983.08,1,2,-24.189999999999998,16.099999999999998,4444,0,"ROT 180"
24581,983.24,1,2,-24.169999999999998,16.029999999999998,4445,0,"ROT 180"
24585,983.4,1,2,-24.119999999999997,16.02,4446,0,"ROT 180"
24589,983.56,1,2,-24.08,15.989999999999998,4447,0,"ROT 180"
24601,984.04,1,2,-23.99,15.989999999999998,4450,0,"ROT 180"
24605,984.2,1,2,-23.959999999999997,16.08,4451,0,"ROT 180"
24609,984.36,1,2,-23.869999999999997,16.209999999999997,4452,0,"ROT 180"
24613,984.52,1,2,-23.759999999999998,16.409999999999997,4453,0,"ROT 180"
24617,984.68,1,2,-23.619999999999997,16.63,4454,0,"ROT 180"
24625,985,1,2,-23.319999999999997,17.169999999999998,4456,0,"ROT 180"
24629,985.16,1,2,-23.189999999999998,17.419999999999998,4457,0,"ROT 180"
24633,985.32,1,2,-23.08,17.669999999999998,4458,0,"ROT 180"
24637,985.48,1,2,-23.009999999999998,17.91,4459,0,"ROT 180"
24641,985.64,1,2,-22.979999999999997,18.099999999999998,4460,0,"ROT 180"
24645,985.8,1,2,-22.979999999999997,18.27,4461,0,"ROT 180"
24649,985.96,1,2,-23.009999999999998,18.4,4462,0,"ROT 180"
24653,986.12,1,2,-23.099999999999998,18.509999999999998,4463,0,"ROT 180"
24657,986.28,1,2,-23.229999999999997,18.59,4464,0,"ROT 180"
24661,986.44,1,2,-23.349999999999998,18.669999999999998,4465,0,"ROT 180"
24665,986.6,1,2,-23.479999999999997,18.74,4466,0,"ROT 180"
24669,986.76,1,2,-23.599999999999998,18.799999999999997,4467,0,"ROT 180"
24673,986.92,1,2,-23.709999999999997,18.88,4468,0,"ROT 180"
24677,987.08,1,2,-23.81,18.99,4469,0,"ROT 180"
24681,987.24,1,2,-23.919999999999998,19.099999999999998,4470,0,"ROT 180"
24685,987.4,1,2,-24.029999999999998,19.24,4471,0,"ROT 180"
24689,987.56,1,2,-24.139999999999997,19.349999999999998,4472,0,"ROT 180"
24693,987.72,1,2,-24.259999999999998,19.459999999999997,4473,0,"ROT 180"
24697,987.88,1,2,-24.38,19.56,4474,0,"ROT 180"
24701,988.04,1,2,-24.479999999999997,19.669999999999998,4475,0,"ROT 180"
24705,988.2,1,2,-24.569999999999997,19.83,4476,0,"ROT 180"
24709,988.36,1,2,-24.639999999999997,20.009999999999998,4477,0,"ROT 180"
24713,988.52,1,2,-24.689999999999998,20.22,4478,0,"ROT 180"
24717,988.68,1,2,-24.74,20.419999999999998,4479,0,"ROT 180"
24721,988.84,1,2,-24.779999999999998,20.619999999999997,4480,0,"ROT 180"
24725,989,1,2,-24.799999999999997,20.849999999999998,4481,0,"ROT 180"
24729,989.16,1,2,-24.799999999999997,21.099999999999998,4482,0,"ROT 180"
24733,989.32,1,2,-24.81,21.379999999999995,4483,0,"ROT 180"
24741,989.64,1,2,-24.849999999999998,21.879999999999995,4485,0,"ROT 180"
24745,989.8,1,2,-24.869999999999997,22.119999999999997,4486,0,"ROT 180"
24749,989.96,1,2,-24.88,22.339999999999996,4487,0,"ROT 180"
24753,990.12,1,2,-24.849999999999998,22.56,4488,0,"ROT 180"
24757,990.28,1,2,-24.779999999999998,22.799999999999997,4489,0,"ROT 180"
24761,990.44,1,2,-24.689999999999998,23.06,4490,0,"ROT 180"
24765,990.6,1,2,-24.56,23.339999999999996,4491,0,"ROT 180"
24769,990.76,1,2,-24.4,23.629999999999995,4492,0,"ROT 180"
24773,990.92,1,2,-24.189999999999998,23.949999999999996,4493,0,"ROT 180"
24777,991.08,1,2,-23.99,24.24,4494,0,"ROT 180"
24781,991.24,1,2,-23.779999999999998,24.56,4495,0,"ROT 180"
24785,991.4,1,2,-23.58,24.849999999999998,4496,0,"ROT 180"
24789,991.56,1,2,-23.439999999999998,25.08,4497,0,"ROT 180"
24793,991.72,1,2,-23.319999999999997,25.259999999999998,4498,0,"ROT 180"
24801,992.04,1,2,-23.159999999999997,25.419999999999998,4500,0,"ROT 180"
24805,992.2,1,2,-23.119999999999997,25.449999999999996,4501,0,"ROT 180"
24809,992.36,1,2,-23.08,25.409999999999997,4502,0,"ROT 180"
24813,992.52,1,2,-23.049999999999997,25.349999999999998,4503,0,"ROT 180"
24817,992.68,1,2,-22.99,25.209999999999997,4504,0,"ROT 180"
24821,992.84,1,2,-22.9,25.04,4505,0,"ROT 180"
24825,993,1,2,-22.799999999999997,24.799999999999997,4506,0,"ROT 180"
24829,993.16,1,2,-22.659999999999997,24.519999999999996,4507,0,"ROT 180"
24833,993.32,1,2,-22.439999999999998,24.24,4508,0,"ROT 180"
24837,993.48,1,2,-22.119999999999997,23.99,4509,0,"ROT 180"
24841,993.64,1,2,-21.74,23.73,4510,0,"ROT 180"
24845,993.8,1,2,-21.33,23.419999999999998,4511,0,"ROT 180"
24849,993.96,1,2,-20.9,23.15,4512,0,"ROT 180"
24853,994.12,1,2,-20.47,22.9,4513,0,"ROT 180"
24857,994.28,1,2,-20.06,22.759999999999998,4514,0,"ROT 180"
24861,994.44,1,2,-19.689999999999998,22.689999999999998,4515,0,"ROT 180"
24865,994.6,1,2,-19.349999999999998,22.7,4516,0,"ROT 180"
24869,994.76,1,2,-19.08,22.799999999999997,4517,0,"ROT 180"
24873,994.92,1,2,-18.869999999999997,22.91,4518,0,"ROT 180"
24877,995.08,1,2,-18.71,23.06,4519,0,"ROT 180"
24881,995.24,1,2,-18.629999999999995,23.13,4520,0,"ROT 180"
24885,995.4,1,2,-18.57,23.31,4521,0,"ROT 180"
24889,995.56,1,2,-18.559999999999995,23.599999999999998,4522,0,"ROT 180"
24893,995.72,1,2,-18.57,23.88,4523,0,"ROT 180"
24897,995.88,1,2,-18.619999999999997,24.099999999999998,4524,0,"ROT 180"
24901,996.04,1,2,-18.68,24.259999999999998,4525,0,"ROT 180"
24905,996.2,1,2,-18.79,24.34,4526,0,"ROT 180"
24909,996.36,1,2,-18.959999999999997,24.31,4527,0,"ROT 180"
24913,996.52,1,2,-19.08,24.27,4528,0,"ROT 180"
24917,996.68,1,2,-19.209999999999997,24.099999999999998,4529,0,"ROT 180"
24921,996.84,1,2,-19.319999999999997,23.849999999999998,4530,0,"ROT 180"
24925,997,1,2,-19.419999999999998,23.52,4531,0,"ROT 180"
24929,997.16,1,2,-19.419999999999998,23.08,4532,0,"ROT 180"
24933,997.32,1,2,-19.389999999999997,22.48,4533,0,"ROT 180"
24937,997.48,1,2,-19.259999999999998,21.779999999999998,4534,0,"ROT 180"
24941,997.64,1,2,-19.099999999999998,20.99,4535,0,"ROT 180"
24945,997.8,1,2,-18.849999999999994,20.34,4536,0,"ROT 180"
24949,997.96,1,2,-18.489999999999995,19.599999999999998,4537,0,"ROT 180"
24953,998.12,1,2,-18.059999999999995,18.849999999999998,4538,0,"ROT 180"
24957,998.28,1,2,-17.46,18.169999999999998,4539,0,"ROT 180"
24961,998.44,1,2,-16.849999999999994,17.45,4540,0,"ROT 180"
24965,998.6,1,2,-16.199999999999996,16.74,4541,0,"ROT 180"
24969,998.76,1,2,-15.43,16.099999999999998,4542,0,"ROT 180"
24973,998.92,1,2,-14.669999999999995,15.44,4543,0,"ROT 180"
24977,999.08,1,2,-14.029999999999994,14.729999999999999,4544,0,"ROT 180"
24981,999.24,1,2,-13.419999999999995,14.03,4545,0,"ROT 180"
24985,999.4,1,2,-12.869999999999997,13.37,4546,0,"ROT 180"
24989,999.56,1,2,-12.509999999999998,12.85,4547,0,"ROT 180"
24993,999.72,1,2,-12.089999999999996,12.22,4548,0,"ROT 180"
24997,999.88,1,2,-11.71,11.69,4549,0,"ROT 180"
25001,1000.04,1,2,-11.379999999999995,11.339999999999998,4550,0,"ROT 180"
25005,1000.2,1,2,-11.07,11.17,4551,0,"ROT 180"
25009,1000.36,1,2,-10.779999999999994,11.28,4552,0,"ROT 180"
25013,1000.52,1,2,-10.529999999999994,11.659999999999998,4553,0,"ROT 180"
25017,1000.68,1,2,-10.46,12.229999999999999,4554,0,"ROT 180"
25025,1001,1,2,-11.339999999999996,12.87,4556,0,"ROT 180"
25029,1001.16,1,2,-11.759999999999998,13.17,4557,0,"ROT 180"
25033,1001.32,1,2,-12.21,13.49,4558,0,"ROT 180"
25037,1001.48,1,2,-12.649999999999999,13.81,4559,0,"ROT 180"
25041,1001.64,1,2,-12.669999999999995,14.13,4560,0,"ROT 180"
25045,1001.8,1,2,-12.279999999999994,14.450000000000001,4561,0,"ROT 180"
25049,1001.96,1,2,-11.949999999999996,14.76,4562,0,"ROT 180"
25053,1002.12,1,2,-11.649999999999999,15.08,4563,0,"ROT 180"
25057,1002.28,1,2,-11.379999999999995,15.38,4564,0,"ROT 180"
25061,1002.44,1,2,-11.14,15.709999999999999,4565,0,"ROT 180"
25065,1002.6,1,2,-10.93,16.03,4566,0,"ROT 180"
25069,1002.76,1,2,-10.779999999999994,16.339999999999996,4567,0,"ROT 180"
25073,1002.92,1,2,-10.649999999999999,16.66,4568,0,"ROT 180"
25077,1003.08,1,2,-10.559999999999995,16.970000000000002,4569,0,"ROT 180"
25081,1003.24,1,2,-10.489999999999995,17.290000000000003,4570,0,"ROT 180"
25085,1003.4,1,2,-10.479999999999997,17.6,4571,0,"ROT 180"
25089,1003.56,1,2,-10.489999999999995,17.92,4572,0,"ROT 180"
25093,1003.72,1,2,-10.739999999999995,18.240000000000002,4573,0,"ROT 180"
25097,1003.88,1,2,-11.169999999999995,18.549999999999997,4574,0,"ROT 180"
25101,1004.04,1,2,-11.619999999999997,18.869999999999997,4575,0,"ROT 180"
25105,1004.2,1,2,-12.059999999999995,19.189999999999998,4576,0,"ROT 180"
25109,1004.36,1,2,-12.509999999999998,19.490000000000002,4577,0,"ROT 180"
25113,1004.52,1,2,-12.529999999999994,19.810000000000002,4578,0,"ROT 180"
25117,1004.68,1,2,-12.96,20.13,4579,0,"ROT 180"
25121,1004.84,1,2,-13.399999999999999,20.45,4580,0,"ROT 180"
25125,1005,1,2,-13.669999999999995,20.77,4581,0,"ROT 180"
25129,1005.16,1,2,-13.669999999999995,21.08,4582,0,"ROT 180"
25133,1005.32,1,2,-13.449999999999996,21.4,4583,0,"ROT 180"
25137,1005.48,1,2,-13.129999999999995,21.740000000000002,4584,0,"ROT 180"
25141,1005.64,1,2,-12.989999999999995,22.060000000000002,4585,0,"ROT 180"
25145,1005.8,1,2,-12.979999999999997,22.299999999999997,4586,0,"ROT 180"
25149,1005.96,1,2,-13.07,22.47,4587,0,"ROT 180"
25153,1006.12,1,2,-13.279999999999994,22.560000000000002,4588,0,"ROT 180"
25157,1006.28,1,2,-13.57,22.6,4589,0,"ROT 180"
25161,1006.44,1,2,-13.949999999999996,22.560000000000002,4590,0,"ROT 180"
25165,1006.6,1,2,-14.489999999999995,22.42,4591,0,"ROT 180"
25169,1006.76,1,2,-14.989999999999995,22.24,4592,0,"ROT 180"
25173,1006.92,1,2,-15.529999999999994,21.98,4593,0,"ROT 180"
25177,1007.08,1,2,-16.009999999999998,21.72,4594,0,"ROT 180"
25181,1007.24,1,2,-16.509999999999998,21.38,4595,0,"ROT 180"
25185,1007.4,1,2,-17.029999999999994,21.009999999999998,4596,0,"ROT 180"
25189,1007.56,1,2,-17.57,20.669999999999998,4597,0,"ROT 180"
25193,1007.72,1,2,-17.879999999999995,20.549999999999997,4598,0,"ROT 180"
25197,1007.88,1,2,-18.32,20.369999999999997,4599,0,"ROT 180"
25201,1008.04,1,2,-18.779999999999994,20.13,4600,0,"ROT 180"
25205,1008.2,1,2,-19.279999999999998,19.79,4601,0,"ROT 180"
25209,1008.36,1,2,-19.81,19.31,4602,0,"ROT 180"
25213,1008.52,1,2,-20.4,18.66,4603,0,"ROT 180"
25217,1008.68,1,2,-21.029999999999998,17.799999999999997,4604,0,"ROT 180"
25221,1008.84,1,2,-21.759999999999998,16.669999999999998,4605,0,"ROT 180"
25225,1009,1,2,-22.279999999999998,15.809999999999999,4606,0,"ROT 180"
25229,1009.16,1,2,-22.709999999999997,15.079999999999998,4607,0,"ROT 180"
25233,1009.32,1,2,-22.689999999999998,14.339999999999996,4608,0,"ROT 180"
25237,1009.48,1,2,-22.909999999999997,13.629999999999999,4609,0,"ROT 180"
25241,1009.64,1,2,-23.33,12.919999999999998,4610,0,"ROT 180"
25245,1009.8,1,2,-23.729999999999997,12.219999999999999,4611,0,"ROT 180"
25249,1009.96,1,2,-24.029999999999998,11.52,4612,0,"ROT 180"
25253,1010.12,1,2,-24.259999999999998,10.809999999999999,4613,0,"ROT 180"
25257,1010.28,1,2,-24.389999999999997,10.099999999999998,4614,0,"ROT 180"
25261,1010.44,1,2,-24.439999999999998,9.399999999999999,4615,0,"ROT 180"
25265,1010.6,1,2,-24.419999999999998,8.7,4616,0,"ROT 180"
25269,1010.76,1,2,-24.299999999999997,7.989999999999998,4617,0,"ROT 180"
25273,1010.92,1,2,-24.099999999999998,7.289999999999999,4618,0,"ROT 180"
25277,1011.08,1,2,-23.83,6.589999999999996,4619,0,"ROT 180"
25281,1011.24,1,2,-23.459999999999997,5.879999999999999,4620,0,"ROT 180"
