frame,time,team_id,player_id,x,y,id,fragment,type
22922,916.88,1,19,1.2099999999999937,36,4031,0,"ROT 180"
22926,917.04,1,19,1.3499999999999943,35.239999999999995,4032,0,"ROT 180"
22930,917.2,1,19,1.4599999999999955,34.44,4033,0,"ROT 180"
22934,917.36,1,19,1.569999999999995,33.629999999999995,4034,0,"ROT 180"
22938,917.52,1,19,1.599999999999996,32.97,4035,0,"ROT 180"
22942,917.68,1,19,1.6499999999999932,32.33,4036,0,"ROT 180"
22946,917.84,1,19,1.6499999999999932,31.81,4037,0,"ROT 180"
22950,918,1,19,1.6799999999999944,31.2,4038,0,"ROT 180"
22954,918.16,1,19,1.6799999999999944,30.79,4039,0,"ROT 180"
22958,918.32,1,19,1.7599999999999962,30.36,4040,0,"ROT 180"
22962,918.48,1,19,1.819999999999995,29.87,4041,0,"ROT 180"
22966,918.64,1,19,1.9599999999999955,29.23,4042,0,"ROT 180"
22970,918.8,1,19,2.099999999999996,28.61,4043,0,"ROT 180"
22974,918.96,1,19,2.2599999999999962,27.909999999999997,4044,0,"ROT 180"
22978,919.12,1,19,2.4299999999999944,27.269999999999996,4045,0,"ROT 180"
22982,919.28,1,19,2.599999999999996,26.57,4046,0,"ROT 180"
22986,919.44,1,19,2.819999999999995,25.86,4047,0,"ROT 180"
22990,919.6,1,19,3.069999999999995,25.07,4048,0,"ROT 180"
22994,919.76,1,19,3.319999999999995,24.34,4049,0,"ROT 180"
22998,919.92,1,19,3.6299999999999963,23.57,4050,0,"ROT 180"
23002,920.08,1,19,3.949999999999995,22.84,4051,0,"ROT 180"
23006,920.24,1,19,4.269999999999995,21.98,4052,0,"ROT 180"
23010,920.4,1,19,4.619999999999995,21.13,4053,0,"ROT 180"
23014,920.56,1,19,4.959999999999996,20.15,4054,0,"ROT 180"
23018,920.72,1,19,5.319999999999996,19.229999999999997,4055,0,"ROT 180"
23022,920.88,1,19,5.709999999999996,18.27,4056,0,"ROT 180"
23026,921.04,1,19,6.049999999999997,17.369999999999997,4057,0,"ROT 180"
23030,921.2,1,19,6.399999999999997,16.41,4058,0,"ROT 180"
23034,921.36,1,19,6.759999999999996,15.52,4059,0,"ROT 180"
23038,921.52,1,19,7.149999999999997,14.62,4060,0,"ROT 180"
23042,921.68,1,19,7.569999999999997,13.82,4061,0,"ROT 180"
23046,921.84,1,19,8.039999999999996,13.04,4062,0,"ROT 180"
23050,922,1,19,8.569999999999997,12.379999999999999,4063,0,"ROT 180"
23054,922.16,1,19,9.129999999999997,11.77,4064,0,"ROT 180"
23058,922.32,1,19,9.729999999999997,11.26,4065,0,"ROT 180"
23062,922.48,1,19,10.369999999999996,10.7,4066,0,"ROT 180"
23066,922.64,1,19,10.959999999999997,10.19,4067,0,"ROT 180"
23070,922.8,1,19,11.539999999999997,9.629999999999999,4068,0,"ROT 180"
23074,922.96,1,19,12.099999999999996,9.11,4069,0,"ROT 180"
23078,923.12,1,19,12.619999999999997,8.54,4070,0,"ROT 180"
23082,923.28,1,19,13.069999999999997,7.949999999999999,4071,0,"ROT 180"
23086,923.44,1,19,13.479999999999997,7.320000000000001,4072,0,"ROT 180"
23090,923.6,1,19,13.839999999999996,6.690000000000002,4073,0,"ROT 180"
23094,923.76,1,19,14.189999999999998,6.0200000000000005,4074,0,"ROT 180"
23098,923.92,1,19,14.479999999999997,5.38,4075,0,"ROT 180"
23102,924.08,1,19,14.769999999999996,4.73,4076,0,"ROT 180"
23106,924.24,1,19,15.019999999999996,4.109999999999999,4077,0,"ROT 180"
23110,924.4,1,19,15.299999999999997,3.539999999999999,4078,0,"ROT 180"
23114,924.56,1,19,15.569999999999997,2.969999999999999,4079,0,"ROT 180"
23118,924.72,1,19,15.849999999999998,2.41,4080,0,"ROT 180"
23122,924.88,1,19,16.099999999999998,1.9100000000000001,4081,0,"ROT 180"
23126,925.04,1,19,16.38,1.4400000000000013,4082,0,"ROT 180"
23130,925.2,1,19,16.669999999999998,0.9800000000000004,4083,0,"ROT 180"
23134,925.36,1,19,16.95,0.5500000000000007,4084,0,"ROT 180"
23138,925.52,1,19,17.229999999999997,0.15000000000000036,4085,0,"ROT 180"
23142,925.68,1,19,17.49,-0.2400000000000002,4086,0,"ROT 180"
23146,925.84,1,19,17.759999999999998,-0.6299999999999972,4087,0,"ROT 180"
23150,926,1,19,18.009999999999998,-0.9799999999999986,4088,0,"ROT 180"
23158,926.32,1,19,18.449999999999996,-1.6199999999999992,4090,0,"ROT 180"
23162,926.48,1,19,18.659999999999997,-1.8999999999999968,4091,0,"ROT 180"
23166,926.64,1,19,18.869999999999997,-2.1599999999999984,4092,0,"ROT 180"
23170,926.8,1,19,19.049999999999997,-2.429999999999998,4093,0,"ROT 180"
23174,926.96,1,19,19.229999999999997,-2.6599999999999984,4094,0,"ROT 180"
23178,927.12,1,19,19.409999999999997,-2.869999999999999,4095,0,"ROT 180"
23182,927.28,1,19,19.599999999999998,-3.039999999999999,4096,0,"ROT 180"
23186,927.44,1,19,19.799999999999997,-3.210000000000001,4097,0,"ROT 180"
23190,927.6,1,19,19.99,-3.3999999999999986,4098,0,"ROT 180"
23194,927.76,1,19,20.199999999999996,-3.539999999999999,4099,0,"ROT 180"
23198,927.92,1,19,20.409999999999997,-3.66,4100,0,"ROT 180"
23202,928.08,1,19,20.619999999999997,-3.789999999999999,4101,0,"ROT 180"
23206,928.24,1,19,20.82,-3.870000000000001,4102,0,"ROT 180"
23210,928.4,1,19,21.019999999999996,-3.9299999999999997,4103,0,"ROT 180"
23214,928.56,1,19,21.199999999999996,-4.02,4104,0,"ROT 180"
23218,928.72,1,19,21.369999999999997,-4.100000000000001,4105,0,"ROT 180"
23222,928.88,1,19,21.479999999999997,-4.23,4106,0,"ROT 180"
23226,929.04,1,19,21.589999999999996,-4.32,4107,0,"ROT 180"
23230,929.2,1,19,21.659999999999997,-4.449999999999999,4108,0,"ROT 180"
23234,929.36,1,19,21.7,-4.600000000000001,4109,0,"ROT 180"
23238,929.52,1,19,21.729999999999997,-4.760000000000002,4110,0,"ROT 180"
23242,929.68,1,19,21.729999999999997,-4.949999999999999,4111,0,"ROT 180"
23246,929.84,1,19,21.709999999999997,-5.129999999999999,4112,0,"ROT 180"
23250,930,1,19,21.7,-5.300000000000001,4113,0,"ROT 180"
23254,930.16,1,19,21.659999999999997,-5.48,4114,0,"ROT 180"
23258,930.32,1,19,21.63,-5.620000000000001,4115,0,"ROT 180"
23262,930.48,1,19,21.619999999999997,-5.760000000000002,4116,0,"ROT 180"
23266,930.64,1,19,21.589999999999996,-5.899999999999999,4117,0,"ROT 180"
23270,930.8,1,19,21.57,-6.039999999999999,4118,0,"ROT 180"
23274,930.96,1,19,21.549999999999997,-6.149999999999999,4119,0,"ROT 180"
23278,931.12,1,19,21.549999999999997,-6.270000000000003,4120,0,"ROT 180"
23282,931.28,1,19,21.57,-6.350000000000001,4121,0,"ROT 180"
23286,931.44,1,19,21.599999999999998,-6.43,4122,0,"ROT 180"
23290,931.6,1,19,21.64,-6.490000000000002,4123,0,"ROT 180"
23294,931.76,1,19,21.7,-6.549999999999997,4124,0,"ROT 180"
23298,931.92,1,19,21.779999999999998,-6.619999999999997,4125,0,"ROT 180"
23302,932.08,1,19,21.839999999999996,-6.68,4126,0,"ROT 180"
23306,932.24,1,19,21.909999999999997,-6.729999999999997,4127,0,"ROT 180"
23310,932.4,1,19,21.959999999999997,-6.789999999999999,4128,0,"ROT 180"
23314,932.56,1,19,21.99,-6.869999999999997,4129,0,"ROT 180"
23318,932.72,1,19,21.99,-6.979999999999997,4130,0,"ROT 180"
23322,932.88,1,19,21.979999999999997,-7.100000000000001,4131,0,"ROT 180"
23326,933.04,1,19,21.95,-7.229999999999997,4132,0,"ROT 180"
23330,933.2,1,19,21.909999999999997,-7.380000000000003,4133,0,"ROT 180"
23334,933.36,1,19,21.869999999999997,-7.549999999999997,4134,0,"ROT 180"
23338,933.52,1,19,21.81,-7.710000000000001,4135,0,"ROT 180"
23342,933.68,1,19,21.759999999999998,-7.899999999999999,4136,0,"ROT 180"
23346,933.84,1,19,21.7,-8.100000000000001,4137,0,"ROT 180"
23350,934,1,19,21.659999999999997,-8.299999999999997,4138,0,"ROT 180"
23354,934.16,1,19,21.63,-8.479999999999997,4139,0,"ROT 180"
23358,934.32,1,19,21.619999999999997,-8.630000000000003,4140,0,"ROT 180"
23362,934.48,1,19,21.630000000000003,-8.759999999999998,4141,0,"ROT 180"
23366,934.64,1,19,21.66,-8.880000000000003,4142,0,"ROT 180"
23370,934.8,1,19,21.73,-8.990000000000002,4143,0,"ROT 180"
23374,934.96,1,19,21.799999999999997,-9.090000000000003,4144,0,"ROT 180"
23378,935.12,1,19,21.92,-9.160000000000004,4145,0,"ROT 180"
23382,935.28,1,19,22.07,-9.229999999999997,4146,0,"ROT 180"
23386,935.44,1,19,22.23,-9.32,4147,0,"ROT 180"
23390,935.6,1,19,22.450000000000003,-9.369999999999997,4148,0,"ROT 180"
23394,935.76,1,19,22.619999999999997,-9.399999999999999,4149,0,"ROT 180"
23398,935.92,1,19,22.84,-9.479999999999997,4150,0,"ROT 180"
23402,936.08,1,19,23.060000000000002,-9.520000000000003,4151,0,"ROT 180"
23406,936.24,1,19,23.299999999999997,-9.57,4152,0,"ROT 180"
23410,936.4,1,19,23.52,-9.590000000000003,4153,0,"ROT 180"
23414,936.56,1,19,23.71,-9.619999999999997,4154,0,"ROT 180"
23418,936.72,1,19,23.91,-9.600000000000001,4155,0,"ROT 180"
23422,936.88,1,19,24.060000000000002,-9.57,4156,0,"ROT 180"
23426,937.04,1,19,24.16,-9.619999999999997,4157,0,"ROT 180"
23430,937.2,1,19,24.310000000000002,-9.649999999999995,4158,0,"ROT 180"
23434,937.36,1,19,24.490000000000002,-9.679999999999996,4159,0,"ROT 180"
23438,937.52,1,19,24.73,-9.7,4160,0,"ROT 180"
23442,937.68,1,19,24.96,-9.59,4161,0,"ROT 180"
23446,937.84,1,19,25.17,-9.52,4162,0,"ROT 180"
23450,938,1,19,25.35,-9.509999999999994,4163,0,"ROT 180"
23454,938.16,1,19,25.509999999999998,-9.509999999999994,4164,0,"ROT 180"
23458,938.32,1,19,25.630000000000003,-9.539999999999996,4165,0,"ROT 180"
23462,938.48,1,19,25.73,-9.59,4166,0,"ROT 180"
23466,938.64,1,19,25.799999999999997,-9.649999999999995,4167,0,"ROT 180"
23470,938.8,1,19,25.869999999999997,-9.729999999999993,4168,0,"ROT 180"
23474,938.96,1,19,25.909999999999997,-9.77,4169,0,"ROT 180"
23478,939.12,1,19,25.92,-9.819999999999997,4170,0,"ROT 180"
23490,939.6,1,19,25.979999999999997,-9.819999999999997,4173,0,"ROT 180"
23494,939.76,1,19,25.979999999999997,-9.77,4174,0,"ROT 180"
23498,939.92,1,19,25.990000000000002,-9.709999999999997,4175,0,"ROT 180"
23502,940.08,1,19,26.019999999999996,-9.629999999999999,4176,0,"ROT 180"
23506,940.24,1,19,26.03,-9.549999999999994,4177,0,"ROT 180"
23510,940.4,1,19,26.019999999999996,-9.489999999999998,4178,0,"ROT 180"
23514,940.56,1,19,25.990000000000002,-9.459999999999997,4179,0,"ROT 180"
23518,940.72,1,19,25.909999999999997,-9.459999999999997,4180,0,"ROT 180"
23522,940.88,1,19,25.759999999999998,-9.509999999999994,4181,0,"ROT 180"
23526,941.04,1,19,25.53,-9.549999999999994,4182,0,"ROT 180"
23530,941.2,1,19,25.23,-9.619999999999994,4183,0,"ROT 180"
23534,941.36,1,19,24.91,-9.649999999999995,4184,0,"ROT 180"
23538,941.52,1,19,24.48,-9.619999999999994,4185,0,"ROT 180"
23542,941.68,1,19,23.98,-9.630000000000003,4186,0,"ROT 180"
23546,941.84,1,19,23.46,-9.590000000000003,4187,0,"ROT 180"
23550,942,1,19,22.950000000000003,-9.509999999999998,4188,0,"ROT 180"
23554,942.16,1,19,22.48,-9.369999999999997,4189,0,"ROT 180"
23558,942.32,1,19,22.1,-9.18,4190,0,"ROT 180"
23562,942.48,1,19,21.78,-9.009999999999998,4191,0,"ROT 180"
23566,942.64,1,19,21.560000000000002,-8.899999999999999,4192,0,"ROT 180"
23570,942.8,1,19,21.48,-8.850000000000001,4193,0,"ROT 180"
23574,942.96,1,19,21.439999999999998,-8.869999999999997,4194,0,"ROT 180"
23578,943.12,1,19,21.45,-8.910000000000004,4195,0,"ROT 180"
23582,943.28,1,19,21.48,-8.990000000000002,4196,0,"ROT 180"
23586,943.44,1,19,21.48,-9.07,4197,0,"ROT 180"
23590,943.6,1,19,21.45,-9.149999999999999,4198,0,"ROT 180"
23594,943.76,1,19,21.34,-9.200000000000003,4199,0,"ROT 180"
23598,943.92,1,19,21.119999999999997,-9.200000000000003,4200,0,"ROT 180"
23602,944.08,1,19,20.759999999999998,-9.160000000000004,4201,0,"ROT 180"
23606,944.24,1,19,20.240000000000002,-9.049999999999997,4202,0,"ROT 180"
23610,944.4,1,19,19.7,-8.869999999999997,4203,0,"ROT 180"
23614,944.56,1,19,19.16,-8.700000000000003,4204,0,"ROT 180"
23618,944.72,1,19,18.619999999999997,-8.520000000000003,4205,0,"ROT 180"
23622,944.88,1,19,18.07,-8.340000000000003,4206,0,"ROT 180"
23626,945.04,1,19,17.53,-8.18,4207,0,"ROT 180"
23630,945.2,1,19,16.99,-7.990000000000002,4208,0,"ROT 180"
23638,945.52,1,19,15.91,-7.649999999999999,4210,0,"ROT 180"
23642,945.68,1,19,15.37,-7.460000000000001,4211,0,"ROT 180"
23646,945.84,1,19,14.809999999999999,-7.289999999999999,4212,0,"ROT 180"
23650,946,1,19,14.27,-7.100000000000001,4213,0,"ROT 180"
23658,946.32,1,19,13.19,-6.759999999999998,4215,0,"ROT 180"
23662,946.48,1,19,12.649999999999999,-6.57,4216,0,"ROT 180"
23670,946.8,1,19,11.549999999999999,-6.229999999999997,4218,0,"ROT 180"
23674,946.96,1,19,11.009999999999998,-6.039999999999999,4219,0,"ROT 180"
23678,947.12,1,19,10.479999999999999,-5.869999999999997,4220,0,"ROT 180"
23682,947.28,1,19,9.929999999999998,-5.699999999999999,4221,0,"ROT 180"
23686,947.44,1,19,9.379999999999999,-5.510000000000002,4222,0,"ROT 180"
23690,947.6,1,19,8.849999999999998,-5.34,4223,0,"ROT 180"
23694,947.76,1,19,8.289999999999997,-5.16,4224,0,"ROT 180"
23698,947.92,1,19,7.759999999999998,-4.98,4225,0,"ROT 180"
23702,948.08,1,19,7.209999999999999,-4.800000000000001,4226,0,"ROT 180"
23706,948.24,1,19,6.679999999999998,-4.629999999999999,4227,0,"ROT 180"
23710,948.4,1,19,6.119999999999997,-4.449999999999999,4228,0,"ROT 180"
23714,948.56,1,19,5.589999999999998,-4.27,4229,0,"ROT 180"
23718,948.72,1,19,5.039999999999997,-4.09,4230,0,"ROT 180"
23722,948.88,1,19,4.349999999999998,-4.23,4231,0,"ROT 180"
23726,949.04,1,19,3.399999999999997,-4.23,4232,0,"ROT 180"
23730,949.2,1,19,2.459999999999999,-4.260000000000002,4233,0,"ROT 180"
23734,949.36,1,19,1.5099999999999998,-4.34,4234,0,"ROT 180"
23738,949.52,1,19,0.5699999999999985,-4.41,4235,0,"ROT 180"
23742,949.68,1,19,-0.37000000000000277,-4.510000000000002,4236,0,"ROT 180"
23746,949.84,1,19,-1.3000000000000025,-4.59,4237,0,"ROT 180"
23750,950,1,19,-2.480000000000002,-4.649999999999999,4238,0,"ROT 180"
23754,950.16,1,19,-3.410000000000002,-4.66,4239,0,"ROT 180"
23758,950.32,1,19,-4.320000000000002,-4.620000000000001,4240,0,"ROT 180"
23762,950.48,1,19,-5.270000000000001,-4.540000000000003,4241,0,"ROT 180"
23766,950.64,1,19,-6.260000000000003,-4.3700000000000045,4242,0,"ROT 180"
23770,950.8,1,19,-7.24,-4.180000000000003,4243,0,"ROT 180"
23774,950.96,1,19,-8.270000000000001,-3.9300000000000033,4244,0,"ROT 180"
23778,951.12,1,19,-9.289999999999997,-3.650000000000002,4245,0,"ROT 180"
23782,951.28,1,19,-10.289999999999997,-3.3800000000000026,4246,0,"ROT 180"
23786,951.44,1,19,-11.24,-3.1600000000000037,4247,0,"ROT 180"
23790,951.6,1,19,-12.160000000000002,-3.020000000000003,4248,0,"ROT 180"
23794,951.76,1,19,-13.009999999999996,-2.980000000000004,4249,0,"ROT 180"
23798,951.92,1,19,-13.659999999999995,-3.1200000000000045,4250,0,"ROT 180"
23802,952.08,1,19,-14.209999999999999,-3.4300000000000033,4251,0,"ROT 180"
23806,952.24,1,19,-14.649999999999997,-3.820000000000004,4252,0,"ROT 180"
23810,952.4,1,19,-14.959999999999999,-4.260000000000005,4253,0,"ROT 180"
23814,952.56,1,19,-15.1,-4.840000000000003,4254,0,"ROT 180"
23818,952.72,1,19,-15.119999999999996,-5.450000000000003,4255,0,"ROT 180"
23822,952.88,1,19,-15.020000000000001,-6.040000000000003,4256,0,"ROT 180"
23826,953.04,1,19,-14.819999999999999,-6.620000000000001,4257,0,"ROT 180"
23830,953.2,1,19,-14.539999999999997,-7.090000000000007,4258,0,"ROT 180"
23834,953.36,1,19,-14.119999999999996,-7.550000000000001,4259,0,"ROT 180"
23838,953.52,1,19,-13.649999999999997,-7.930000000000003,4260,0,"ROT 180"
23842,953.68,1,19,-13.149999999999997,-8.180000000000003,4261,0,"ROT 180"
23846,953.84,1,19,-12.649999999999997,-8.320000000000004,4262,0,"ROT 180"
23850,954,1,19,-12.120000000000003,-8.370000000000001,4263,0,"ROT 180"
23854,954.16,1,19,-11.510000000000003,-8.400000000000002,4264,0,"ROT 180"
23858,954.32,1,19,-10.929999999999998,-8.290000000000003,4265,0,"ROT 180"
23862,954.48,1,19,-10.450000000000001,-8.040000000000003,4266,0,"ROT 180"
23866,954.64,1,19,-9.88,-7.760000000000002,4267,0,"ROT 180"
23870,954.8,1,19,-9.270000000000001,-7.570000000000004,4268,0,"ROT 180"
23874,954.96,1,19,-8.700000000000001,-7.430000000000003,4269,0,"ROT 180"
23878,955.12,1,19,-8.13,-7.300000000000001,4270,0,"ROT 180"
23882,955.28,1,19,-7.709999999999999,-7.200000000000006,4271,0,"ROT 180"
23886,955.44,1,19,-7.179999999999998,-7.050000000000001,4272,0,"ROT 180"
23890,955.6,1,19,-6.700000000000001,-6.910000000000007,4273,0,"ROT 180"
23894,955.76,1,19,-6.270000000000001,-6.760000000000002,4274,0,"ROT 180"
23898,955.92,1,19,-5.910000000000002,-6.570000000000004,4275,0,"ROT 180"
23902,956.08,1,19,-5.65,-6.370000000000001,4276,0,"ROT 180"
23906,956.24,1,19,-5.480000000000002,-6.150000000000002,4277,0,"ROT 180"
23910,956.4,1,19,-5.210000000000003,-5.820000000000004,4278,0,"ROT 180"
23914,956.56,1,19,-4.770000000000001,-5.430000000000003,4279,0,"ROT 180"
23918,956.72,1,19,-4.450000000000001,-5.039999999999999,4280,0,"ROT 180"
23922,956.88,1,19,-4.270000000000001,-4.629999999999999,4281,0,"ROT 180"
23926,957.04,1,19,-4.450000000000001,-4.240000000000002,4282,0,"ROT 180"
23930,957.2,1,19,-4.630000000000001,-3.84,4283,0,"ROT 180"
23934,957.36,1,19,-4.790000000000001,-3.450000000000003,4284,0,"ROT 180"
23938,957.52,1,19,-4.960000000000003,-3.1600000000000037,4285,0,"ROT 180"
23942,957.68,1,19,-4.880000000000001,-3.2100000000000044,4286,0,"ROT 180"
23946,957.84,1,19,-4.770000000000001,-3.260000000000005,4287,0,"ROT 180"
23950,958,1,19,-4.600000000000003,-3.3200000000000003,4288,0,"ROT 180"
23954,958.16,1,19,-4.380000000000001,-3.370000000000001,4289,0,"ROT 180"
23958,958.32,1,19,-4.100000000000003,-3.41,4290,0,"ROT 180"
23962,958.48,1,19,-3.790000000000001,-3.460000000000001,4291,0,"ROT 180"
23966,958.64,1,19,-3.4300000000000015,-3.5100000000000016,4292,0,"ROT 180"
23970,958.8,1,19,-3.0100000000000033,-3.5700000000000003,4293,0,"ROT 180"
23974,958.96,1,19,-2.480000000000002,-3.3999999999999986,4294,0,"ROT 180"
23978,959.12,1,19,-1.8700000000000028,-3.1799999999999997,4295,0,"ROT 180"
23982,959.28,1,19,-1.2300000000000022,-2.960000000000001,4296,0,"ROT 180"
23986,959.44,1,19,-0.5400000000000009,-2.7400000000000038,4297,0,"ROT 180"
23990,959.6,1,19,0.1999999999999975,-2.540000000000001,4298,0,"ROT 180"
23994,959.76,1,19,0.9499999999999975,-2.320000000000002,4299,0,"ROT 180"
23998,959.92,1,19,1.7299999999999986,-2.1200000000000028,4300,0,"ROT 180"
24002,960.08,1,19,2.709999999999999,-1.8399999999999999,4301,0,"ROT 180"
24006,960.24,1,19,3.5399999999999974,-1.5899999999999999,4302,0,"ROT 180"
24014,960.56,1,19,5.1999999999999975,-1.1499999999999986,4304,0,"ROT 180"
24018,960.72,1,19,6.009999999999998,-0.9499999999999993,4305,0,"ROT 180"
24022,960.88,1,19,6.849999999999998,-0.740000000000002,4306,0,"ROT 180"
24026,961.04,1,19,7.679999999999998,-0.5599999999999987,4307,0,"ROT 180"
24030,961.2,1,19,8.509999999999998,-0.370000000000001,4308,0,"ROT 180"
24034,961.36,1,19,9.369999999999997,-0.1999999999999993,4309,0,"ROT 180"
24038,961.52,1,19,10.209999999999999,0.019999999999999574,4310,0,"ROT 180"
24042,961.68,1,19,11.069999999999999,0.23000000000000043,4311,0,"ROT 180"
24046,961.84,1,19,11.909999999999998,0.4400000000000013,4312,0,"ROT 180"
24050,962,1,19,12.759999999999998,0.6400000000000006,4313,0,"ROT 180"
24054,962.16,1,19,13.619999999999997,0.8399999999999999,4314,0,"ROT 180"
24058,962.32,1,19,14.459999999999997,1.0899999999999999,4315,0,"ROT 180"
24062,962.48,1,19,15.319999999999999,1.3399999999999999,4316,0,"ROT 180"
24066,962.64,1,19,16.2,1.620000000000001,4317,0,"ROT 180"
24070,962.8,1,19,17.089999999999996,1.8800000000000008,4318,0,"ROT 180"
24074,962.96,1,19,18.009999999999998,2.160000000000002,4319,0,"ROT 180"
24078,963.12,1,19,18.909999999999997,2.4300000000000015,4320,0,"ROT 180"
24082,963.28,1,19,19.839999999999996,2.700000000000001,4321,0,"ROT 180"
24086,963.44,1,19,20.769999999999996,2.950000000000001,4322,0,"ROT 180"
24090,963.6,1,19,21.729999999999997,3.230000000000002,4323,0,"ROT 180"
24094,963.76,1,19,22.689999999999998,3.5200000000000014,4324,0,"ROT 180"
24098,963.92,1,19,23.63,3.8400000000000016,4325,0,"ROT 180"
24102,964.08,1,19,24.56,4.140000000000002,4326,0,"ROT 180"
24106,964.24,1,19,25.519999999999996,4.450000000000001,4327,0,"ROT 180"
24110,964.4,1,19,26.439999999999998,4.76,4328,0,"ROT 180"
24114,964.56,1,19,27.349999999999994,5.110000000000001,4329,0,"ROT 180"
24118,964.72,1,19,28.229999999999997,5.400000000000001,4330,0,"ROT 180"
24126,965.04,1,19,29.949999999999996,5.980000000000003,4332,0,"ROT 180"
24130,965.2,1,19,30.799999999999997,6.260000000000001,4333,0,"ROT 180"
24134,965.36,1,19,31.599999999999994,6.510000000000001,4334,0,"ROT 180"
24138,965.52,1,19,32.379999999999995,6.770000000000002,4335,0,"ROT 180"
24142,965.68,1,19,33.14,7.020000000000002,4336,0,"ROT 180"
24146,965.84,1,19,33.879999999999995,7.300000000000003,4337,0,"ROT 180"
24150,966,1,19,34.62,7.570000000000003,4338,0,"ROT 180"
