frame,time,team_id,player_id,x,y,id,fragment,type
16349,653.96,1,2,-2.17,19.99,2387,0,"SYM X"
16353,654.12,1,2,-1.7900000000000014,20,2388,0,"SYM X"
16357,654.28,1,2,-1.450000000000001,20.07,2389,0,"SYM X"
16361,654.44,1,2,-1.1400000000000006,20.2,2390,0,"SYM X"
16365,654.6,1,2,-0.8399999999999999,20.3,2391,0,"SYM X"
16369,654.76,1,2,-0.5399999999999994,20.41,2392,0,"SYM X"
16373,654.92,1,2,-0.2800000000000007,20.48,2393,0,"SYM X"
16377,655.08,1,2,-0.030000000000000915,20.56,2394,0,"SYM X"
16381,655.24,1,2,0.1799999999999995,20.64,2395,0,"SYM X"
16385,655.4,1,2,0.39999999999999836,20.71,2396,0,"SYM X"
16389,655.56,1,2,0.6299999999999986,20.78,2397,0,"SYM X"
16393,655.72,1,2,0.8599999999999997,20.84,2398,0,"SYM X"
16397,655.88,1,2,1.0999999999999999,20.88,2399,0,"SYM X"
16401,656.04,1,2,1.3799999999999994,20.86,2400,0,"SYM X"
16405,656.2,1,2,1.54,20.84,2401,0,"SYM X"
16409,656.36,1,2,1.7699999999999991,20.82,2402,0,"SYM X"
16413,656.52,1,2,1.9599999999999995,20.82,2403,0,"SYM X"
16417,656.68,1,2,2.1099999999999994,20.85,2404,0,"SYM X"
16421,656.84,1,2,2.24,20.91,2405,0,"SYM X"
16425,657,1,2,2.3299999999999996,21.03,2406,0,"SYM X"
16429,657.16,1,2,2.3800000000000003,21.2,2407,0,"SYM X"
16433,657.32,1,2,2.29,21.28,2408,0,"SYM X"
16437,657.48,1,2,2.13,21.22,2409,0,"SYM X"
16441,657.64,1,2,1.9699999999999995,21.16,2410,0,"SYM X"
16445,657.8,1,2,1.82,21.11,2411,0,"SYM X"
16449,657.96,1,2,1.68,21.05,2412,0,"SYM X"
16453,658.12,1,2,1.54,20.99,2413,0,"SYM X"
16457,658.28,1,2,1.4200000000000002,20.93,2414,0,"SYM X"
16461,658.44,1,2,1.31,20.88,2415,0,"SYM X"
16465,658.6,1,2,1.2000000000000002,20.82,2416,0,"SYM X"
16469,658.76,1,2,1.0799999999999998,20.77,2417,0,"SYM X"
16473,658.92,1,2,0.9899999999999998,20.7,2418,0,"SYM X"
16477,659.08,1,2,0.8900000000000006,20.66,2419,0,"SYM X"
16481,659.24,1,2,0.8099999999999994,20.59,2420,0,"SYM X"
16485,659.4,1,2,0.74,20.53,2421,0,"SYM X"
16489,659.56,1,2,0.6699999999999993,20.47,2422,0,"SYM X"
16493,659.72,1,2,0.5999999999999999,20.42,2423,0,"SYM X"
16497,659.88,1,2,0.5599999999999992,20.36,2424,0,"SYM X"
16501,660.04,1,2,0.4999999999999998,20.3,2425,0,"SYM X"
16505,660.2,1,2,0.4600000000000015,20.24,2426,0,"SYM X"
16509,660.36,1,2,0.42999999999999927,20.2,2427,0,"SYM X"
16513,660.52,1,2,0.4199999999999997,20.13,2428,0,"SYM X"
16517,660.68,1,2,0.390000000000001,20.07,2429,0,"SYM X"
16521,660.84,1,2,0.3799999999999988,20.02,2430,0,"SYM X"
16529,661.16,1,2,0.3799999999999988,19.91,2432,0,"SYM X"
16533,661.32,1,2,0.390000000000001,19.84,2433,0,"SYM X"
16537,661.48,1,2,0.4199999999999997,19.78,2434,0,"SYM X"
16541,661.64,1,2,0.4499999999999993,19.73,2435,0,"SYM X"
16545,661.8,1,2,0.46999999999999886,19.67,2436,0,"SYM X"
16549,661.96,1,2,0.5199999999999998,19.61,2437,0,"SYM X"
16553,662.12,1,2,0.5599999999999992,19.55,2438,0,"SYM X"
16557,662.28,1,2,0.6100000000000001,19.5,2439,0,"SYM X"
16561,662.44,1,2,0.6699999999999993,19.45,2440,0,"SYM X"
16565,662.6,1,2,0.74,19.38,2441,0,"SYM X"
16569,662.76,1,2,0.8200000000000001,19.32,2442,0,"SYM X"
16573,662.92,1,2,0.8999999999999984,19.27,2443,0,"SYM X"
16577,663.08,1,2,0.9999999999999998,19.21,2444,0,"SYM X"
16581,663.24,1,2,1.0999999999999999,19.16,2445,0,"SYM X"
16585,663.4,1,2,1.2099999999999997,19.09,2446,0,"SYM X"
16589,663.56,1,2,1.31,19.04,2447,0,"SYM X"
16593,663.72,1,2,1.4300000000000002,18.98,2448,0,"SYM X"
16597,663.88,1,2,1.56,18.92,2449,0,"SYM X"
16601,664.04,1,2,1.7099999999999997,18.86,2450,0,"SYM X"
16605,664.2,1,2,1.8499999999999996,18.81,2451,0,"SYM X"
16609,664.36,1,2,1.9900000000000007,18.75,2452,0,"SYM X"
16613,664.52,1,2,2.1499999999999986,18.7,2453,0,"SYM X"
16617,664.68,1,2,2.3099999999999996,18.63,2454,0,"SYM X"
16621,664.84,1,2,2.49,18.59,2455,0,"SYM X"
16625,665,1,2,2.67,18.52,2456,0,"SYM X"
16629,665.16,1,2,2.849999999999999,18.46,2457,0,"SYM X"
16633,665.32,1,2,3.0399999999999996,18.41,2458,0,"SYM X"
16637,665.48,1,2,3.24,18.35,2459,0,"SYM X"
16641,665.64,1,2,3.4599999999999995,18.29,2460,0,"SYM X"
16649,665.96,1,2,3.8799999999999994,18.17,2462,0,"SYM X"
16653,666.12,1,2,4.109999999999999,18.13,2463,0,"SYM X"
16657,666.28,1,2,4.35,18.06,2464,0,"SYM X"
16661,666.44,1,2,4.5600000000000005,17.36,2465,0,"SYM X"
16665,666.6,1,2,4.7799999999999985,16.48,2466,0,"SYM X"
16669,666.76,1,2,5.08,16.09,2467,0,"SYM X"
16673,666.92,1,2,5.389999999999999,16.06,2468,0,"SYM X"
16677,667.08,1,2,5.609999999999999,16.18,2469,0,"SYM X"
16681,667.24,1,2,5.82,16.42,2470,0,"SYM X"
16685,667.4,1,2,5.92,16.63,2471,0,"SYM X"
16689,667.56,1,2,5.81,16.64,2472,0,"SYM X"
16693,667.72,1,2,5.85,16.56,2473,0,"SYM X"
16697,667.88,1,2,5.97,16.49,2474,0,"SYM X"
16701,668.04,1,2,6.06,16.41,2475,0,"SYM X"
16705,668.2,1,2,6.140000000000001,16.35,2476,0,"SYM X"
16709,668.36,1,2,6.25,16.32,2477,0,"SYM X"
16713,668.52,1,2,6.349999999999999,16.31,2478,0,"SYM X"
16717,668.68,1,2,6.460000000000001,16.32,2479,0,"SYM X"
16721,668.84,1,2,6.579999999999999,16.35,2480,0,"SYM X"
16725,669,1,2,6.71,16.39,2481,0,"SYM X"
16729,669.16,1,2,6.809999999999999,16.41,2482,0,"SYM X"
16733,669.32,1,2,6.89,16.47,2483,0,"SYM X"
16737,669.48,1,2,6.96,16.54,2484,0,"SYM X"
16741,669.64,1,2,7.029999999999999,16.63,2485,0,"SYM X"
16745,669.8,1,2,7.1,16.7,2486,0,"SYM X"
16749,669.96,1,2,7.1499999999999995,16.72,2487,0,"SYM X"
16753,670.12,1,2,7.21,16.74,2488,0,"SYM X"
16757,670.28,1,2,7.24,16.75,2489,0,"SYM X"
16761,670.44,1,2,7.279999999999999,16.73,2490,0,"SYM X"
16765,670.6,1,2,7.31,16.66,2491,0,"SYM X"
16769,670.76,1,2,7.38,16.54,2492,0,"SYM X"
16773,670.92,1,2,7.42,16.41,2493,0,"SYM X"
16777,671.08,1,2,7.46,16.23,2494,0,"SYM X"
16781,671.24,1,2,7.5,16.02,2495,0,"SYM X"
16785,671.4,1,2,7.529999999999999,15.81,2496,0,"SYM X"
16789,671.56,1,2,7.5600000000000005,15.63,2497,0,"SYM X"
16793,671.72,1,2,7.58,15.41,2498,0,"SYM X"
16797,671.88,1,2,7.609999999999999,15.17,2499,0,"SYM X"
16801,672.04,1,2,7.63,14.96,2500,0,"SYM X"
16805,672.2,1,2,7.64,14.71,2501,0,"SYM X"
16809,672.36,1,2,7.67,14.46,2502,0,"SYM X"
16813,672.52,1,2,7.68,14.21,2503,0,"SYM X"
16817,672.68,1,2,7.739999999999999,13.95,2504,0,"SYM X"
16821,672.84,1,2,7.81,13.67,2505,0,"SYM X"
16825,673,1,2,7.92,13.41,2506,0,"SYM X"
16829,673.16,1,2,8.040000000000001,13.13,2507,0,"SYM X"
16833,673.32,1,2,8.17,12.88,2508,0,"SYM X"
16837,673.48,1,2,8.309999999999999,12.59,2509,0,"SYM X"
16841,673.64,1,2,8.459999999999999,12.31,2510,0,"SYM X"
16845,673.8,1,2,8.6,12.05,2511,0,"SYM X"
16849,673.96,1,2,8.78,11.77,2512,0,"SYM X"
16853,674.12,1,2,8.93,11.48,2513,0,"SYM X"
