frame,time,team_id,player_id,x,y,id,fragment,type
26759,1070.36,2,21,-22.98,27.05,4990,0,"SYM X"
26763,1070.52,2,21,-22.570000000000004,27.19,4991,0,"SYM X"
26767,1070.68,2,21,-22.17,27.38,4992,0,"SYM X"
26771,1070.84,2,21,-21.729999999999997,27.52,4993,0,"SYM X"
26775,1071,2,21,-21.3,27.66,4994,0,"SYM X"
26779,1071.16,2,21,-20.9,27.83,4995,0,"SYM X"
26787,1071.48,2,21,-20.1,28.11,4997,0,"SYM X"
26791,1071.64,2,21,-19.71,28.25,4998,0,"SYM X"
26795,1071.8,2,21,-19.360000000000003,28.39,4999,0,"SYM X"
26799,1071.96,2,21,-19.01,28.5,5000,0,"SYM X"
26803,1072.12,2,21,-18.68,28.61,5001,0,"SYM X"
26807,1072.28,2,21,-18.330000000000002,28.66,5002,0,"SYM X"
26811,1072.44,2,21,-18,28.69,5003,0,"SYM X"
26815,1072.6,2,21,-17.69,28.72,5004,0,"SYM X"
26823,1072.92,2,21,-17.01,28.66,5006,0,"SYM X"
26827,1073.08,2,21,-16.67,28.58,5007,0,"SYM X"
26831,1073.24,2,21,-16.29,28.48,5008,0,"SYM X"
26835,1073.4,2,21,-15.93,28.39,5009,0,"SYM X"
26839,1073.56,2,21,-15.57,28.25,5010,0,"SYM X"
26843,1073.72,2,21,-15.19,28.14,5011,0,"SYM X"
26847,1073.88,2,21,-14.830000000000002,28.02,5012,0,"SYM X"
26851,1074.04,2,21,-14.470000000000002,27.89,5013,0,"SYM X"
26855,1074.2,2,21,-14.120000000000001,27.78,5014,0,"SYM X"
26859,1074.36,2,21,-13.760000000000002,27.66,5015,0,"SYM X"
26863,1074.52,2,21,-13.46,27.58,5016,0,"SYM X"
26867,1074.68,2,21,-13.15,27.53,5017,0,"SYM X"
26871,1074.84,2,21,-12.8,27.44,5018,0,"SYM X"
26875,1075,2,21,-12.46,27.36,5019,0,"SYM X"
26879,1075.16,2,21,-12.140000000000002,27.31,5020,0,"SYM X"
26883,1075.32,2,21,-11.850000000000001,27.3,5021,0,"SYM X"
26891,1075.64,2,21,-11.290000000000003,27.3,5023,0,"SYM X"
26895,1075.8,2,21,-10.98,27.28,5024,0,"SYM X"
26899,1075.96,2,21,-10.710000000000003,27.34,5025,0,"SYM X"
26903,1076.12,2,21,-10.420000000000002,27.41,5026,0,"SYM X"
26907,1076.28,2,21,-10.14,27.5,5027,0,"SYM X"
26911,1076.44,2,21,-9.930000000000003,27.69,5028,0,"SYM X"
26915,1076.6,2,21,-9.65,27.86,5029,0,"SYM X"
26919,1076.76,2,21,-9.400000000000002,28.02,5030,0,"SYM X"
26923,1076.92,2,21,-9.15,28.17,5031,0,"SYM X"
26927,1077.08,2,21,-8.860000000000003,28.23,5032,0,"SYM X"
26931,1077.24,2,21,-8.639999999999999,28.3,5033,0,"SYM X"
26935,1077.4,2,21,-8.4,28.3,5034,0,"SYM X"
26939,1077.56,2,21,-8.22,28.31,5035,0,"SYM X"
26943,1077.72,2,21,-7.9700000000000015,28.25,5036,0,"SYM X"
26947,1077.88,2,21,-7.6899999999999995,28.2,5037,0,"SYM X"
26951,1078.04,2,21,-7.4300000000000015,28.17,5038,0,"SYM X"
26955,1078.2,2,21,-7.1899999999999995,28.25,5039,0,"SYM X"
26959,1078.36,2,21,-6.970000000000001,28.38,5040,0,"SYM X"
26963,1078.52,2,21,-6.779999999999999,28.56,5041,0,"SYM X"
26967,1078.68,2,21,-6.58,28.83,5042,0,"SYM X"
26971,1078.84,2,21,-6.369999999999999,29.09,5043,0,"SYM X"
26975,1079,2,21,-6.1800000000000015,29.36,5044,0,"SYM X"
26979,1079.16,2,21,-6.000000000000003,29.55,5045,0,"SYM X"
26983,1079.32,2,21,-5.85,29.72,5046,0,"SYM X"
26987,1079.48,2,21,-5.720000000000001,29.78,5047,0,"SYM X"
26991,1079.64,2,21,-5.5699999999999985,29.77,5048,0,"SYM X"
26995,1079.8,2,21,-5.4399999999999995,29.77,5049,0,"SYM X"
26999,1079.96,2,21,-5.220000000000001,29.64,5050,0,"SYM X"
27003,1080.12,2,21,-5.01,29.55,5051,0,"SYM X"
27007,1080.28,2,21,-4.83,29.5,5052,0,"SYM X"
27011,1080.44,2,21,-4.67,29.5,5053,0,"SYM X"
27015,1080.6,2,21,-4.529999999999999,29.53,5054,0,"SYM X"
27019,1080.76,2,21,-4.369999999999999,29.59,5055,0,"SYM X"
27023,1080.92,2,21,-4.229999999999999,29.69,5056,0,"SYM X"
27027,1081.08,2,21,-4.110000000000001,29.8,5057,0,"SYM X"
27031,1081.24,2,21,-4.000000000000002,29.89,5058,0,"SYM X"
27035,1081.4,2,21,-3.9000000000000004,29.97,5059,0,"SYM X"
27039,1081.56,2,21,-3.83,30.03,5060,0,"SYM X"
27043,1081.72,2,21,-3.76,30.05,5061,0,"SYM X"
27047,1081.88,2,21,-3.6899999999999995,30.06,5062,0,"SYM X"
27051,1082.04,2,21,-3.6500000000000004,30.05,5063,0,"SYM X"
27055,1082.2,2,21,-3.58,30,5064,0,"SYM X"
27059,1082.36,2,21,-3.5299999999999994,29.97,5065,0,"SYM X"
27063,1082.52,2,21,-3.5000000000000018,29.94,5066,0,"SYM X"
27067,1082.68,2,21,-3.4700000000000006,29.92,5067,0,"SYM X"
27071,1082.84,2,21,-3.4300000000000015,29.91,5068,0,"SYM X"
27075,1083,2,21,-3.369999999999999,29.84,5069,0,"SYM X"
27079,1083.16,2,21,-3.299999999999999,29.8,5070,0,"SYM X"
27083,1083.32,2,21,-3.26,29.77,5071,0,"SYM X"
27087,1083.48,2,21,-3.26,29.75,5072,0,"SYM X"
27091,1083.64,2,21,-3.290000000000001,29.77,5073,0,"SYM X"
27095,1083.8,2,21,-3.33,29.78,5074,0,"SYM X"
27099,1083.96,2,21,-3.4399999999999995,29.78,5075,0,"SYM X"
27103,1084.12,2,21,-3.569999999999998,29.8,5076,0,"SYM X"
27107,1084.28,2,21,-3.7200000000000006,29.78,5077,0,"SYM X"
27111,1084.44,2,21,-3.889999999999999,29.77,5078,0,"SYM X"
27115,1084.6,2,21,-4.040000000000001,29.69,5079,0,"SYM X"
27119,1084.76,2,21,-4.220000000000001,29.61,5080,0,"SYM X"
27123,1084.92,2,21,-4.360000000000001,29.53,5081,0,"SYM X"
27127,1085.08,2,21,-4.51,29.44,5082,0,"SYM X"
27131,1085.24,2,21,-4.6899999999999995,29.31,5083,0,"SYM X"
27135,1085.4,2,21,-4.869999999999999,29.2,5084,0,"SYM X"
27139,1085.56,2,21,-5.0699999999999985,29.11,5085,0,"SYM X"
27147,1085.88,2,21,-5.51,29.05,5087,0,"SYM X"
27151,1086.04,2,21,-5.76,29.08,5088,0,"SYM X"
27155,1086.2,2,21,-6.040000000000001,29.13,5089,0,"SYM X"
27159,1086.36,2,21,-6.3199999999999985,29.22,5090,0,"SYM X"
27163,1086.52,2,21,-6.58,29.3,5091,0,"SYM X"
27167,1086.68,2,21,-6.85,29.34,5092,0,"SYM X"
27171,1086.84,2,21,-7.110000000000001,29.38,5093,0,"SYM X"
27175,1087,2,21,-7.3500000000000005,29.39,5094,0,"SYM X"
27179,1087.16,2,21,-7.58,29.42,5095,0,"SYM X"
27183,1087.32,2,21,-7.869999999999999,29.45,5096,0,"SYM X"
27187,1087.48,2,21,-8.139999999999999,29.45,5097,0,"SYM X"
27191,1087.64,2,21,-8.389999999999999,29.44,5098,0,"SYM X"
27195,1087.8,2,21,-8.639999999999999,29.42,5099,0,"SYM X"
27199,1087.96,2,21,-8.870000000000001,29.44,5100,0,"SYM X"
27203,1088.12,2,21,-9.12,29.47,5101,0,"SYM X"
27211,1088.44,2,21,-9.680000000000001,29.59,5103,0,"SYM X"
27215,1088.6,2,21,-9.94,29.63,5104,0,"SYM X"
27219,1088.76,2,21,-10.220000000000002,29.66,5105,0,"SYM X"
27223,1088.92,2,21,-10.46,29.64,5106,0,"SYM X"
27227,1089.08,2,21,-10.72,29.64,5107,0,"SYM X"
27231,1089.24,2,21,-10.98,29.66,5108,0,"SYM X"
27235,1089.4,2,21,-11.290000000000003,29.69,5109,0,"SYM X"
27239,1089.56,2,21,-11.55,29.69,5110,0,"SYM X"
27243,1089.72,2,21,-11.790000000000001,29.67,5111,0,"SYM X"
27247,1089.88,2,21,-12.040000000000001,29.66,5112,0,"SYM X"
27251,1090.04,2,21,-12.250000000000002,29.63,5113,0,"SYM X"
27255,1090.2,2,21,-12.470000000000002,29.61,5114,0,"SYM X"
27259,1090.36,2,21,-12.710000000000003,29.58,5115,0,"SYM X"
27263,1090.52,2,21,-12.94,29.56,5116,0,"SYM X"
27267,1090.68,2,21,-13.15,29.5,5117,0,"SYM X"
27271,1090.84,2,21,-13.39,29.44,5118,0,"SYM X"
27275,1091,2,21,-13.65,29.39,5119,0,"SYM X"
