frame,time,team_id,player_id,x,y,id,fragment,type
7850,314,2,26,29.950000000000003,-23.13,263,0,"SYM X"
7854,314.16,2,26,29.870000000000005,-23.37,264,0,"SYM X"
7858,314.32,2,26,29.730000000000004,-23.64,265,0,"SYM X"
7862,314.48,2,26,29.810000000000002,-23.83,266,0,"SYM X"
7866,314.64,2,26,29.980000000000004,-24,267,0,"SYM X"
7870,314.8,2,26,30.14,-24.17,268,0,"SYM X"
7874,314.96,2,26,30.290000000000006,-24.34,269,0,"SYM X"
7878,315.12,2,26,30.450000000000003,-24.5,270,0,"SYM X"
7886,315.44,2,26,30.730000000000004,-24.84,272,0,"SYM X"
7890,315.6,2,26,30.860000000000007,-25.01,273,0,"SYM X"
7894,315.76,2,26,30.980000000000004,-25.17,274,0,"SYM X"
7906,316.24,2,26,31.310000000000002,-25.68,277,0,"SYM X"
7910,316.4,2,26,31.42,-25.84,278,0,"SYM X"
7914,316.56,2,26,31.510000000000005,-26.01,279,0,"SYM X"
7922,316.88,2,26,31.67,-26.35,281,0,"SYM X"
7926,317.04,2,26,31.730000000000004,-26.51,282,0,"SYM X"
7930,317.2,2,26,31.790000000000006,-26.68,283,0,"SYM X"
7934,317.36,2,26,31.860000000000007,-26.85,284,0,"SYM X"
7938,317.52,2,26,31.900000000000006,-27.02,285,0,"SYM X"
7942,317.68,2,26,31.950000000000003,-27.18,286,0,"SYM X"
7950,318,2,26,32.010000000000005,-27.52,288,0,"SYM X"
7954,318.16,2,26,32.03,-27.69,289,0,"SYM X"
7958,318.32,2,26,32.06,-27.85,290,0,"SYM X"
7974,318.96,2,26,32.06,-28.52,294,0,"SYM X"
7978,319.12,2,26,32.03,-28.69,295,0,"SYM X"
7982,319.28,2,26,32.010000000000005,-28.86,296,0,"SYM X"
7986,319.44,2,26,31.980000000000004,-29.03,297,0,"SYM X"
7990,319.6,2,26,31.950000000000003,-29.19,298,0,"SYM X"
7994,319.76,2,26,31.900000000000006,-29.36,299,0,"SYM X"
7998,319.92,2,26,31.860000000000007,-29.53,300,0,"SYM X"
8002,320.08,2,26,31.790000000000006,-29.7,301,0,"SYM X"
8006,320.24,2,26,31.730000000000004,-29.86,302,0,"SYM X"
8010,320.4,2,26,31.67,-30.03,303,0,"SYM X"
8014,320.56,2,26,31.590000000000003,-30.2,304,0,"SYM X"
8018,320.72,2,26,31.500000000000007,-30.36,305,0,"SYM X"
8022,320.88,2,26,31.400000000000006,-30.53,306,0,"SYM X"
8026,321.04,2,26,31.310000000000002,-30.7,307,0,"SYM X"
8030,321.2,2,26,31.200000000000003,-30.87,308,0,"SYM X"
8034,321.36,2,26,31.090000000000003,-31.03,309,0,"SYM X"
8038,321.52,2,26,30.980000000000004,-31.2,310,0,"SYM X"
8042,321.68,2,26,30.860000000000007,-31.37,311,0,"SYM X"
8046,321.84,2,26,30.730000000000004,-31.54,312,0,"SYM X"
8050,322,2,26,30.590000000000003,-31.7,313,0,"SYM X"
8054,322.16,2,26,30.450000000000003,-31.87,314,0,"SYM X"
8058,322.32,2,26,30.290000000000006,-32.04,315,0,"SYM X"
8062,322.48,2,26,30.14,-32.2,316,0,"SYM X"
8066,322.64,2,26,29.980000000000004,-32.37,317,0,"SYM X"
8070,322.8,2,26,29.790000000000006,-32.54,318,0,"SYM X"
8074,322.96,2,26,29.590000000000003,-32.7,319,0,"SYM X"
8078,323.12,2,26,29.370000000000005,-32.88,320,0,"SYM X"
8082,323.28,2,26,29.120000000000005,-33.04,321,0,"SYM X"
8086,323.44,2,26,28.860000000000007,-33.21,322,0,"SYM X"
8094,323.76,2,26,28.260000000000005,-33.55,324,0,"SYM X"
8098,323.92,2,26,27.930000000000007,-33.71,325,0,"SYM X"
8102,324.08,2,26,27.590000000000003,-33.88,326,0,"SYM X"
8106,324.24,2,26,27.21,-34.05,327,0,"SYM X"
8110,324.4,2,26,26.82,-34.22,328,0,"SYM X"
8114,324.56,2,26,26.87,-34.09,329,0,"SYM X"
8118,324.72,2,26,27.39,-33.71,330,0,"SYM X"
8122,324.88,2,26,27.89,-33.32,331,0,"SYM X"
8126,325.04,2,26,28.39,-32.92,332,0,"SYM X"
8130,325.2,2,26,28.89,-32.53,333,0,"SYM X"
8134,325.36,2,26,29.400000000000006,-32.14,334,0,"SYM X"
8138,325.52,2,26,29.900000000000006,-31.74,335,0,"SYM X"
8142,325.68,2,26,30.400000000000006,-31.41,336,0,"SYM X"
8146,325.84,2,26,30.89,-31.27,337,0,"SYM X"
8150,326,2,26,31.370000000000005,-31.12,338,0,"SYM X"
8154,326.16,2,26,31.840000000000003,-30.98,339,0,"SYM X"
8158,326.32,2,26,32.31,-30.83,340,0,"SYM X"
8162,326.48,2,26,32.790000000000006,-30.69,341,0,"SYM X"
8166,326.64,2,26,33.28,-30.54,342,0,"SYM X"
8170,326.8,2,26,33.61000000000001,-30.38,343,0,"SYM X"
8174,326.96,2,26,33.81,-30.23,344,0,"SYM X"
8178,327.12,2,26,33.89,-30.07,345,0,"SYM X"
8182,327.28,2,26,33.870000000000005,-29.91,346,0,"SYM X"
8186,327.44,2,26,33.71,-29.75,347,0,"SYM X"
8190,327.6,2,26,33.43000000000001,-29.6,348,0,"SYM X"
8194,327.76,2,26,33.260000000000005,-29.46,349,0,"SYM X"
8198,327.92,2,26,33.67,-29.36,350,0,"SYM X"
8202,328.08,2,26,34.09,-29.26,351,0,"SYM X"
8206,328.24,2,26,34.510000000000005,-29.17,352,0,"SYM X"
8210,328.4,2,26,34.93000000000001,-29.07,353,0,"SYM X"
8214,328.56,2,26,35.34,-28.98,354,0,"SYM X"
8218,328.72,2,26,35.7,-28.88,355,0,"SYM X"
8222,328.88,2,26,36.010000000000005,-28.78,356,0,"SYM X"
8226,329.04,2,26,36.31,-28.69,357,0,"SYM X"
8230,329.2,2,26,36.56,-28.59,358,0,"SYM X"
8234,329.36,2,26,36.760000000000005,-28.5,359,0,"SYM X"
8238,329.52,2,26,36.93,-28.4,360,0,"SYM X"
8242,329.68,2,26,37.06,-28.3,361,0,"SYM X"
8246,329.84,2,26,37.150000000000006,-28.21,362,0,"SYM X"
8250,330,2,26,37.2,-28.11,363,0,"SYM X"
8254,330.16,2,26,37.230000000000004,-28.02,364,0,"SYM X"
8258,330.32,2,26,37.2,-27.92,365,0,"SYM X"
8262,330.48,2,26,37.14,-27.82,366,0,"SYM X"
8266,330.64,2,26,37.04,-27.73,367,0,"SYM X"
8270,330.8,2,26,36.900000000000006,-27.63,368,0,"SYM X"
8274,330.96,2,26,36.730000000000004,-27.54,369,0,"SYM X"
8278,331.12,2,26,36.510000000000005,-27.44,370,0,"SYM X"
8282,331.28,2,26,36.260000000000005,-27.34,371,0,"SYM X"
8286,331.44,2,26,35.96000000000001,-27.25,372,0,"SYM X"
8290,331.6,2,26,35.64000000000001,-27.15,373,0,"SYM X"
8294,331.76,2,26,35.28,-27.05,374,0,"SYM X"
8298,331.92,2,26,34.900000000000006,-26.96,375,0,"SYM X"
8306,332.24,2,26,35.480000000000004,-26.38,377,0,"SYM X"
8310,332.4,2,26,35.78,-26.13,378,0,"SYM X"
8314,332.56,2,26,36.09,-25.9,379,0,"SYM X"
8318,332.72,2,26,36.370000000000005,-25.7,380,0,"SYM X"
8322,332.88,2,26,36.67,-25.53,381,0,"SYM X"
8326,333.04,2,26,36.95,-25.4,382,0,"SYM X"
8330,333.2,2,26,37.150000000000006,-25.3,383,0,"SYM X"
8334,333.36,2,26,37.42,-25.22,384,0,"SYM X"
8338,333.52,2,26,37.650000000000006,-25.17,385,0,"SYM X"
8342,333.68,2,26,37.89,-25.15,386,0,"SYM X"
8346,333.84,2,26,38.09,-25.16,387,0,"SYM X"
8350,334,2,26,38.260000000000005,-25.2,388,0,"SYM X"
8354,334.16,2,26,38.4,-25.28,389,0,"SYM X"
8358,334.32,2,26,38.64000000000001,-25.33,390,0,"SYM X"
8366,334.64,2,26,39.14,-25.43,392,0,"SYM X"
8370,334.8,2,26,39.370000000000005,-25.48,393,0,"SYM X"
8374,334.96,2,26,39.620000000000005,-25.53,394,0,"SYM X"
8378,335.12,2,26,39.870000000000005,-25.59,395,0,"SYM X"
8382,335.28,2,26,40.11000000000001,-25.64,396,0,"SYM X"
8386,335.44,2,26,40.36000000000001,-25.69,397,0,"SYM X"
8390,335.6,2,26,40.59,-25.74,398,0,"SYM X"
