frame,time,team_id,player_id,x,y,id,fragment,type
33255,1330.2,1,6,43.45,2.13,6614,0,REAL
33259,1330.36,1,6,42.96,2.04,6615,0,REAL
33263,1330.52,1,6,42.46,1.95,6616,0,REAL
33267,1330.68,1,6,41.98,1.86,6617,0,REAL
33271,1330.84,1,6,41.49,1.78,6618,0,REAL
33275,1331,1,6,40.99,1.7,6619,0,REAL
33279,1331.16,1,6,40.51,1.6,6620,0,REAL
33283,1331.32,1,6,40.02,1.52,6621,0,REAL
33287,1331.48,1,6,39.52,1.42,6622,0,REAL
33291,1331.64,1,6,39.04,1.34,6623,0,REAL
33295,1331.8,1,6,38.54,1.25,6624,0,REAL
33299,1331.96,1,6,38.05,1.16,6625,0,REAL
33303,1332.12,1,6,37.57,1.07,6626,0,REAL
33307,1332.28,1,6,37.07,0.99,6627,0,REAL
33311,1332.44,1,6,36.59,0.91,6628,0,REAL
33315,1332.6,1,6,36.1,0.81,6629,0,REAL
33319,1332.76,1,6,35.6,0.72,6630,0,REAL
33323,1332.92,1,6,35.46,0.11,6631,0,REAL
33327,1333.08,1,6,34.37,-0.07,6632,0,REAL
33331,1333.24,1,6,32.71,0.03,6633,0,REAL
33335,1333.4,1,6,30.87,0.24,6634,0,REAL
33339,1333.56,1,6,29.27,0.38,6635,0,REAL
33343,1333.72,1,6,28.3,0.28,6636,0,REAL
33347,1333.88,1,6,27.91,-0.05,6637,0,REAL
33351,1334.04,1,6,26.7,-0.02,6638,0,REAL
33355,1334.2,1,6,25.48,0.02,6639,0,REAL
33359,1334.36,1,6,24.45,-0.08,6640,0,REAL
33363,1334.52,1,6,23.6,-0.29,6641,0,REAL
33367,1334.68,1,6,22.74,-0.48,6642,0,REAL
33371,1334.84,1,6,21.88,-0.69,6643,0,REAL
33375,1335,1,6,21.01,-0.89,6644,0,REAL
33379,1335.16,1,6,20.15,-1.09,6645,0,REAL
33383,1335.32,1,6,19.27,-1.3,6646,0,REAL
33387,1335.48,1,6,18.2,-1.58,6647,0,REAL
33391,1335.64,1,6,17.34,-1.8,6648,0,REAL
33395,1335.8,1,6,16.46,-2.14,6649,0,REAL
33399,1335.96,1,6,15.62,-2.46,6650,0,REAL
33403,1336.12,1,6,14.77,-2.82,6651,0,REAL
33407,1336.28,1,6,13.96,-3.19,6652,0,REAL
33411,1336.44,1,6,13.18,-3.58,6653,0,REAL
33415,1336.6,1,6,12.45,-4,6654,0,REAL
33419,1336.76,1,6,11.76,-4.36,6655,0,REAL
33423,1336.92,1,6,11.1,-4.77,6656,0,REAL
33427,1337.08,1,6,10.49,-5.25,6657,0,REAL
33431,1337.24,1,6,9.9,-5.71,6658,0,REAL
33435,1337.4,1,6,9.34,-6.19,6659,0,REAL
33439,1337.56,1,6,8.79,-6.59,6660,0,REAL
33443,1337.72,1,6,8.27,-7.13,6661,0,REAL
33447,1337.88,1,6,7.77,-7.59,6662,0,REAL
33451,1338.04,1,6,7.26,-8.12,6663,0,REAL
33455,1338.2,1,6,6.79,-8.52,6664,0,REAL
33459,1338.36,1,6,6.34,-8.94,6665,0,REAL
33463,1338.52,1,6,5.93,-9.36,6666,0,REAL
33467,1338.68,1,6,5.55,-9.76,6667,0,REAL
33471,1338.84,1,6,5.24,-10.14,6668,0,REAL
33475,1339,1,6,4.95,-10.47,6669,0,REAL
33479,1339.16,1,6,4.66,-10.95,6670,0,REAL
33483,1339.32,1,6,4.41,-11.46,6671,0,REAL
33487,1339.48,1,6,4.18,-12.03,6672,0,REAL
33491,1339.64,1,6,3.93,-12.53,6673,0,REAL
33495,1339.8,1,6,3.63,-13.15,6674,0,REAL
33499,1339.96,1,6,3.4,-13.74,6675,0,REAL
33503,1340.12,1,6,3.19,-14.49,6676,0,REAL
33507,1340.28,1,6,3.02,-15.09,6677,0,REAL
33511,1340.44,1,6,2.81,-15.69,6678,0,REAL
33515,1340.6,1,6,2.63,-16.22,6679,0,REAL
33519,1340.76,1,6,2.45,-16.99,6680,0,REAL
33523,1340.92,1,6,2.24,-17.84,6681,0,REAL
33527,1341.08,1,6,2.02,-18.8,6682,0,REAL
33531,1341.24,1,6,1.76,-19.88,6683,0,REAL
33535,1341.4,1,6,1.45,-21.1,6684,0,REAL
33539,1341.56,1,6,1.08,-22.46,6685,0,REAL
33543,1341.72,1,6,0.63,-24,6686,0,REAL
33547,1341.88,1,6,0.22,-24.48,6687,0,REAL
33551,1342.04,1,6,-0.14,-24.55,6688,0,REAL
33555,1342.2,1,6,-0.45,-24.65,6689,0,REAL
33559,1342.36,1,6,-0.71,-24.73,6690,0,REAL
33563,1342.52,1,6,-0.94,-24.8,6691,0,REAL
33567,1342.68,1,6,-1.1,-24.9,6692,0,REAL
33571,1342.84,1,6,-1.21,-24.98,6693,0,REAL
33575,1343,1,6,-1.28,-25.07,6694,0,REAL
33579,1343.16,1,6,-1.31,-25.15,6695,0,REAL
33583,1343.32,1,6,-1.28,-25.24,6696,0,REAL
33587,1343.48,1,6,-1.21,-25.32,6697,0,REAL
33591,1343.64,1,6,-1.09,-25.41,6698,0,REAL
33595,1343.8,1,6,-0.91,-25.49,6699,0,REAL
33599,1343.96,1,6,-0.7,-25.58,6700,0,REAL
33603,1344.12,1,6,-0.44,-25.66,6701,0,REAL
33607,1344.28,1,6,-0.12,-25.75,6702,0,REAL
33611,1344.44,1,6,0.24,-25.83,6703,0,REAL
33615,1344.6,1,6,0.66,-25.92,6704,0,REAL
33619,1344.76,1,6,1.12,-26,6705,0,REAL
33623,1344.92,1,6,0.88,-27.5,6706,0,REAL
33627,1345.08,1,6,0.8,-27.7,6707,0,REAL
33631,1345.24,1,6,0.66,-27.65,6708,0,REAL
33635,1345.4,1,6,0.48,-27.4,6709,0,REAL
33639,1345.56,1,6,0.26,-26.99,6710,0,REAL
33643,1345.72,1,6,-0.03,-26.47,6711,0,REAL
33647,1345.88,1,6,-0.39,-25.89,6712,0,REAL
33651,1346.04,1,6,-0.95,-25.16,6713,0,REAL
33655,1346.2,1,6,-1.48,-24.65,6714,0,REAL
33659,1346.36,1,6,-2.12,-24.32,6715,0,REAL
33663,1346.52,1,6,-2.87,-24.22,6716,0,REAL
33667,1346.68,1,6,-3.7,-24.26,6717,0,REAL
33671,1346.84,1,6,-4.55,-24.37,6718,0,REAL
33675,1347,1,6,-5.45,-24.47,6719,0,REAL
33679,1347.16,1,6,-6.31,-24.55,6720,0,REAL
33683,1347.32,1,6,-7.2,-24.66,6721,0,REAL
33687,1347.48,1,6,-7.92,-24.34,6722,0,REAL
33691,1347.64,1,6,-8.88,-24.42,6723,0,REAL
33695,1347.8,1,6,-9.76,-24.4,6724,0,REAL
33699,1347.96,1,6,-10.51,-23.98,6725,0,REAL
33703,1348.12,1,6,-11.16,-23.46,6726,0,REAL
33707,1348.28,1,6,-11.73,-22.85,6727,0,REAL
33711,1348.44,1,6,-12.2,-22.33,6728,0,REAL
33715,1348.6,1,6,-12.55,-21.86,6729,0,REAL
33719,1348.76,1,6,-12.85,-21.48,6730,0,REAL
33723,1348.92,1,6,-13.02,-21.09,6731,0,REAL
33727,1349.08,1,6,-13.12,-20.71,6732,0,REAL
33731,1349.24,1,6,-13.09,-20.15,6733,0,REAL
33735,1349.4,1,6,-12.92,-19.38,6734,0,REAL
33739,1349.56,1,6,-12.77,-18.62,6735,0,REAL
33743,1349.72,1,6,-12.64,-17.87,6736,0,REAL
33747,1349.88,1,6,-12.85,-17.63,6737,0,REAL
33751,1350.04,1,6,-12.87,-17.06,6738,0,REAL
33755,1350.2,1,6,-12.88,-16.54,6739,0,REAL
33759,1350.36,1,6,-12.84,-15.99,6740,0,REAL
33763,1350.52,1,6,-12.8,-15.34,6741,0,REAL
33767,1350.68,1,6,-12.71,-14.63,6742,0,REAL
33771,1350.84,1,6,-12.63,-13.98,6743,0,REAL
33779,1351.16,1,6,-12.55,-12.8,6745,0,REAL
33783,1351.32,1,6,-12.53,-12.29,6746,0,REAL
33787,1351.48,1,6,-12.49,-11.69,6747,0,REAL
33791,1351.64,1,6,-12.45,-11.08,6748,0,REAL
33795,1351.8,1,6,-12.46,-10.57,6749,0,REAL
33799,1351.96,1,6,-12.59,-10.27,6750,0,REAL
33803,1352.12,1,6,-12.69,-9.95,6751,0,REAL
33807,1352.28,1,6,-12.71,-9.63,6752,0,REAL
33811,1352.44,1,6,-12.73,-9.41,6753,0,REAL
33815,1352.6,1,6,-12.62,-8.93,6754,0,REAL
33819,1352.76,1,6,-12.48,-8.36,6755,0,REAL
33823,1352.92,1,6,-12.3,-7.99,6756,0,REAL
33827,1353.08,1,6,-12.13,-7.79,6757,0,REAL
33831,1353.24,1,6,-12.12,-7.7,6758,0,REAL
33835,1353.4,1,6,-12.03,-7.49,6759,0,REAL
33839,1353.56,1,6,-12.01,-7.38,6760,0,REAL
33843,1353.72,1,6,-12.01,-7.18,6761,0,REAL
33847,1353.88,1,6,-12.05,-6.86,6762,0,REAL
33851,1354.04,1,6,-12.13,-6.38,6763,0,REAL
33855,1354.2,1,6,-12.3,-5.69,6764,0,REAL
33859,1354.36,1,6,-12.52,-4.75,6765,0,REAL
33863,1354.52,1,6,-12.81,-3.51,6766,0,REAL
33867,1354.68,1,6,-12.94,-2.68,6767,0,REAL
33871,1354.84,1,6,-12.66,-2.5,6768,0,REAL
33875,1355,1,6,-12.39,-2.32,6769,0,REAL
33879,1355.16,1,6,-12.13,-2.14,6770,0,REAL
33887,1355.48,1,6,-11.63,-1.78,6772,0,REAL
33891,1355.64,1,6,-11.38,-1.59,6773,0,REAL
33895,1355.8,1,6,-11.13,-1.41,6774,0,REAL
33903,1356.12,1,6,-10.63,-1.05,6776,0,REAL
33907,1356.28,1,6,-10.39,-0.88,6777,0,REAL
33911,1356.44,1,6,-10.16,-0.7,6778,0,REAL
33915,1356.6,1,6,-9.91,-0.52,6779,0,REAL
33919,1356.76,1,6,-9.84,-0.34,6780,0,REAL
33923,1356.92,1,6,-9.81,-0.16,6781,0,REAL
33927,1357.08,1,6,-9.82,0.02,6782,0,REAL
33931,1357.24,1,6,-9.84,0.2,6783,0,REAL
33935,1357.4,1,6,-9.84,0.38,6784,0,REAL
33939,1357.56,1,6,-9.82,0.57,6785,0,REAL
33943,1357.72,1,6,-9.81,0.75,6786,0,REAL
33947,1357.88,1,6,-9.84,0.93,6787,0,REAL
33951,1358.04,1,6,-9.82,1.11,6788,0,REAL
33955,1358.2,1,6,-9.84,1.29,6789,0,REAL
33963,1358.52,1,6,-9.84,1.66,6791,0,REAL
33967,1358.68,1,6,-9.81,1.84,6792,0,REAL
33971,1358.84,1,6,-9.8,2.02,6793,0,REAL
33975,1359,1,6,-9.77,2.2,6794,0,REAL
33979,1359.16,1,6,-9.73,2.38,6795,0,REAL
33983,1359.32,1,6,-9.7,2.55,6796,0,REAL
33987,1359.48,1,6,-9.64,2.73,6797,0,REAL
33991,1359.64,1,6,-9.59,2.91,6798,0,REAL
33999,1359.96,1,6,-9.45,3.27,6800,0,REAL
34003,1360.12,1,6,-9.38,3.45,6801,0,REAL
34007,1360.28,1,6,-9.28,3.63,6802,0,REAL
34011,1360.44,1,6,-9.2,3.81,6803,0,REAL
34019,1360.76,1,6,-8.98,4.17,6805,0,REAL
34023,1360.92,1,6,-8.87,4.35,6806,0,REAL
34027,1361.08,1,6,-8.73,4.53,6807,0,REAL
34031,1361.24,1,6,-8.6,4.71,6808,0,REAL
34035,1361.4,1,6,-8.46,4.89,6809,0,REAL
34043,1361.72,1,6,-8.16,5.25,6811,0,REAL
34051,1362.04,1,6,-7.82,5.61,6813,0,REAL
34055,1362.2,1,6,-7.66,5.79,6814,0,REAL
34059,1362.36,1,6,-7.46,5.97,6815,0,REAL
34063,1362.52,1,6,-7.27,6.16,6816,0,REAL
34071,1362.84,1,6,-6.87,6.52,6818,0,REAL
34075,1363,1,6,-6.64,6.7,6819,0,REAL
34083,1363.32,1,6,-6.2,7.06,6821,0,REAL
34087,1363.48,1,6,-5.95,7.24,6822,0,REAL
34091,1363.64,1,6,-5.88,7.39,6823,0,REAL
34095,1363.8,1,6,-5.85,7.59,6824,0,REAL
34099,1363.96,1,6,-5.78,7.81,6825,0,REAL
34103,1364.12,1,6,-5.69,8.09,6826,0,REAL
34111,1364.44,1,6,-5.45,8.67,6828,0,REAL
34115,1364.6,1,6,-5.3,8.98,6829,0,REAL
34119,1364.76,1,6,-5.12,9.36,6830,0,REAL
34123,1364.92,1,6,-5.02,9.64,6831,0,REAL
34127,1365.08,1,6,-4.94,9.85,6832,0,REAL
34131,1365.24,1,6,-4.85,10.02,6833,0,REAL
34135,1365.4,1,6,-4.77,10.16,6834,0,REAL
34139,1365.56,1,6,-4.69,10.28,6835,0,REAL
34143,1365.72,1,6,-4.63,10.38,6836,0,REAL
34147,1365.88,1,6,-4.59,10.46,6837,0,REAL
34151,1366.04,1,6,-4.52,10.55,6838,0,REAL
34155,1366.2,1,6,-4.49,10.64,6839,0,REAL
34159,1366.36,1,6,-4.48,10.73,6840,0,REAL
34163,1366.52,1,6,-4.45,10.85,6841,0,REAL
34167,1366.68,1,6,-4.44,11,6842,0,REAL
34171,1366.84,1,6,-4.42,11.16,6843,0,REAL
34175,1367,1,6,-4.42,11.32,6844,0,REAL
34179,1367.16,1,6,-4.44,11.49,6845,0,REAL
34183,1367.32,1,6,-4.42,11.63,6846,0,REAL
34187,1367.48,1,6,-4.44,11.78,6847,0,REAL
34191,1367.64,1,6,-4.41,11.97,6848,0,REAL
34195,1367.8,1,6,-4.39,12.18,6849,0,REAL
34199,1367.96,1,6,-4.44,12.32,6850,0,REAL
34203,1368.12,1,6,-4.49,12.52,6851,0,REAL
34207,1368.28,1,6,-4.57,12.77,6852,0,REAL
34211,1368.44,1,6,-4.67,13.03,6853,0,REAL
34215,1368.6,1,6,-4.8,13.34,6854,0,REAL
34219,1368.76,1,6,-4.95,13.68,6855,0,REAL
34223,1368.92,1,6,-5.1,14.04,6856,0,REAL
34227,1369.08,1,6,-5.28,14.36,6857,0,REAL
34231,1369.24,1,6,-5.46,14.64,6858,0,REAL
34235,1369.4,1,6,-5.63,14.88,6859,0,REAL
34239,1369.56,1,6,-5.8,15.06,6860,0,REAL
34243,1369.72,1,6,-5.95,15.21,6861,0,REAL
34247,1369.88,1,6,-6.06,15.35,6862,0,REAL
34251,1370.04,1,6,-6.14,15.41,6863,0,REAL
34255,1370.2,1,6,-6.23,15.38,6864,0,REAL
34259,1370.36,1,6,-6.3,15.38,6865,0,REAL
34263,1370.52,1,6,-6.34,15.36,6866,0,REAL
34267,1370.68,1,6,-6.35,15.29,6867,0,REAL
34271,1370.84,1,6,-6.37,15.21,6868,0,REAL
34275,1371,1,6,-6.38,15.13,6869,0,REAL
34279,1371.16,1,6,-6.38,15.02,6870,0,REAL
34283,1371.32,1,6,-6.41,14.91,6871,0,REAL
34287,1371.48,1,6,-6.45,14.79,6872,0,REAL
34291,1371.64,1,6,-6.52,14.7,6873,0,REAL
34295,1371.8,1,6,-6.62,14.6,6874,0,REAL
34299,1371.96,1,6,-6.7,14.5,6875,0,REAL
34303,1372.12,1,6,-6.78,14.42,6876,0,REAL
34307,1372.28,1,6,-6.88,14.35,6877,0,REAL
34311,1372.44,1,6,-7.02,14.27,6878,0,REAL
34315,1372.6,1,6,-7.2,14.11,6879,0,REAL
34319,1372.76,1,6,-7.45,13.89,6880,0,REAL
34323,1372.92,1,6,-7.76,13.63,6881,0,REAL
34327,1373.08,1,6,-8.13,13.3,6882,0,REAL
34331,1373.24,1,6,-8.59,12.92,6883,0,REAL
34335,1373.4,1,6,-9.09,12.52,6884,0,REAL
34339,1373.56,1,6,-9.66,12.11,6885,0,REAL
34343,1373.72,1,6,-10.27,11.7,6886,0,REAL
34347,1373.88,1,6,-10.87,11.31,6887,0,REAL
34351,1374.04,1,6,-11.46,10.92,6888,0,REAL
34355,1374.2,1,6,-12.03,10.48,6889,0,REAL
34359,1374.36,1,6,-12.55,10.09,6890,0,REAL
34363,1374.52,1,6,-12.98,9.74,6891,0,REAL
34367,1374.68,1,6,-13.38,9.38,6892,0,REAL
34371,1374.84,1,6,-13.77,8.89,6893,0,REAL
34375,1375,1,6,-14.1,8.47,6894,0,REAL
34379,1375.16,1,6,-14.39,8.06,6895,0,REAL
34383,1375.32,1,6,-14.66,7.66,6896,0,REAL
34387,1375.48,1,6,-14.91,7.29,6897,0,REAL
34391,1375.64,1,6,-15.13,7.02,6898,0,REAL
34395,1375.8,1,6,-15.32,6.78,6899,0,REAL
34399,1375.96,1,6,-15.48,6.59,6900,0,REAL
34403,1376.12,1,6,-15.59,6.47,6901,0,REAL
34407,1376.28,1,6,-15.69,6.34,6902,0,REAL
34411,1376.44,1,6,-15.77,6.24,6903,0,REAL
34415,1376.6,1,6,-15.87,6.16,6904,0,REAL
34419,1376.76,1,6,-16.01,6,6905,0,REAL
34423,1376.92,1,6,-16.2,5.73,6906,0,REAL
34427,1377.08,1,6,-16.44,5.38,6907,0,REAL
34431,1377.24,1,6,-16.71,5.02,6908,0,REAL
34435,1377.4,1,6,-17.05,4.61,6909,0,REAL
34439,1377.56,1,6,-17.44,4.23,6910,0,REAL
34443,1377.72,1,6,-17.84,3.91,6911,0,REAL
34447,1377.88,1,6,-18.3,3.61,6912,0,REAL
34451,1378.04,1,6,-18.77,3.34,6913,0,REAL
34455,1378.2,1,6,-19.23,3.1,6914,0,REAL
34459,1378.36,1,6,-19.64,3,6915,0,REAL
34463,1378.52,1,6,-20.05,2.88,6916,0,REAL
34467,1378.68,1,6,-20.48,2.68,6917,0,REAL
34471,1378.84,1,6,-20.92,2.47,6918,0,REAL
34475,1379,1,6,-21.37,2.17,6919,0,REAL
34479,1379.16,1,6,-21.78,1.74,6920,0,REAL
34483,1379.32,1,6,-22.23,1.18,6921,0,REAL
34487,1379.48,1,6,-22.63,0.57,6922,0,REAL
34491,1379.64,1,6,-23.01,-0.05,6923,0,REAL
34495,1379.8,1,6,-23.34,-0.55,6924,0,REAL
