frame,time,team_id,player_id,x,y,id,fragment,type
26183,1047.32,1,43,-19.59,-2.05,4846,0,REAL
26187,1047.48,1,43,-19.27,-1.96,4847,0,REAL
26191,1047.64,1,43,-18.99,-1.86,4848,0,REAL
26195,1047.8,1,43,-18.73,-1.84,4849,0,REAL
26199,1047.96,1,43,-18.46,-1.8,4850,0,REAL
26203,1048.12,1,43,-18.2,-1.72,4851,0,REAL
26207,1048.28,1,43,-17.92,-1.62,4852,0,REAL
26211,1048.44,1,43,-17.63,-1.46,4853,0,REAL
26215,1048.6,1,43,-17.32,-1.25,4854,0,REAL
26219,1048.76,1,43,-17.05,-1.09,4855,0,REAL
26223,1048.92,1,43,-16.78,-0.86,4856,0,REAL
26227,1049.08,1,43,-16.52,-0.55,4857,0,REAL
26231,1049.24,1,43,-16.27,-0.3,4858,0,REAL
26235,1049.4,1,43,-16.03,-0.13,4859,0,REAL
26239,1049.56,1,43,-15.78,0.04,4860,0,REAL
26243,1049.72,1,43,-15.55,0.2,4861,0,REAL
26247,1049.88,1,43,-15.3,0.34,4862,0,REAL
26251,1050.04,1,43,-15.07,0.45,4863,0,REAL
26255,1050.2,1,43,-14.85,0.59,4864,0,REAL
26259,1050.36,1,43,-14.63,0.71,4865,0,REAL
26263,1050.52,1,43,-14.38,0.84,4866,0,REAL
26267,1050.68,1,43,-14.13,0.95,4867,0,REAL
26271,1050.84,1,43,-13.84,1.06,4868,0,REAL
26275,1051,1,43,-13.59,1.16,4869,0,REAL
26279,1051.16,1,43,-13.32,1.3,4870,0,REAL
26283,1051.32,1,43,-13.03,1.53,4871,0,REAL
26287,1051.48,1,43,-12.73,1.73,4872,0,REAL
26291,1051.64,1,43,-12.45,1.99,4873,0,REAL
26295,1051.8,1,43,-12.14,2.29,4874,0,REAL
26299,1051.96,1,43,-11.87,2.63,4875,0,REAL
26303,1052.12,1,43,-11.6,3.02,4876,0,REAL
26307,1052.28,1,43,-11.34,3.38,4877,0,REAL
26311,1052.44,1,43,-11.13,3.63,4878,0,REAL
26315,1052.6,1,43,-10.92,3.85,4879,0,REAL
26319,1052.76,1,43,-10.71,4.03,4880,0,REAL
26323,1052.92,1,43,-10.51,4.09,4881,0,REAL
26331,1053.24,1,43,-10.06,4.09,4883,0,REAL
26335,1053.4,1,43,-9.84,4.07,4884,0,REAL
26339,1053.56,1,43,-9.56,4.11,4885,0,REAL
26343,1053.72,1,43,-9.3,4.28,4886,0,REAL
26347,1053.88,1,43,-9.02,4.47,4887,0,REAL
26351,1054.04,1,43,-8.73,4.66,4888,0,REAL
26355,1054.2,1,43,-8.46,4.84,4889,0,REAL
26359,1054.36,1,43,-8.23,4.97,4890,0,REAL
26363,1054.52,1,43,-8.02,5.09,4891,0,REAL
26367,1054.68,1,43,-7.8,5.2,4892,0,REAL
26375,1055,1,43,-7.38,5.42,4894,0,REAL
26379,1055.16,1,43,-7.21,5.45,4895,0,REAL
26383,1055.32,1,43,-7.05,5.46,4896,0,REAL
26387,1055.48,1,43,-6.91,5.52,4897,0,REAL
26391,1055.64,1,43,-6.76,5.59,4898,0,REAL
26395,1055.8,1,43,-6.59,5.72,4899,0,REAL
26399,1055.96,1,43,-6.41,5.98,4900,0,REAL
26403,1056.12,1,43,-6.23,6.23,4901,0,REAL
26407,1056.28,1,43,-6.03,6.5,4902,0,REAL
26411,1056.44,1,43,-5.84,6.8,4903,0,REAL
26415,1056.6,1,43,-5.67,7.09,4904,0,REAL
26419,1056.76,1,43,-5.49,7.45,4905,0,REAL
26423,1056.92,1,43,-5.31,7.8,4906,0,REAL
26427,1057.08,1,43,-5.17,8.14,4907,0,REAL
26431,1057.24,1,43,-5.05,8.45,4908,0,REAL
26435,1057.4,1,43,-4.96,8.71,4909,0,REAL
26439,1057.56,1,43,-4.91,8.95,4910,0,REAL
26443,1057.72,1,43,-4.89,9.14,4911,0,REAL
26447,1057.88,1,43,-4.88,9.32,4912,0,REAL
26451,1058.04,1,43,-4.85,9.5,4913,0,REAL
26455,1058.2,1,43,-4.84,9.68,4914,0,REAL
26459,1058.36,1,43,-4.82,9.89,4915,0,REAL
26463,1058.52,1,43,-4.81,10.11,4916,0,REAL
26467,1058.68,1,43,-4.8,10.32,4917,0,REAL
26471,1058.84,1,43,-4.77,10.55,4918,0,REAL
26475,1059,1,43,-4.76,10.79,4919,0,REAL
26483,1059.32,1,43,-4.76,11.21,4921,0,REAL
26487,1059.48,1,43,-4.77,11.42,4922,0,REAL
26491,1059.64,1,43,-4.8,11.66,4923,0,REAL
26495,1059.8,1,43,-4.82,11.86,4924,0,REAL
26499,1059.96,1,43,-4.88,12.06,4925,0,REAL
26503,1060.12,1,43,-4.94,12.24,4926,0,REAL
26507,1060.28,1,43,-5.01,12.41,4927,0,REAL
26511,1060.44,1,43,-5.07,12.54,4928,0,REAL
26515,1060.6,1,43,-5.16,12.67,4929,0,REAL
26519,1060.76,1,43,-5.23,12.78,4930,0,REAL
26523,1060.92,1,43,-5.3,12.84,4931,0,REAL
26527,1061.08,1,43,-5.38,12.91,4932,0,REAL
26531,1061.24,1,43,-5.45,12.96,4933,0,REAL
26535,1061.4,1,43,-5.52,12.93,4934,0,REAL
26539,1061.56,1,43,-5.59,12.89,4935,0,REAL
26543,1061.72,1,43,-5.67,12.86,4936,0,REAL
26547,1061.88,1,43,-5.76,12.88,4937,0,REAL
26551,1062.04,1,43,-5.84,12.91,4938,0,REAL
26555,1062.2,1,43,-5.91,12.95,4939,0,REAL
26559,1062.36,1,43,-6.02,13.02,4940,0,REAL
26563,1062.52,1,43,-6.12,13.14,4941,0,REAL
26567,1062.68,1,43,-6.21,13.27,4942,0,REAL
26571,1062.84,1,43,-6.31,13.43,4943,0,REAL
26575,1063,1,43,-6.41,13.61,4944,0,REAL
26579,1063.16,1,43,-6.49,13.8,4945,0,REAL
26583,1063.32,1,43,-6.59,13.99,4946,0,REAL
26587,1063.48,1,43,-6.69,14.23,4947,0,REAL
26591,1063.64,1,43,-6.78,14.42,4948,0,REAL
26595,1063.8,1,43,-6.88,14.63,4949,0,REAL
26599,1063.96,1,43,-6.96,14.88,4950,0,REAL
26603,1064.12,1,43,-7.02,15.2,4951,0,REAL
26607,1064.28,1,43,-7.09,15.54,4952,0,REAL
26611,1064.44,1,43,-7.17,15.91,4953,0,REAL
26615,1064.6,1,43,-7.3,16.27,4954,0,REAL
26619,1064.76,1,43,-7.44,16.66,4955,0,REAL
26623,1064.92,1,43,-7.6,17.05,4956,0,REAL
26627,1065.08,1,43,-7.84,17.43,4957,0,REAL
26631,1065.24,1,43,-8.14,17.74,4958,0,REAL
26635,1065.4,1,43,-8.52,17.98,4959,0,REAL
26639,1065.56,1,43,-8.98,18.16,4960,0,REAL
26643,1065.72,1,43,-9.45,18.41,4961,0,REAL
26647,1065.88,1,43,-9.92,18.63,4962,0,REAL
26651,1066.04,1,43,-10.41,18.85,4963,0,REAL
26655,1066.2,1,43,-10.92,19.02,4964,0,REAL
26659,1066.36,1,43,-11.42,19.21,4965,0,REAL
26663,1066.52,1,43,-11.92,19.34,4966,0,REAL
26667,1066.68,1,43,-12.3,19.39,4967,0,REAL
26671,1066.84,1,43,-12.81,19.46,4968,0,REAL
26675,1067,1,43,-13.34,19.46,4969,0,REAL
26679,1067.16,1,43,-13.91,19.38,4970,0,REAL
26683,1067.32,1,43,-14.51,19.21,4971,0,REAL
26687,1067.48,1,43,-15.14,18.92,4972,0,REAL
26691,1067.64,1,43,-15.84,18.52,4973,0,REAL
26695,1067.8,1,43,-16.6,17.97,4974,0,REAL
26699,1067.96,1,43,-16.98,18.47,4975,0,REAL
26703,1068.12,1,43,-17.42,18.97,4976,0,REAL
26707,1068.28,1,43,-17.98,19.38,4977,0,REAL
26711,1068.44,1,43,-18.63,19.46,4978,0,REAL
26715,1068.6,1,43,-19.3,19.49,4979,0,REAL
26719,1068.76,1,43,-19.98,19.48,4980,0,REAL
26723,1068.92,1,43,-20.66,19.43,4981,0,REAL
26727,1069.08,1,43,-21.32,19.36,4982,0,REAL
26731,1069.24,1,43,-21.96,19.27,4983,0,REAL
26735,1069.4,1,43,-22.59,19.18,4984,0,REAL
26739,1069.56,1,43,-23.16,19.09,4985,0,REAL
26743,1069.72,1,43,-23.66,19.02,4986,0,REAL
26747,1069.88,1,43,-24.28,18.85,4987,0,REAL
26751,1070.04,1,43,-25.06,18.57,4988,0,REAL
26755,1070.2,1,43,-25.68,18.49,4989,0,REAL
26759,1070.36,1,43,-26.21,18.63,4990,0,REAL
26763,1070.52,1,43,-26.75,18.89,4991,0,REAL
26767,1070.68,1,43,-27.15,19.16,4992,0,REAL
26771,1070.84,1,43,-27.7,19.53,4993,0,REAL
26775,1071,1,43,-28.24,19.92,4994,0,REAL
26779,1071.16,1,43,-28.8,20.27,4995,0,REAL
26783,1071.32,1,43,-29.34,20.78,4996,0,REAL
26787,1071.48,1,43,-29.88,21.36,4997,0,REAL
26791,1071.64,1,43,-30.36,21.93,4998,0,REAL
26795,1071.8,1,43,-30.36,22.41,4999,0,REAL
26799,1071.96,1,43,-31.16,22.57,5000,0,REAL
26803,1072.12,1,43,-31.97,22.73,5001,0,REAL
26807,1072.28,1,43,-32.77,22.91,5002,0,REAL
26811,1072.44,1,43,-33.59,23.06,5003,0,REAL
26815,1072.6,1,43,-34.38,23.23,5004,0,REAL
26819,1072.76,1,43,-35.19,23.39,5005,0,REAL
26823,1072.92,1,43,-35.99,23.56,5006,0,REAL
26827,1073.08,1,43,-36.72,23.72,5007,0,REAL
26831,1073.24,1,43,-37.2,23.86,5008,0,REAL
26835,1073.4,1,43,-37.7,24.02,5009,0,REAL
26839,1073.56,1,43,-38.19,24.16,5010,0,REAL
26843,1073.72,1,43,-38.69,24.3,5011,0,REAL
26847,1073.88,1,43,-39.2,24.45,5012,0,REAL
26851,1074.04,1,43,-39.7,24.59,5013,0,REAL
26855,1074.2,1,43,-40.22,24.73,5014,0,REAL
26859,1074.36,1,43,-40.73,24.88,5015,0,REAL
26863,1074.52,1,43,-41.25,25.02,5016,0,REAL
26867,1074.68,1,43,-41.78,25.17,5017,0,REAL
26871,1074.84,1,43,-42.31,25.31,5018,0,REAL
26875,1075,1,43,-42.85,25.46,5019,0,REAL
26879,1075.16,1,43,-42.31,25.54,5020,0,REAL
26883,1075.32,1,43,-41.77,25.63,5021,0,REAL
26887,1075.48,1,43,-41.23,25.71,5022,0,REAL
26891,1075.64,1,43,-40.7,25.8,5023,0,REAL
26895,1075.8,1,43,-40.16,25.88,5024,0,REAL
26899,1075.96,1,43,-39.63,25.96,5025,0,REAL
26903,1076.12,1,43,-39.09,26.05,5026,0,REAL
26907,1076.28,1,43,-38.55,26.13,5027,0,REAL
26911,1076.44,1,43,-38.03,26.22,5028,0,REAL
26915,1076.6,1,43,-37.78,26.3,5029,0,REAL
26919,1076.76,1,43,-37.84,26.38,5030,0,REAL
26923,1076.92,1,43,-38.2,26.47,5031,0,REAL
26927,1077.08,1,43,-38.83,25.7,5032,0,REAL
26931,1077.24,1,43,-39.48,24.64,5033,0,REAL
26935,1077.4,1,43,-40.14,23.59,5034,0,REAL
26939,1077.56,1,43,-40.8,22.53,5035,0,REAL
26943,1077.72,1,43,-41.47,21.48,5036,0,REAL
26947,1077.88,1,43,-42.13,20.42,5037,0,REAL
26951,1078.04,1,43,-42.03,20.74,5038,0,REAL
26955,1078.2,1,43,-41.83,21.41,5039,0,REAL
26959,1078.36,1,43,-41.77,21.97,5040,0,REAL
26963,1078.52,1,43,-41.84,22.43,5041,0,REAL
26967,1078.68,1,43,-42.02,22.8,5042,0,REAL
26971,1078.84,1,43,-42.25,23.09,5043,0,REAL
26975,1079,1,43,-42.55,23.3,5044,0,REAL
26979,1079.16,1,43,-42.95,23.46,5045,0,REAL
26983,1079.32,1,43,-43.25,23.52,5046,0,REAL
26987,1079.48,1,43,-43.53,23.53,5047,0,REAL
26991,1079.64,1,43,-43.74,23.54,5048,0,REAL
26995,1079.8,1,43,-43.85,23.57,5049,0,REAL
26999,1079.96,1,43,-43.88,23.66,5050,0,REAL
27003,1080.12,1,43,-43.88,23.77,5051,0,REAL
27007,1080.28,1,43,-43.92,23.82,5052,0,REAL
27011,1080.44,1,43,-44.09,23.85,5053,0,REAL
27015,1080.6,1,43,-44.3,23.91,5054,0,REAL
27019,1080.76,1,43,-44.48,23.95,5055,0,REAL
27023,1080.92,1,43,-44.66,24.02,5056,0,REAL
27027,1081.08,1,43,-44.84,24.07,5057,0,REAL
27031,1081.24,1,43,-44.99,24.11,5058,0,REAL
27035,1081.4,1,43,-45.09,24.13,5059,0,REAL
27039,1081.56,1,43,-45.16,24.13,5060,0,REAL
27043,1081.72,1,43,-45.11,24.2,5061,0,REAL
27047,1081.88,1,43,-44.99,24.27,5062,0,REAL
27051,1082.04,1,43,-44.77,24.38,5063,0,REAL
27055,1082.2,1,43,-44.48,24.5,5064,0,REAL
27059,1082.36,1,43,-44.16,24.66,5065,0,REAL
27063,1082.52,1,43,-43.78,24.84,5066,0,REAL
27067,1082.68,1,43,-43.38,25.03,5067,0,REAL
27071,1082.84,1,43,-42.98,25.25,5068,0,REAL
27075,1083,1,43,-42.59,25.42,5069,0,REAL
27079,1083.16,1,43,-42.28,25.39,5070,0,REAL
27083,1083.32,1,43,-41.98,25.38,5071,0,REAL
27087,1083.48,1,43,-41.66,25.34,5072,0,REAL
27091,1083.64,1,43,-41.36,25.32,5073,0,REAL
27095,1083.8,1,43,-41.03,25.29,5074,0,REAL
27099,1083.96,1,43,-40.72,25.27,5075,0,REAL
27103,1084.12,1,43,-40.41,25.24,5076,0,REAL
27107,1084.28,1,43,-40.11,25.21,5077,0,REAL
27111,1084.44,1,43,-39.8,25.2,5078,0,REAL
27115,1084.6,1,43,-39.47,25.16,5079,0,REAL
27119,1084.76,1,43,-39.16,25.14,5080,0,REAL
27123,1084.92,1,43,-38.86,25.11,5081,0,REAL
27127,1085.08,1,43,-38.55,25.09,5082,0,REAL
27131,1085.24,1,43,-38.23,25.06,5083,0,REAL
27135,1085.4,1,43,-37.92,25.03,5084,0,REAL
27139,1085.56,1,43,-37.61,25.02,5085,0,REAL
27143,1085.72,1,43,-37.31,24.93,5086,0,REAL
27147,1085.88,1,43,-37.06,24.75,5087,0,REAL
27151,1086.04,1,43,-36.73,24.63,5088,0,REAL
27155,1086.2,1,43,-36.36,24.53,5089,0,REAL
27159,1086.36,1,43,-35.92,24.47,5090,0,REAL
27163,1086.52,1,43,-35.45,24.43,5091,0,REAL
27167,1086.68,1,43,-34.97,24.41,5092,0,REAL
27171,1086.84,1,43,-34.47,24.38,5093,0,REAL
27175,1087,1,43,-33.83,24.34,5094,0,REAL
27179,1087.16,1,43,-33.33,24.27,5095,0,REAL
27183,1087.32,1,43,-32.91,24.09,5096,0,REAL
27187,1087.48,1,43,-32.5,23.89,5097,0,REAL
27191,1087.64,1,43,-32.09,23.7,5098,0,REAL
27195,1087.8,1,43,-31.68,23.55,5099,0,REAL
27199,1087.96,1,43,-31.24,23.43,5100,0,REAL
27203,1088.12,1,43,-30.82,23.29,5101,0,REAL
27207,1088.28,1,43,-30.38,23.2,5102,0,REAL
27211,1088.44,1,43,-29.93,23.11,5103,0,REAL
27215,1088.6,1,43,-29.47,23.02,5104,0,REAL
27219,1088.76,1,43,-29.02,22.92,5105,0,REAL
27223,1088.92,1,43,-28.52,22.82,5106,0,REAL
27227,1089.08,1,43,-28.04,22.71,5107,0,REAL
27231,1089.24,1,43,-27.57,22.63,5108,0,REAL
27235,1089.4,1,43,-27.13,22.52,5109,0,REAL
27239,1089.56,1,43,-26.74,22.36,5110,0,REAL
27243,1089.72,1,43,-26.32,22.27,5111,0,REAL
27247,1089.88,1,43,-25.89,22.2,5112,0,REAL
27251,1090.04,1,43,-25.47,22.14,5113,0,REAL
27255,1090.2,1,43,-25.06,22.06,5114,0,REAL
27259,1090.36,1,43,-24.66,21.98,5115,0,REAL
27263,1090.52,1,43,-24.27,21.88,5116,0,REAL
27267,1090.68,1,43,-23.89,21.72,5117,0,REAL
27271,1090.84,1,43,-23.55,21.53,5118,0,REAL
27275,1091,1,43,-23.23,21.32,5119,0,REAL
27279,1091.16,1,43,-22.89,21.14,5120,0,REAL
27283,1091.32,1,43,-22.55,21.02,5121,0,REAL
27287,1091.48,1,43,-22.21,20.92,5122,0,REAL
27291,1091.64,1,43,-21.88,20.82,5123,0,REAL
27295,1091.8,1,43,-21.57,20.72,5124,0,REAL
27299,1091.96,1,43,-21.27,20.64,5125,0,REAL
27303,1092.12,1,43,-20.96,20.59,5126,0,REAL
27307,1092.28,1,43,-20.66,20.49,5127,0,REAL
27311,1092.44,1,43,-20.37,20.41,5128,0,REAL
27315,1092.6,1,43,-20.09,20.35,5129,0,REAL
27319,1092.76,1,43,-19.87,20.23,5130,0,REAL
27323,1092.92,1,43,-19.64,20.09,5131,0,REAL
27327,1093.08,1,43,-19.45,19.95,5132,0,REAL
27331,1093.24,1,43,-19.26,19.74,5133,0,REAL
27335,1093.4,1,43,-19.06,19.56,5134,0,REAL
27339,1093.56,1,43,-18.84,19.42,5135,0,REAL
27343,1093.72,1,43,-18.6,19.27,5136,0,REAL
27347,1093.88,1,43,-18.35,19.1,5137,0,REAL
27351,1094.04,1,43,-18.13,18.89,5138,0,REAL
27355,1094.2,1,43,-17.87,18.73,5139,0,REAL
27359,1094.36,1,43,-17.59,18.55,5140,0,REAL
27363,1094.52,1,43,-17.3,18.38,5141,0,REAL
27367,1094.68,1,43,-17.03,18.23,5142,0,REAL
27371,1094.84,1,43,-16.77,18.1,5143,0,REAL
27375,1095,1,43,-16.52,17.93,5144,0,REAL
27379,1095.16,1,43,-16.27,17.77,5145,0,REAL
27383,1095.32,1,43,-16.02,17.59,5146,0,REAL
27387,1095.48,1,43,-15.8,17.38,5147,0,REAL
27391,1095.64,1,43,-15.59,17.18,5148,0,REAL
