frame,time,team_id,player_id,x,y,id,fragment,type
23095,923.8,1,10,-20.82,-7.78,4074,0,"SYM X"
23099,923.96,1,10,-20.83,-7.53,4075,0,"SYM X"
23103,924.12,1,10,-20.880000000000003,-7.23,4076,0,"SYM X"
23107,924.28,1,10,-21,-6.87,4077,0,"SYM X"
23111,924.44,1,10,-21.15,-6.55,4078,0,"SYM X"
23115,924.6,1,10,-21.36,-6.16,4079,0,"SYM X"
23119,924.76,1,10,-21.650000000000002,-5.8,4080,0,"SYM X"
23123,924.92,1,10,-21.990000000000002,-5.44,4081,0,"SYM X"
23127,925.08,1,10,-22.35,-5.01,4082,0,"SYM X"
23131,925.24,1,10,-22.69,-4.51,4083,0,"SYM X"
23135,925.4,1,10,-23,-4.08,4084,0,"SYM X"
23139,925.56,1,10,-23.25,-3.64,4085,0,"SYM X"
23143,925.72,1,10,-23.390000000000004,-3.34,4086,0,"SYM X"
23147,925.88,1,10,-23.51,-2.94,4087,0,"SYM X"
23151,926.04,1,10,-23.580000000000002,-2.63,4088,0,"SYM X"
23155,926.2,1,10,-23.65,-2.29,4089,0,"SYM X"
23159,926.36,1,10,-23.67,-2.03,4090,0,"SYM X"
23163,926.52,1,10,-23.67,-1.77,4091,0,"SYM X"
23171,926.84,1,10,-23.61,-1.27,4093,0,"SYM X"
23179,927.16,1,10,-23.47,-0.75,4095,0,"SYM X"
23183,927.32,1,10,-23.390000000000004,-0.48,4096,0,"SYM X"
23187,927.48,1,10,-23.279999999999998,-0.27,4097,0,"SYM X"
23191,927.64,1,10,-23.180000000000003,-0.04,4098,0,"SYM X"
23195,927.8,1,10,-23.07,0.16,4099,0,"SYM X"
23199,927.96,1,10,-22.960000000000004,0.34,4100,0,"SYM X"
23203,928.12,1,10,-22.82,0.57,4101,0,"SYM X"
23207,928.28,1,10,-22.720000000000002,0.81,4102,0,"SYM X"
23211,928.44,1,10,-22.6,1.05,4103,0,"SYM X"
23215,928.6,1,10,-22.470000000000002,1.32,4104,0,"SYM X"
23219,928.76,1,10,-22.390000000000004,1.53,4105,0,"SYM X"
23223,928.92,1,10,-22.290000000000003,1.74,4106,0,"SYM X"
23227,929.08,1,10,-22.21,1.93,4107,0,"SYM X"
23231,929.24,1,10,-22.1,2.1,4108,0,"SYM X"
23235,929.4,1,10,-21.97,2.23,4109,0,"SYM X"
23239,929.56,1,10,-21.82,2.36,4110,0,"SYM X"
23243,929.72,1,10,-21.67,2.46,4111,0,"SYM X"
23247,929.88,1,10,-21.500000000000004,2.52,4112,0,"SYM X"
23251,930.04,1,10,-21.320000000000004,2.53,4113,0,"SYM X"
23255,930.2,1,10,-21.14,2.57,4114,0,"SYM X"
23259,930.36,1,10,-20.97,2.63,4115,0,"SYM X"
23263,930.52,1,10,-20.79,2.68,4116,0,"SYM X"
23267,930.68,1,10,-20.650000000000002,2.77,4117,0,"SYM X"
23271,930.84,1,10,-20.54,2.86,4118,0,"SYM X"
23275,931,1,10,-20.470000000000002,2.92,4119,0,"SYM X"
23279,931.16,1,10,-20.4,2.97,4120,0,"SYM X"
23283,931.32,1,10,-20.32,2.97,4121,0,"SYM X"
23287,931.48,1,10,-20.220000000000002,2.89,4122,0,"SYM X"
23291,931.64,1,10,-20.130000000000003,2.82,4123,0,"SYM X"
23295,931.8,1,10,-20.01,2.74,4124,0,"SYM X"
23299,931.96,1,10,-19.9,2.64,4125,0,"SYM X"
23303,932.12,1,10,-19.79,2.53,4126,0,"SYM X"
23307,932.28,1,10,-19.68,2.43,4127,0,"SYM X"
23311,932.44,1,10,-19.570000000000004,2.34,4128,0,"SYM X"
23315,932.6,1,10,-19.47,2.25,4129,0,"SYM X"
23319,932.76,1,10,-19.36,2.16,4130,0,"SYM X"
23323,932.92,1,10,-19.28,2.09,4131,0,"SYM X"
23327,933.08,1,10,-19.18,2.02,4132,0,"SYM X"
23331,933.24,1,10,-19.11,1.95,4133,0,"SYM X"
23335,933.4,1,10,-19.009999999999998,1.81,4134,0,"SYM X"
23339,933.56,1,10,-18.93,1.66,4135,0,"SYM X"
23343,933.72,1,10,-18.82,1.52,4136,0,"SYM X"
23347,933.88,1,10,-18.75,1.42,4137,0,"SYM X"
23351,934.04,1,10,-18.67,1.34,4138,0,"SYM X"
23355,934.2,1,10,-18.61,1.21,4139,0,"SYM X"
23359,934.36,1,10,-18.57,1.09,4140,0,"SYM X"
23363,934.52,1,10,-18.54,0.97,4141,0,"SYM X"
23367,934.68,1,10,-18.509999999999998,0.89,4142,0,"SYM X"
23371,934.84,1,10,-18.500000000000004,0.81,4143,0,"SYM X"
23375,935,1,10,-18.500000000000004,0.74,4144,0,"SYM X"
23379,935.16,1,10,-18.49,0.66,4145,0,"SYM X"
23383,935.32,1,10,-18.470000000000002,0.63,4146,0,"SYM X"
23387,935.48,1,10,-18.44,0.63,4147,0,"SYM X"
23391,935.64,1,10,-18.4,0.64,4148,0,"SYM X"
23395,935.8,1,10,-18.36,0.68,4149,0,"SYM X"
23399,935.96,1,10,-18.31,0.73,4150,0,"SYM X"
23403,936.12,1,10,-18.25,0.77,4151,0,"SYM X"
23407,936.28,1,10,-18.189999999999998,0.78,4152,0,"SYM X"
23411,936.44,1,10,-18.15,0.78,4153,0,"SYM X"
23415,936.6,1,10,-18.099999999999998,0.74,4154,0,"SYM X"
23419,936.76,1,10,-18.060000000000002,0.72,4155,0,"SYM X"
23423,936.92,1,10,-18.03,0.7,4156,0,"SYM X"
23427,937.08,1,10,-18.009999999999998,0.64,4157,0,"SYM X"
23431,937.24,1,10,-18.000000000000004,0.59,4158,0,"SYM X"
23435,937.4,1,10,-18.000000000000004,0.52,4159,0,"SYM X"
23439,937.56,1,10,-17.990000000000002,0.48,4160,0,"SYM X"
23443,937.72,1,10,-17.970000000000002,0.42,4161,0,"SYM X"
23447,937.88,1,10,-17.93,0.38,4162,0,"SYM X"
23451,938.04,1,10,-17.9,0.31,4163,0,"SYM X"
23455,938.2,1,10,-17.85,0.27,4164,0,"SYM X"
23459,938.36,1,10,-17.790000000000003,0.2,4165,0,"SYM X"
23463,938.52,1,10,-17.710000000000004,0.11,4166,0,"SYM X"
23467,938.68,1,10,-17.630000000000003,0.11,4167,0,"SYM X"
23471,938.84,1,10,-17.53,0.05,4168,0,"SYM X"
23475,939,1,10,-17.4,0.02,4169,0,"SYM X"
23479,939.16,1,10,-17.290000000000003,-0.03,4170,0,"SYM X"
23483,939.32,1,10,-17.22,-0.05,4171,0,"SYM X"
23487,939.48,1,10,-17.130000000000003,-0.02,4172,0,"SYM X"
23491,939.64,1,10,-17.029999999999998,-0.01,4173,0,"SYM X"
23495,939.8,1,10,-16.92,-0.09,4174,0,"SYM X"
23499,939.96,1,10,-16.79,-0.25,4175,0,"SYM X"
23503,940.12,1,10,-16.680000000000003,-0.39,4176,0,"SYM X"
23507,940.28,1,10,-16.58,-0.57,4177,0,"SYM X"
23511,940.44,1,10,-16.5,-0.73,4178,0,"SYM X"
23515,940.6,1,10,-16.43,-0.9,4179,0,"SYM X"
23519,940.76,1,10,-16.38,-1,4180,0,"SYM X"
23523,940.92,1,10,-16.32,-0.95,4181,0,"SYM X"
23527,941.08,1,10,-16.24,-0.93,4182,0,"SYM X"
23531,941.24,1,10,-16.15,-0.82,4183,0,"SYM X"
23535,941.4,1,10,-16.070000000000004,-0.69,4184,0,"SYM X"
23539,941.56,1,10,-16.01,-0.55,4185,0,"SYM X"
23543,941.72,1,10,-15.94,-0.41,4186,0,"SYM X"
23547,941.88,1,10,-15.890000000000002,-0.34,4187,0,"SYM X"
23551,942.04,1,10,-15.820000000000002,-0.4,4188,0,"SYM X"
23555,942.2,1,10,-15.78,-0.55,4189,0,"SYM X"
23559,942.36,1,10,-15.790000000000001,-0.75,4190,0,"SYM X"
23563,942.52,1,10,-15.820000000000002,-1.09,4191,0,"SYM X"
23567,942.68,1,10,-15.820000000000002,-1.41,4192,0,"SYM X"
23571,942.84,1,10,-15.790000000000001,-1.66,4193,0,"SYM X"
23575,943,1,10,-15.820000000000002,-1.87,4194,0,"SYM X"
23579,943.16,1,10,-15.9,-2.16,4195,0,"SYM X"
23583,943.32,1,10,-16.040000000000003,-2.45,4196,0,"SYM X"
23587,943.48,1,10,-16.279999999999998,-2.76,4197,0,"SYM X"
23591,943.64,1,10,-16.599999999999998,-3.07,4198,0,"SYM X"
23595,943.8,1,10,-17.040000000000003,-3.39,4199,0,"SYM X"
23599,943.96,1,10,-17.61,-3.71,4200,0,"SYM X"
