frame,time,team_id,player_id,x,y,id,fragment,type
23095,923.8,1,10,-20.820000000000004,2.9699999999999998,4074,0,"ROT 180"
23099,923.96,1,10,-20.830000000000002,2.7199999999999998,4075,0,"ROT 180"
23103,924.12,1,10,-20.880000000000003,2.42,4076,0,"ROT 180"
23107,924.28,1,10,-21.000000000000004,2.0599999999999996,4077,0,"ROT 180"
23111,924.44,1,10,-21.150000000000002,1.7399999999999993,4078,0,"ROT 180"
23115,924.6,1,10,-21.360000000000003,1.3499999999999996,4079,0,"ROT 180"
23119,924.76,1,10,-21.650000000000002,0.9899999999999989,4080,0,"ROT 180"
23123,924.92,1,10,-21.990000000000002,0.6299999999999994,4081,0,"ROT 180"
23127,925.08,1,10,-22.35,0.19999999999999885,4082,0,"ROT 180"
23131,925.24,1,10,-22.69,-0.30000000000000115,4083,0,"ROT 180"
23135,925.4,1,10,-23.000000000000004,-0.7300000000000009,4084,0,"ROT 180"
23139,925.56,1,10,-23.250000000000004,-1.1700000000000008,4085,0,"ROT 180"
23143,925.72,1,10,-23.390000000000004,-1.470000000000001,4086,0,"ROT 180"
23147,925.88,1,10,-23.510000000000005,-1.870000000000001,4087,0,"ROT 180"
23151,926.04,1,10,-23.580000000000005,-2.180000000000001,4088,0,"ROT 180"
23155,926.2,1,10,-23.650000000000002,-2.520000000000001,4089,0,"ROT 180"
23159,926.36,1,10,-23.67,-2.780000000000001,4090,0,"ROT 180"
23163,926.52,1,10,-23.67,-3.040000000000001,4091,0,"ROT 180"
23171,926.84,1,10,-23.610000000000003,-3.540000000000001,4093,0,"ROT 180"
23179,927.16,1,10,-23.470000000000002,-4.0600000000000005,4095,0,"ROT 180"
23183,927.32,1,10,-23.390000000000004,-4.330000000000001,4096,0,"ROT 180"
23187,927.48,1,10,-23.28,-4.540000000000001,4097,0,"ROT 180"
23191,927.64,1,10,-23.180000000000003,-4.770000000000001,4098,0,"ROT 180"
23195,927.8,1,10,-23.070000000000004,-4.970000000000001,4099,0,"ROT 180"
23199,927.96,1,10,-22.960000000000004,-5.15,4100,0,"ROT 180"
23203,928.12,1,10,-22.820000000000004,-5.380000000000001,4101,0,"ROT 180"
23207,928.28,1,10,-22.720000000000002,-5.620000000000001,4102,0,"ROT 180"
23211,928.44,1,10,-22.6,-5.860000000000001,4103,0,"ROT 180"
23215,928.6,1,10,-22.470000000000002,-6.130000000000001,4104,0,"ROT 180"
23219,928.76,1,10,-22.390000000000004,-6.340000000000002,4105,0,"ROT 180"
23223,928.92,1,10,-22.290000000000003,-6.550000000000001,4106,0,"ROT 180"
23227,929.08,1,10,-22.210000000000004,-6.74,4107,0,"ROT 180"
23231,929.24,1,10,-22.1,-6.910000000000001,4108,0,"ROT 180"
23235,929.4,1,10,-21.970000000000002,-7.04,4109,0,"ROT 180"
23239,929.56,1,10,-21.820000000000004,-7.170000000000001,4110,0,"ROT 180"
23243,929.72,1,10,-21.67,-7.2700000000000005,4111,0,"ROT 180"
23247,929.88,1,10,-21.500000000000004,-7.330000000000001,4112,0,"ROT 180"
23251,930.04,1,10,-21.320000000000004,-7.340000000000001,4113,0,"ROT 180"
23255,930.2,1,10,-21.140000000000004,-7.38,4114,0,"ROT 180"
23259,930.36,1,10,-20.970000000000002,-7.44,4115,0,"ROT 180"
23263,930.52,1,10,-20.790000000000003,-7.490000000000001,4116,0,"ROT 180"
23267,930.68,1,10,-20.650000000000002,-7.580000000000001,4117,0,"ROT 180"
23271,930.84,1,10,-20.540000000000003,-7.670000000000001,4118,0,"ROT 180"
23275,931,1,10,-20.470000000000002,-7.73,4119,0,"ROT 180"
23279,931.16,1,10,-20.400000000000002,-7.78,4120,0,"ROT 180"
23283,931.32,1,10,-20.320000000000004,-7.78,4121,0,"ROT 180"
23287,931.48,1,10,-20.220000000000002,-7.7,4122,0,"ROT 180"
23291,931.64,1,10,-20.130000000000003,-7.63,4123,0,"ROT 180"
23295,931.8,1,10,-20.01,-7.550000000000001,4124,0,"ROT 180"
23299,931.96,1,10,-19.900000000000002,-7.45,4125,0,"ROT 180"
23303,932.12,1,10,-19.790000000000003,-7.340000000000001,4126,0,"ROT 180"
23307,932.28,1,10,-19.680000000000003,-7.240000000000001,4127,0,"ROT 180"
23311,932.44,1,10,-19.570000000000004,-7.15,4128,0,"ROT 180"
23315,932.6,1,10,-19.470000000000002,-7.0600000000000005,4129,0,"ROT 180"
23319,932.76,1,10,-19.360000000000003,-6.970000000000001,4130,0,"ROT 180"
23323,932.92,1,10,-19.28,-6.9,4131,0,"ROT 180"
23327,933.08,1,10,-19.180000000000003,-6.830000000000001,4132,0,"ROT 180"
23331,933.24,1,10,-19.110000000000003,-6.760000000000001,4133,0,"ROT 180"
23335,933.4,1,10,-19.01,-6.62,4134,0,"ROT 180"
23339,933.56,1,10,-18.930000000000003,-6.470000000000001,4135,0,"ROT 180"
23343,933.72,1,10,-18.820000000000004,-6.33,4136,0,"ROT 180"
23347,933.88,1,10,-18.750000000000004,-6.23,4137,0,"ROT 180"
23351,934.04,1,10,-18.67,-6.15,4138,0,"ROT 180"
23355,934.2,1,10,-18.610000000000003,-6.0200000000000005,4139,0,"ROT 180"
23359,934.36,1,10,-18.570000000000004,-5.9,4140,0,"ROT 180"
23363,934.52,1,10,-18.540000000000003,-5.78,4141,0,"ROT 180"
23367,934.68,1,10,-18.51,-5.700000000000001,4142,0,"ROT 180"
23371,934.84,1,10,-18.500000000000004,-5.620000000000001,4143,0,"ROT 180"
23375,935,1,10,-18.500000000000004,-5.550000000000001,4144,0,"ROT 180"
23379,935.16,1,10,-18.490000000000002,-5.470000000000001,4145,0,"ROT 180"
23383,935.32,1,10,-18.470000000000002,-5.44,4146,0,"ROT 180"
23387,935.48,1,10,-18.44,-5.44,4147,0,"ROT 180"
23391,935.64,1,10,-18.400000000000002,-5.450000000000001,4148,0,"ROT 180"
23395,935.8,1,10,-18.360000000000003,-5.49,4149,0,"ROT 180"
23399,935.96,1,10,-18.310000000000002,-5.540000000000001,4150,0,"ROT 180"
23403,936.12,1,10,-18.250000000000004,-5.58,4151,0,"ROT 180"
23407,936.28,1,10,-18.19,-5.590000000000001,4152,0,"ROT 180"
23411,936.44,1,10,-18.150000000000002,-5.590000000000001,4153,0,"ROT 180"
23415,936.6,1,10,-18.1,-5.550000000000001,4154,0,"ROT 180"
23419,936.76,1,10,-18.060000000000002,-5.53,4155,0,"ROT 180"
23423,936.92,1,10,-18.03,-5.510000000000001,4156,0,"ROT 180"
23427,937.08,1,10,-18.01,-5.450000000000001,4157,0,"ROT 180"
23431,937.24,1,10,-18.000000000000004,-5.4,4158,0,"ROT 180"
23435,937.4,1,10,-18.000000000000004,-5.33,4159,0,"ROT 180"
23439,937.56,1,10,-17.990000000000002,-5.290000000000001,4160,0,"ROT 180"
23443,937.72,1,10,-17.970000000000002,-5.23,4161,0,"ROT 180"
23447,937.88,1,10,-17.930000000000003,-5.19,4162,0,"ROT 180"
23451,938.04,1,10,-17.900000000000002,-5.12,4163,0,"ROT 180"
23455,938.2,1,10,-17.85,-5.08,4164,0,"ROT 180"
23459,938.36,1,10,-17.790000000000003,-5.01,4165,0,"ROT 180"
23463,938.52,1,10,-17.710000000000004,-4.92,4166,0,"ROT 180"
23467,938.68,1,10,-17.630000000000003,-4.92,4167,0,"ROT 180"
23471,938.84,1,10,-17.53,-4.859999999999999,4168,0,"ROT 180"
23475,939,1,10,-17.400000000000002,-4.83,4169,0,"ROT 180"
23479,939.16,1,10,-17.290000000000003,-4.78,4170,0,"ROT 180"
23483,939.32,1,10,-17.220000000000002,-4.76,4171,0,"ROT 180"
23487,939.48,1,10,-17.130000000000003,-4.79,4172,0,"ROT 180"
23491,939.64,1,10,-17.03,-4.800000000000001,4173,0,"ROT 180"
23495,939.8,1,10,-16.92,-4.720000000000001,4174,0,"ROT 180"
23499,939.96,1,10,-16.790000000000003,-4.5600000000000005,4175,0,"ROT 180"
23503,940.12,1,10,-16.680000000000003,-4.42,4176,0,"ROT 180"
23507,940.28,1,10,-16.580000000000002,-4.24,4177,0,"ROT 180"
23511,940.44,1,10,-16.500000000000004,-4.08,4178,0,"ROT 180"
23515,940.6,1,10,-16.430000000000003,-3.91,4179,0,"ROT 180"
23519,940.76,1,10,-16.380000000000003,-3.81,4180,0,"ROT 180"
23523,940.92,1,10,-16.320000000000004,-3.8600000000000003,4181,0,"ROT 180"
23527,941.08,1,10,-16.240000000000002,-3.88,4182,0,"ROT 180"
23531,941.24,1,10,-16.150000000000002,-3.99,4183,0,"ROT 180"
23535,941.4,1,10,-16.070000000000004,-4.12,4184,0,"ROT 180"
23539,941.56,1,10,-16.01,-4.26,4185,0,"ROT 180"
23543,941.72,1,10,-15.940000000000001,-4.4,4186,0,"ROT 180"
23547,941.88,1,10,-15.890000000000004,-4.470000000000001,4187,0,"ROT 180"
23551,942.04,1,10,-15.820000000000004,-4.41,4188,0,"ROT 180"
23555,942.2,1,10,-15.780000000000001,-4.26,4189,0,"ROT 180"
23559,942.36,1,10,-15.790000000000003,-4.0600000000000005,4190,0,"ROT 180"
23563,942.52,1,10,-15.820000000000004,-3.7199999999999998,4191,0,"ROT 180"
23567,942.68,1,10,-15.820000000000004,-3.4000000000000004,4192,0,"ROT 180"
23571,942.84,1,10,-15.790000000000003,-3.1500000000000004,4193,0,"ROT 180"
23575,943,1,10,-15.820000000000004,-2.94,4194,0,"ROT 180"
23579,943.16,1,10,-15.900000000000002,-2.65,4195,0,"ROT 180"
23583,943.32,1,10,-16.040000000000003,-2.36,4196,0,"ROT 180"
23587,943.48,1,10,-16.28,-2.0500000000000003,4197,0,"ROT 180"
23591,943.64,1,10,-16.6,-1.7400000000000002,4198,0,"ROT 180"
23595,943.8,1,10,-17.040000000000003,-1.42,4199,0,"ROT 180"
23599,943.96,1,10,-17.610000000000003,-1.1000000000000003,4200,0,"ROT 180"
