frame,time,team_id,player_id,x,y,id,fragment,type
37425,1497,1,22,-15.99,-14.62,7656,0,REAL
37429,1497.16,1,22,-16.2,-14.45,7657,0,REAL
37433,1497.32,1,22,-16.38,-14.36,7658,0,REAL
37437,1497.48,1,22,-16.52,-14.23,7659,0,REAL
37441,1497.64,1,22,-16.66,-14.12,7660,0,REAL
37445,1497.8,1,22,-16.78,-14,7661,0,REAL
37449,1497.96,1,22,-16.87,-13.78,7662,0,REAL
37453,1498.12,1,22,-16.91,-13.5,7663,0,REAL
37457,1498.28,1,22,-16.95,-13.24,7664,0,REAL
37461,1498.44,1,22,-16.98,-12.97,7665,0,REAL
37473,1498.92,1,22,-16.98,-12.21,7668,0,REAL
37477,1499.08,1,22,-17.01,-11.92,7669,0,REAL
37481,1499.24,1,22,-17.02,-11.66,7670,0,REAL
37485,1499.4,1,22,-17.05,-11.44,7671,0,REAL
37489,1499.56,1,22,-17.09,-11.27,7672,0,REAL
37493,1499.72,1,22,-17.16,-11.09,7673,0,REAL
37497,1499.88,1,22,-17.26,-10.96,7674,0,REAL
37501,1500.04,1,22,-17.34,-10.73,7675,0,REAL
37505,1500.2,1,22,-17.42,-10.46,7676,0,REAL
37509,1500.36,1,22,-17.52,-10.25,7677,0,REAL
37513,1500.52,1,22,-17.64,-10.09,7678,0,REAL
37517,1500.68,1,22,-17.8,-9.97,7679,0,REAL
37521,1500.84,1,22,-18.02,-9.89,7680,0,REAL
37525,1501,1,22,-18.23,-9.78,7681,0,REAL
37529,1501.16,1,22,-18.39,-9.6,7682,0,REAL
37533,1501.32,1,22,-18.62,-9.57,7683,0,REAL
37537,1501.48,1,22,-18.81,-9.51,7684,0,REAL
37541,1501.64,1,22,-19.01,-9.48,7685,0,REAL
37549,1501.96,1,22,-19.37,-9.4,7687,0,REAL
37553,1502.12,1,22,-19.49,-9.29,7688,0,REAL
37557,1502.28,1,22,-19.62,-9.12,7689,0,REAL
37561,1502.44,1,22,-19.71,-8.96,7690,0,REAL
37565,1502.6,1,22,-19.82,-8.79,7691,0,REAL
37569,1502.76,1,22,-19.92,-8.58,7692,0,REAL
37573,1502.92,1,22,-20.07,-8.42,7693,0,REAL
37577,1503.08,1,22,-20.23,-8.24,7694,0,REAL
37581,1503.24,1,22,-20.34,-8.04,7695,0,REAL
37585,1503.4,1,22,-20.42,-7.81,7696,0,REAL
37589,1503.56,1,22,-20.55,-7.65,7697,0,REAL
37593,1503.72,1,22,-20.69,-7.52,7698,0,REAL
37597,1503.88,1,22,-20.77,-7.35,7699,0,REAL
37601,1504.04,1,22,-20.87,-7.23,7700,0,REAL
37605,1504.2,1,22,-20.98,-7.14,7701,0,REAL
37609,1504.36,1,22,-21.07,-7.01,7702,0,REAL
37613,1504.52,1,22,-21.17,-6.87,7703,0,REAL
37617,1504.68,1,22,-21.3,-6.75,7704,0,REAL
37621,1504.84,1,22,-21.45,-6.68,7705,0,REAL
37625,1505,1,22,-21.59,-6.6,7706,0,REAL
37633,1505.32,1,22,-21.95,-6.48,7708,0,REAL
37637,1505.48,1,22,-22.13,-6.41,7709,0,REAL
37641,1505.64,1,22,-22.3,-6.24,7710,0,REAL
37645,1505.8,1,22,-22.49,-6.1,7711,0,REAL
37649,1505.96,1,22,-22.7,-6.02,7712,0,REAL
37653,1506.12,1,22,-22.87,-5.86,7713,0,REAL
37657,1506.28,1,22,-23.03,-5.75,7714,0,REAL
37661,1506.44,1,22,-23.23,-5.66,7715,0,REAL
37665,1506.6,1,22,-23.41,-5.54,7716,0,REAL
37669,1506.76,1,22,-23.55,-5.36,7717,0,REAL
37673,1506.92,1,22,-23.7,-5.22,7718,0,REAL
37677,1507.08,1,22,-23.88,-5.15,7719,0,REAL
37681,1507.24,1,22,-24.02,-5.05,7720,0,REAL
37685,1507.4,1,22,-24.14,-4.9,7721,0,REAL
37689,1507.56,1,22,-24.31,-4.82,7722,0,REAL
37693,1507.72,1,22,-24.48,-4.76,7723,0,REAL
37697,1507.88,1,22,-24.66,-4.66,7724,0,REAL
37701,1508.04,1,22,-24.81,-4.59,7725,0,REAL
37705,1508.2,1,22,-24.96,-4.51,7726,0,REAL
37709,1508.36,1,22,-25.12,-4.44,7727,0,REAL
37713,1508.52,1,22,-25.26,-4.38,7728,0,REAL
37717,1508.68,1,22,-25.38,-4.37,7729,0,REAL
37721,1508.84,1,22,-25.52,-4.36,7730,0,REAL
37725,1509,1,22,-25.63,-4.34,7731,0,REAL
37729,1509.16,1,22,-25.75,-4.38,7732,0,REAL
37733,1509.32,1,22,-25.88,-4.43,7733,0,REAL
37737,1509.48,1,22,-26.02,-4.44,7734,0,REAL
37741,1509.64,1,22,-26.13,-4.45,7735,0,REAL
37745,1509.8,1,22,-26.27,-4.51,7736,0,REAL
37749,1509.96,1,22,-26.43,-4.61,7737,0,REAL
37753,1510.12,1,22,-26.59,-4.7,7738,0,REAL
37757,1510.28,1,22,-26.75,-4.77,7739,0,REAL
37761,1510.44,1,22,-26.91,-4.83,7740,0,REAL
37765,1510.6,1,22,-27.05,-4.9,7741,0,REAL
37769,1510.76,1,22,-27.18,-4.94,7742,0,REAL
37773,1510.92,1,22,-27.29,-4.98,7743,0,REAL
37777,1511.08,1,22,-27.45,-5.08,7744,0,REAL
37781,1511.24,1,22,-27.59,-5.14,7745,0,REAL
37785,1511.4,1,22,-27.72,-5.2,7746,0,REAL
37789,1511.56,1,22,-27.84,-5.2,7747,0,REAL
37793,1511.72,1,22,-27.96,-5.16,7748,0,REAL
37797,1511.88,1,22,-28.11,-5.14,7749,0,REAL
37801,1512.04,1,22,-28.31,-5.19,7750,0,REAL
37805,1512.2,1,22,-28.59,-5.37,7751,0,REAL
37813,1512.52,1,22,-29.23,-5.81,7753,0,REAL
37817,1512.68,1,22,-29.56,-6.02,7754,0,REAL
37821,1512.84,1,22,-29.86,-6.23,7755,0,REAL
37825,1513,1,22,-30.11,-6.42,7756,0,REAL
37829,1513.16,1,22,-30.36,-6.6,7757,0,REAL
37833,1513.32,1,22,-30.61,-6.81,7758,0,REAL
37837,1513.48,1,22,-30.79,-6.91,7759,0,REAL
37841,1513.64,1,22,-30.93,-6.97,7760,0,REAL
37845,1513.8,1,22,-31.02,-6.95,7761,0,REAL
37849,1513.96,1,22,-31.09,-6.84,7762,0,REAL
37853,1514.12,1,22,-31.14,-6.72,7763,0,REAL
37857,1514.28,1,22,-31.22,-6.63,7764,0,REAL
37861,1514.44,1,22,-31.32,-6.54,7765,0,REAL
37865,1514.6,1,22,-31.4,-6.43,7766,0,REAL
37869,1514.76,1,22,-31.45,-6.31,7767,0,REAL
37873,1514.92,1,22,-31.52,-6.2,7768,0,REAL
37877,1515.08,1,22,-31.57,-6.16,7769,0,REAL
37881,1515.24,1,22,-31.61,-6.13,7770,0,REAL
37885,1515.4,1,22,-31.63,-6.14,7771,0,REAL
37889,1515.56,1,22,-31.66,-6.23,7772,0,REAL
37893,1515.72,1,22,-31.64,-6.32,7773,0,REAL
37897,1515.88,1,22,-31.61,-6.4,7774,0,REAL
37901,1516.04,1,22,-31.63,-6.65,7775,0,REAL
37905,1516.2,1,22,-31.63,-6.92,7776,0,REAL
37909,1516.36,1,22,-31.55,-7.13,7777,0,REAL
37913,1516.52,1,22,-31.43,-7.31,7778,0,REAL
37917,1516.68,1,22,-31.25,-7.47,7779,0,REAL
37921,1516.84,1,22,-31,-7.59,7780,0,REAL
37925,1517,1,22,-30.68,-7.65,7781,0,REAL
37929,1517.16,1,22,-30.31,-7.78,7782,0,REAL
37933,1517.32,1,22,-29.93,-7.93,7783,0,REAL
37937,1517.48,1,22,-29.45,-8.04,7784,0,REAL
37941,1517.64,1,22,-28.96,-8.15,7785,0,REAL
