frame,time,team_id,player_id,x,y,id,fragment,type
23784,951.36,1,23,9.6,18.99,4246,0,REAL
23788,951.52,1,23,10.12,19.11,4247,0,REAL
23792,951.68,1,23,10.62,19.23,4248,0,REAL
23796,951.84,1,23,11.13,19.35,4249,0,REAL
23804,952.16,1,23,12.13,19.59,4251,0,REAL
23808,952.32,1,23,12.65,19.71,4252,0,REAL
23812,952.48,1,23,13.15,19.82,4253,0,REAL
23816,952.64,1,23,13.65,19.95,4254,0,REAL
23820,952.8,1,23,14.15,20.06,4255,0,REAL
23824,952.96,1,23,14.65,20.38,4256,0,REAL
23828,953.12,1,23,15.15,21.28,4257,0,REAL
23832,953.28,1,23,15.65,22.18,4258,0,REAL
23836,953.44,1,23,16.09,23.09,4259,0,REAL
23840,953.6,1,23,16.34,23.98,4260,0,REAL
23844,953.76,1,23,16.4,24.88,4261,0,REAL
23848,953.92,1,23,16.27,25.79,4262,0,REAL
23852,954.08,1,23,15.93,26.7,4263,0,REAL
23856,954.24,1,23,15.88,27.33,4264,0,REAL
23860,954.4,1,23,16.13,27.75,4265,0,REAL
23864,954.56,1,23,16.23,28.23,4266,0,REAL
23868,954.72,1,23,16.21,28.77,4267,0,REAL
23872,954.88,1,23,16.1,29.33,4268,0,REAL
23876,955.04,1,23,15.88,29.89,4269,0,REAL
23880,955.2,1,23,15.57,30.44,4270,0,REAL
23884,955.36,1,23,15.1,31.06,4271,0,REAL
23888,955.52,1,23,14.65,31.5,4272,0,REAL
23892,955.68,1,23,14.18,31.77,4273,0,REAL
23896,955.84,1,23,13.66,31.94,4274,0,REAL
23900,956,1,23,13.13,32,4275,0,REAL
23904,956.16,1,23,12.6,31.94,4276,0,REAL
23908,956.32,1,23,12.1,31.77,4277,0,REAL
23912,956.48,1,23,11.68,31.41,4278,0,REAL
23916,956.64,1,23,11.38,30.91,4279,0,REAL
23920,956.8,1,23,11.07,30.36,4280,0,REAL
23924,956.96,1,23,10.74,29.8,4281,0,REAL
23928,957.12,1,23,10.49,29.25,4282,0,REAL
23932,957.28,1,23,10.27,28.69,4283,0,REAL
23936,957.44,1,23,10.07,28.11,4284,0,REAL
23940,957.6,1,23,9.85,27.53,4285,0,REAL
23944,957.76,1,23,9.63,26.92,4286,0,REAL
23948,957.92,1,23,9.35,26.29,4287,0,REAL
23952,958.08,1,23,8.99,25.67,4288,0,REAL
23956,958.24,1,23,8.49,25.09,4289,0,REAL
23960,958.4,1,23,7.95,24.59,4290,0,REAL
23964,958.56,1,23,7.24,24.14,4291,0,REAL
23968,958.72,1,23,6.45,23.78,4292,0,REAL
23972,958.88,1,23,5.55,23.55,4293,0,REAL
23976,959.04,1,23,4.56,23.38,4294,0,REAL
23980,959.2,1,23,3.52,23.29,4295,0,REAL
23984,959.36,1,23,2.44,23.23,4296,0,REAL
23988,959.52,1,23,1.34,23.27,4297,0,REAL
23992,959.68,1,23,0.23,23.34,4298,0,REAL
23996,959.84,1,23,-0.91,23.46,4299,0,REAL
24000,960,1,23,-2.02,23.52,4300,0,REAL
24004,960.16,1,23,-3.16,23.57,4301,0,REAL
24008,960.32,1,23,-4.32,23.54,4302,0,REAL
24012,960.48,1,23,-5.46,23.52,4303,0,REAL
24016,960.64,1,23,-6.59,23.45,4304,0,REAL
24020,960.8,1,23,-7.69,23.39,4305,0,REAL
24024,960.96,1,23,-8.77,23.24,4306,0,REAL
24028,961.12,1,23,-9.82,23.09,4307,0,REAL
24032,961.28,1,23,-10.87,22.86,4308,0,REAL
24036,961.44,1,23,-11.85,22.64,4309,0,REAL
24040,961.6,1,23,-12.84,22.31,4310,0,REAL
24044,961.76,1,23,-13.78,22.02,4311,0,REAL
24048,961.92,1,23,-14.73,21.68,4312,0,REAL
24052,962.08,1,23,-15.63,21.36,4313,0,REAL
24056,962.24,1,23,-16.55,20.91,4314,0,REAL
24060,962.4,1,23,-17.42,20.43,4315,0,REAL
24064,962.56,1,23,-18.34,19.88,4316,0,REAL
24068,962.72,1,23,-19.19,19.41,4317,0,REAL
24072,962.88,1,23,-20.05,18.91,4318,0,REAL
24076,963.04,1,23,-20.88,18.45,4319,0,REAL
24080,963.2,1,23,-21.71,17.91,4320,0,REAL
24084,963.36,1,23,-22.48,17.42,4321,0,REAL
24088,963.52,1,23,-23.16,17.02,4322,0,REAL
24092,963.68,1,23,-23.81,16.59,4323,0,REAL
24096,963.84,1,23,-24.55,15.96,4324,0,REAL
24100,964,1,23,-25.23,15.32,4325,0,REAL
24104,964.16,1,23,-25.95,14.56,4326,0,REAL
24108,964.32,1,23,-26.54,13.86,4327,0,REAL
24112,964.48,1,23,-27.2,13,4328,0,REAL
24116,964.64,1,23,-27.88,12.05,4329,0,REAL
24120,964.8,1,23,-28.57,11.11,4330,0,REAL
24124,964.96,1,23,-29.21,10.21,4331,0,REAL
24128,965.12,1,23,-29.84,9.36,4332,0,REAL
24132,965.28,1,23,-30.41,8.55,4333,0,REAL
24136,965.44,1,23,-30.93,7.8,4334,0,REAL
24140,965.6,1,23,-31.38,7.17,4335,0,REAL
24144,965.76,1,23,-31.7,6.67,4336,0,REAL
24148,965.92,1,23,-32.06,6.14,4337,0,REAL
24152,966.08,1,23,-32.45,5.52,4338,0,REAL
24156,966.24,1,23,-32.69,5.11,4339,0,REAL
24160,966.4,1,23,-32.95,4.6,4340,0,REAL
24164,966.56,1,23,-33.22,4.09,4341,0,REAL
24168,966.72,1,23,-33.47,3.55,4342,0,REAL
24172,966.88,1,23,-33.73,2.97,4343,0,REAL
24176,967.04,1,23,-34.02,2.34,4344,0,REAL
24180,967.2,1,23,-34.36,1.66,4345,0,REAL
24184,967.36,1,23,-34.72,0.91,4346,0,REAL
24188,967.52,1,23,-35.13,0.16,4347,0,REAL
24192,967.68,1,23,-35.38,-0.48,4348,0,REAL
24200,968,1,23,-34.38,-1.2,4350,0,REAL
24204,968.16,1,23,-33.89,-1.55,4351,0,REAL
24208,968.32,1,23,-33.41,-1.91,4352,0,REAL
24212,968.48,1,23,-33.08,-2.27,4353,0,REAL
24216,968.64,1,23,-32.95,-2.63,4354,0,REAL
24220,968.8,1,23,-33.02,-2.98,4355,0,REAL
24224,968.96,1,23,-33.28,-3.34,4356,0,REAL
24228,969.12,1,23,-33.49,-3.66,4357,0,REAL
24232,969.28,1,23,-32.99,-3.84,4358,0,REAL
24236,969.44,1,23,-32.52,-4.03,4359,0,REAL
24240,969.6,1,23,-32.2,-4.21,4360,0,REAL
24244,969.76,1,23,-32.02,-4.4,4361,0,REAL
24248,969.92,1,23,-31.99,-4.58,4362,0,REAL
24252,970.08,1,23,-32.11,-4.76,4363,0,REAL
24256,970.24,1,23,-32.39,-4.95,4364,0,REAL
24260,970.4,1,23,-32.84,-5.13,4365,0,REAL
24264,970.56,1,23,-32.63,-5.32,4366,0,REAL
24268,970.72,1,23,-32.48,-5.51,4367,0,REAL
24272,970.88,1,23,-32.38,-5.7,4368,0,REAL
24276,971.04,1,23,-32.34,-5.89,4369,0,REAL
24280,971.2,1,23,-32.34,-6.07,4370,0,REAL
24284,971.36,1,23,-32.38,-6.26,4371,0,REAL
24288,971.52,1,23,-32.47,-6.45,4372,0,REAL
24292,971.68,1,23,-32.63,-6.64,4373,0,REAL
24296,971.84,1,23,-32.83,-6.83,4374,0,REAL
24300,972,1,23,-33.08,-7.02,4375,0,REAL
24304,972.16,1,23,-33.38,-7.21,4376,0,REAL
24308,972.32,1,23,-33.72,-7.4,4377,0,REAL
24312,972.48,1,23,-34.13,-7.59,4378,0,REAL
24316,972.64,1,23,-34.58,-7.78,4379,0,REAL
24320,972.8,1,23,-34.56,-7.85,4380,0,REAL
24324,972.96,1,23,-34.08,-7.8,4381,0,REAL
24328,973.12,1,23,-33.59,-7.75,4382,0,REAL
24332,973.28,1,23,-33.09,-7.71,4383,0,REAL
24336,973.44,1,23,-32.59,-7.66,4384,0,REAL
24340,973.6,1,23,-32.11,-7.62,4385,0,REAL
24344,973.76,1,23,-31.61,-7.57,4386,0,REAL
24348,973.92,1,23,-31.13,-7.52,4387,0,REAL
24352,974.08,1,23,-30.81,-7.48,4388,0,REAL
24356,974.24,1,23,-30.77,-7.43,4389,0,REAL
24360,974.4,1,23,-30.97,-7.38,4390,0,REAL
24364,974.56,1,23,-31.11,-7.3,4391,0,REAL
24372,974.88,1,23,-29.61,-6.92,4393,0,REAL
24376,975.04,1,23,-28.88,-6.73,4394,0,REAL
24384,975.36,1,23,-27.38,-6.35,4396,0,REAL
24388,975.52,1,23,-26.64,-6.16,4397,0,REAL
24392,975.68,1,23,-25.89,-5.97,4398,0,REAL
24396,975.84,1,23,-25.16,-5.78,4399,0,REAL
24408,976.32,1,23,-22.91,-5.21,4402,0,REAL
24412,976.48,1,23,-22.17,-5.02,4403,0,REAL
24416,976.64,1,23,-21.42,-4.83,4404,0,REAL
24420,976.8,1,23,-20.55,-4.7,4405,0,REAL
24424,976.96,1,23,-19.53,-4.61,4406,0,REAL
24428,977.12,1,23,-18.52,-4.52,4407,0,REAL
24432,977.28,1,23,-17.52,-4.44,4408,0,REAL
24436,977.44,1,23,-16.51,-4.34,4409,0,REAL
24440,977.6,1,23,-15.49,-4.26,4410,0,REAL
24444,977.76,1,23,-14.48,-4.18,4411,0,REAL
24448,977.92,1,23,-13.46,-4.09,4412,0,REAL
24452,978.08,1,23,-13.59,-4.45,4413,0,REAL
24456,978.24,1,23,-14.06,-4.95,4414,0,REAL
24460,978.4,1,23,-14.45,-5.45,4415,0,REAL
24464,978.56,1,23,-14.77,-5.95,4416,0,REAL
24468,978.72,1,23,-14.98,-6.45,4417,0,REAL
24472,978.88,1,23,-15.1,-6.96,4418,0,REAL
24476,979.04,1,23,-15.14,-7.46,4419,0,REAL
24480,979.2,1,23,-15.09,-7.96,4420,0,REAL
24484,979.36,1,23,-14.95,-8.46,4421,0,REAL
24488,979.52,1,23,-14.71,-8.96,4422,0,REAL
24492,979.68,1,23,-14.38,-9.47,4423,0,REAL
24496,979.84,1,23,-13.98,-9.97,4424,0,REAL
24500,980,1,23,-13.92,-10.25,4425,0,REAL
24504,980.16,1,23,-14.27,-10.32,4426,0,REAL
24508,980.32,1,23,-14.55,-10.39,4427,0,REAL
24512,980.48,1,23,-14.8,-10.46,4428,0,REAL
24516,980.64,1,23,-14.98,-10.53,4429,0,REAL
24520,980.8,1,23,-14.81,-10.59,4430,0,REAL
24524,980.96,1,23,-14.31,-10.66,4431,0,REAL
24528,981.12,1,23,-14.02,-10.73,4432,0,REAL
24532,981.28,1,23,-14.23,-10.8,4433,0,REAL
24536,981.44,1,23,-14.38,-10.86,4434,0,REAL
24540,981.6,1,23,-14.46,-10.93,4435,0,REAL
24544,981.76,1,23,-14.46,-11,4436,0,REAL
24548,981.92,1,23,-14.41,-11.07,4437,0,REAL
24552,982.08,1,23,-14.27,-11.13,4438,0,REAL
24556,982.24,1,23,-14.05,-11.2,4439,0,REAL
24560,982.4,1,23,-13.77,-11.27,4440,0,REAL
24564,982.56,1,23,-13.41,-11.34,4441,0,REAL
24568,982.72,1,23,-12.98,-11.41,4442,0,REAL
24572,982.88,1,23,-12.69,-11.43,4443,0,REAL
24576,983.04,1,23,-12.52,-11.42,4444,0,REAL
24580,983.2,1,23,-12.31,-11.41,4445,0,REAL
24584,983.36,1,23,-12.05,-11.4,4446,0,REAL
24588,983.52,1,23,-11.73,-11.39,4447,0,REAL
24592,983.68,1,23,-11.34,-11.38,4448,0,REAL
24596,983.84,1,23,-10.89,-11.37,4449,0,REAL
24600,984,1,23,-10.91,-11.35,4450,0,REAL
24604,984.16,1,23,-11.39,-11.32,4451,0,REAL
24608,984.32,1,23,-11.88,-11.3,4452,0,REAL
24612,984.48,1,23,-12.38,-11.28,4453,0,REAL
24616,984.64,1,23,-12.88,-11.25,4454,0,REAL
24620,984.8,1,23,-13.37,-11.23,4455,0,REAL
24624,984.96,1,23,-13.85,-11.21,4456,0,REAL
24628,985.12,1,23,-14.35,-11.18,4457,0,REAL
24632,985.28,1,23,-14.84,-11.16,4458,0,REAL
24636,985.44,1,23,-15.23,-11.14,4459,0,REAL
24640,985.6,1,23,-15.06,-11.08,4460,0,REAL
24644,985.76,1,23,-14.99,-11.14,4461,0,REAL
24648,985.92,1,23,-14.92,-11.32,4462,0,REAL
24652,986.08,1,23,-14.84,-11.59,4463,0,REAL
24656,986.24,1,23,-14.77,-11.93,4464,0,REAL
24660,986.4,1,23,-14.73,-12.21,4465,0,REAL
24664,986.56,1,23,-14.66,-12.6,4466,0,REAL
24668,986.72,1,23,-14.63,-12.97,4467,0,REAL
24672,986.88,1,23,-14.59,-13.3,4468,0,REAL
24676,987.04,1,23,-14.6,-13.55,4469,0,REAL
24680,987.2,1,23,-14.74,-13.85,4470,0,REAL
24684,987.36,1,23,-15.2,-14.53,4471,0,REAL
24688,987.52,1,23,-15.17,-15.15,4472,0,REAL
24692,987.68,1,23,-15.67,-15.61,4473,0,REAL
24696,987.84,1,23,-16.16,-16.07,4474,0,REAL
24700,988,1,23,-16.66,-16.52,4475,0,REAL
24704,988.16,1,23,-17.14,-16.98,4476,0,REAL
24708,988.32,1,23,-17.64,-17.44,4477,0,REAL
24712,988.48,1,23,-18.13,-17.9,4478,0,REAL
24716,988.64,1,23,-18.63,-18.35,4479,0,REAL
24720,988.8,1,23,-19.1,-18.81,4480,0,REAL
24724,988.96,1,23,-19.37,-19.27,4481,0,REAL
24728,989.12,1,23,-18.87,-19.72,4482,0,REAL
24732,989.28,1,23,-18.92,-20.18,4483,0,REAL
24736,989.44,1,23,-18.44,-20.93,4484,0,REAL
24740,989.6,1,23,-17.95,-21.67,4485,0,REAL
24744,989.76,1,23,-17.62,-22.42,4486,0,REAL
24748,989.92,1,23,-17.6,-23.17,4487,0,REAL
24752,990.08,1,23,-17.66,-23.92,4488,0,REAL
24756,990.24,1,23,-17.98,-24.66,4489,0,REAL
24760,990.4,1,23,-17.73,-25.33,4490,0,REAL
24764,990.56,1,23,-17.66,-25.96,4491,0,REAL
24768,990.72,1,23,-17.78,-26.6,4492,0,REAL
24772,990.88,1,23,-17.81,-27.23,4493,0,REAL
24776,991.04,1,23,-17.76,-27.87,4494,0,REAL
24780,991.2,1,23,-17.59,-28.5,4495,0,REAL
24784,991.36,1,23,-17.34,-29.14,4496,0,REAL
24788,991.52,1,23,-17.01,-29.78,4497,0,REAL
24792,991.68,1,23,-16.56,-30.41,4498,0,REAL
24796,991.84,1,23,-16.81,-30.4,4499,0,REAL
24800,992,1,23,-17.3,-30.17,4500,0,REAL
24804,992.16,1,23,-17.8,-29.94,4501,0,REAL
24808,992.32,1,23,-18.3,-29.72,4502,0,REAL
24812,992.48,1,23,-18.55,-29.49,4503,0,REAL
24816,992.64,1,23,-18.81,-29.26,4504,0,REAL
24820,992.8,1,23,-19.23,-29.03,4505,0,REAL
24824,992.96,1,23,-19.57,-28.8,4506,0,REAL
24828,993.12,1,23,-19.87,-28.58,4507,0,REAL
24832,993.28,1,23,-20.09,-28.35,4508,0,REAL
24836,993.44,1,23,-20.24,-28.12,4509,0,REAL
24840,993.6,1,23,-20.34,-27.9,4510,0,REAL
24844,993.76,1,23,-20.38,-27.67,4511,0,REAL
24848,993.92,1,23,-20.34,-27.44,4512,0,REAL
24852,994.08,1,23,-20.24,-27.21,4513,0,REAL
24856,994.24,1,23,-20.09,-26.99,4514,0,REAL
24860,994.4,1,23,-19.88,-26.76,4515,0,REAL
24864,994.56,1,23,-19.59,-26.53,4516,0,REAL
24868,994.72,1,23,-19.26,-26.3,4517,0,REAL
24872,994.88,1,23,-18.84,-26.08,4518,0,REAL
24876,995.04,1,23,-18.38,-25.85,4519,0,REAL
24880,995.2,1,23,-18.88,-26.49,4520,0,REAL
24884,995.36,1,23,-19.39,-27.13,4521,0,REAL
24888,995.52,1,23,-19.53,-26.88,4522,0,REAL
24892,995.68,1,23,-19.69,-26.66,4523,0,REAL
24896,995.84,1,23,-19.82,-26.46,4524,0,REAL
24900,996,1,23,-19.98,-26.26,4525,0,REAL
24904,996.16,1,23,-20.13,-26.07,4526,0,REAL
24908,996.32,1,23,-20.27,-25.85,4527,0,REAL
24912,996.48,1,23,-20.39,-25.62,4528,0,REAL
24916,996.64,1,23,-20.56,-25.3,4529,0,REAL
24920,996.8,1,23,-20.62,-24.87,4530,0,REAL
24924,996.96,1,23,-20.63,-24.35,4531,0,REAL
24928,997.12,1,23,-20.66,-23.95,4532,0,REAL
24932,997.28,1,23,-20.7,-23.46,4533,0,REAL
24936,997.44,1,23,-20.73,-22.95,4534,0,REAL
24940,997.6,1,23,-20.8,-22.38,4535,0,REAL
24944,997.76,1,23,-20.94,-22.08,4536,0,REAL
24948,997.92,1,23,-21.09,-21.6,4537,0,REAL
24952,998.08,1,23,-21.38,-21.22,4538,0,REAL
24956,998.24,1,23,-21.73,-20.91,4539,0,REAL
24960,998.4,1,23,-22.05,-20.67,4540,0,REAL
24964,998.56,1,23,-22.55,-20.43,4541,0,REAL
24968,998.72,1,23,-23.14,-20.24,4542,0,REAL
24972,998.88,1,23,-23.8,-20.1,4543,0,REAL
24976,999.04,1,23,-24.53,-20.01,4544,0,REAL
24980,999.2,1,23,-25.34,-19.97,4545,0,REAL
24984,999.36,1,23,-26.18,-19.98,4546,0,REAL
24988,999.52,1,23,-27.06,-19.99,4547,0,REAL
24992,999.68,1,23,-27.88,-19.83,4548,0,REAL
25000,1000,1,23,-29.48,-19.53,4550,0,REAL
25004,1000.16,1,23,-30.29,-19.38,4551,0,REAL
25008,1000.32,1,23,-31.09,-19.23,4552,0,REAL
