frame,time,team_id,player_id,x,y,id,fragment,type
33255,1330.2,1,6,-23.34,2.13,6614,0,"SYM X"
33259,1330.36,1,6,-22.84999999999999,2.04,6615,0,"SYM X"
33263,1330.52,1,6,-22.349999999999994,1.95,6616,0,"SYM X"
33267,1330.68,1,6,-21.86999999999999,1.86,6617,0,"SYM X"
33271,1330.84,1,6,-21.379999999999992,1.78,6618,0,"SYM X"
33275,1331,1,6,-20.879999999999992,1.7,6619,0,"SYM X"
33279,1331.16,1,6,-20.399999999999988,1.6,6620,0,"SYM X"
33283,1331.32,1,6,-19.909999999999993,1.52,6621,0,"SYM X"
33287,1331.48,1,6,-19.409999999999997,1.42,6622,0,"SYM X"
33291,1331.64,1,6,-18.929999999999986,1.34,6623,0,"SYM X"
33295,1331.8,1,6,-18.42999999999999,1.25,6624,0,"SYM X"
33299,1331.96,1,6,-17.939999999999994,1.16,6625,0,"SYM X"
33303,1332.12,1,6,-17.45999999999999,1.07,6626,0,"SYM X"
33307,1332.28,1,6,-16.95999999999999,0.99,6627,0,"SYM X"
33311,1332.44,1,6,-16.479999999999997,0.91,6628,0,"SYM X"
33315,1332.6,1,6,-15.989999999999988,0.81,6629,0,"SYM X"
33319,1332.76,1,6,-15.48999999999999,0.72,6630,0,"SYM X"
33323,1332.92,1,6,-15.34999999999999,0.11,6631,0,"SYM X"
33327,1333.08,1,6,-14.259999999999986,-0.07,6632,0,"SYM X"
33331,1333.24,1,6,-12.599999999999987,0.03,6633,0,"SYM X"
33335,1333.4,1,6,-10.759999999999994,0.24,6634,0,"SYM X"
33339,1333.56,1,6,-9.159999999999993,0.38,6635,0,"SYM X"
33343,1333.72,1,6,-8.189999999999996,0.28,6636,0,"SYM X"
33347,1333.88,1,6,-7.799999999999992,-0.05,6637,0,"SYM X"
33351,1334.04,1,6,-6.5899999999999945,-0.02,6638,0,"SYM X"
33355,1334.2,1,6,-5.369999999999996,0.02,6639,0,"SYM X"
33359,1334.36,1,6,-4.339999999999989,-0.08,6640,0,"SYM X"
33363,1334.52,1,6,-3.4899999999999896,-0.29,6641,0,"SYM X"
33367,1334.68,1,6,-2.629999999999992,-0.48,6642,0,"SYM X"
33371,1334.84,1,6,-1.7699999999999942,-0.69,6643,0,"SYM X"
33375,1335,1,6,-0.899999999999995,-0.89,6644,0,"SYM X"
33379,1335.16,1,6,-0.03999999999998849,-1.09,6645,0,"SYM X"
33383,1335.32,1,6,0.8400000000000087,-1.3,6646,0,"SYM X"
33387,1335.48,1,6,1.9100000000000072,-1.58,6647,0,"SYM X"
33391,1335.64,1,6,2.7700000000000067,-1.8,6648,0,"SYM X"
33395,1335.8,1,6,3.6500000000000092,-2.14,6649,0,"SYM X"
33399,1335.96,1,6,4.4900000000000055,-2.46,6650,0,"SYM X"
33403,1336.12,1,6,5.340000000000003,-2.82,6651,0,"SYM X"
33407,1336.28,1,6,6.150000000000009,-3.19,6652,0,"SYM X"
33411,1336.44,1,6,6.93000000000001,-3.58,6653,0,"SYM X"
33415,1336.6,1,6,7.660000000000009,-4,6654,0,"SYM X"
33419,1336.76,1,6,8.350000000000001,-4.36,6655,0,"SYM X"
33423,1336.92,1,6,9.010000000000007,-4.77,6656,0,"SYM X"
33427,1337.08,1,6,9.620000000000012,-5.25,6657,0,"SYM X"
33431,1337.24,1,6,10.210000000000006,-5.71,6658,0,"SYM X"
33435,1337.4,1,6,10.770000000000007,-6.19,6659,0,"SYM X"
33439,1337.56,1,6,11.320000000000011,-6.59,6660,0,"SYM X"
33443,1337.72,1,6,11.840000000000002,-7.13,6661,0,"SYM X"
33447,1337.88,1,6,12.340000000000005,-7.59,6662,0,"SYM X"
33451,1338.04,1,6,12.85,-8.12,6663,0,"SYM X"
33455,1338.2,1,6,13.32000000000001,-8.52,6664,0,"SYM X"
33459,1338.36,1,6,13.770000000000005,-8.94,6665,0,"SYM X"
33463,1338.52,1,6,14.180000000000005,-9.36,6666,0,"SYM X"
33467,1338.68,1,6,14.560000000000006,-9.76,6667,0,"SYM X"
33471,1338.84,1,6,14.870000000000006,-10.14,6668,0,"SYM X"
33475,1339,1,6,15.160000000000007,-10.47,6669,0,"SYM X"
33479,1339.16,1,6,15.450000000000006,-10.95,6670,0,"SYM X"
33483,1339.32,1,6,15.700000000000006,-11.46,6671,0,"SYM X"
33487,1339.48,1,6,15.930000000000005,-12.03,6672,0,"SYM X"
33491,1339.64,1,6,16.180000000000007,-12.53,6673,0,"SYM X"
33495,1339.8,1,6,16.480000000000004,-13.15,6674,0,"SYM X"
33499,1339.96,1,6,16.710000000000008,-13.74,6675,0,"SYM X"
33503,1340.12,1,6,16.92,-14.49,6676,0,"SYM X"
33507,1340.28,1,6,17.090000000000003,-15.09,6677,0,"SYM X"
33511,1340.44,1,6,17.300000000000004,-15.69,6678,0,"SYM X"
33515,1340.6,1,6,17.480000000000004,-16.22,6679,0,"SYM X"
33519,1340.76,1,6,17.66,-16.99,6680,0,"SYM X"
33523,1340.92,1,6,17.870000000000008,-17.84,6681,0,"SYM X"
33527,1341.08,1,6,18.09,-18.8,6682,0,"SYM X"
33531,1341.24,1,6,18.35,-19.88,6683,0,"SYM X"
33535,1341.4,1,6,18.660000000000004,-21.1,6684,0,"SYM X"
33539,1341.56,1,6,19.030000000000005,-22.46,6685,0,"SYM X"
33543,1341.72,1,6,19.480000000000004,-24,6686,0,"SYM X"
33547,1341.88,1,6,19.890000000000004,-24.48,6687,0,"SYM X"
33551,1342.04,1,6,20.250000000000004,-24.55,6688,0,"SYM X"
33555,1342.2,1,6,20.56000000000001,-24.65,6689,0,"SYM X"
33559,1342.36,1,6,20.82,-24.73,6690,0,"SYM X"
33563,1342.52,1,6,21.050000000000004,-24.8,6691,0,"SYM X"
33567,1342.68,1,6,21.210000000000004,-24.9,6692,0,"SYM X"
33571,1342.84,1,6,21.320000000000004,-24.98,6693,0,"SYM X"
33575,1343,1,6,21.390000000000008,-25.07,6694,0,"SYM X"
33579,1343.16,1,6,21.42000000000001,-25.15,6695,0,"SYM X"
33583,1343.32,1,6,21.390000000000008,-25.24,6696,0,"SYM X"
33587,1343.48,1,6,21.320000000000004,-25.32,6697,0,"SYM X"
33591,1343.64,1,6,21.200000000000003,-25.41,6698,0,"SYM X"
33595,1343.8,1,6,21.020000000000003,-25.49,6699,0,"SYM X"
33599,1343.96,1,6,20.810000000000002,-25.58,6700,0,"SYM X"
33603,1344.12,1,6,20.550000000000004,-25.66,6701,0,"SYM X"
33607,1344.28,1,6,20.230000000000004,-25.75,6702,0,"SYM X"
33611,1344.44,1,6,19.870000000000005,-25.83,6703,0,"SYM X"
33615,1344.6,1,6,19.450000000000003,-25.92,6704,0,"SYM X"
33619,1344.76,1,6,18.990000000000002,-26,6705,0,"SYM X"
33623,1344.92,1,6,19.230000000000008,-27.5,6706,0,"SYM X"
33627,1345.08,1,6,19.310000000000006,-27.7,6707,0,"SYM X"
33631,1345.24,1,6,19.450000000000003,-27.65,6708,0,"SYM X"
33635,1345.4,1,6,19.630000000000003,-27.4,6709,0,"SYM X"
33639,1345.56,1,6,19.85000000000001,-26.99,6710,0,"SYM X"
33643,1345.72,1,6,20.140000000000008,-26.47,6711,0,"SYM X"
33647,1345.88,1,6,20.5,-25.89,6712,0,"SYM X"
33651,1346.04,1,6,21.060000000000002,-25.16,6713,0,"SYM X"
33655,1346.2,1,6,21.590000000000003,-24.65,6714,0,"SYM X"
33659,1346.36,1,6,22.230000000000004,-24.32,6715,0,"SYM X"
33663,1346.52,1,6,22.980000000000004,-24.22,6716,0,"SYM X"
33667,1346.68,1,6,23.810000000000002,-24.26,6717,0,"SYM X"
33671,1346.84,1,6,24.660000000000007,-24.37,6718,0,"SYM X"
33675,1347,1,6,25.560000000000002,-24.47,6719,0,"SYM X"
33679,1347.16,1,6,26.42,-24.55,6720,0,"SYM X"
33683,1347.32,1,6,27.31,-24.66,6721,0,"SYM X"
33687,1347.48,1,6,28.030000000000005,-24.34,6722,0,"SYM X"
33691,1347.64,1,6,28.990000000000002,-24.42,6723,0,"SYM X"
33695,1347.8,1,6,29.870000000000005,-24.4,6724,0,"SYM X"
33699,1347.96,1,6,30.620000000000005,-23.98,6725,0,"SYM X"
33703,1348.12,1,6,31.27,-23.46,6726,0,"SYM X"
33707,1348.28,1,6,31.840000000000003,-22.85,6727,0,"SYM X"
33711,1348.44,1,6,32.31000000000001,-22.33,6728,0,"SYM X"
33715,1348.6,1,6,32.660000000000004,-21.86,6729,0,"SYM X"
33719,1348.76,1,6,32.96,-21.48,6730,0,"SYM X"
33723,1348.92,1,6,33.13,-21.09,6731,0,"SYM X"
33727,1349.08,1,6,33.230000000000004,-20.71,6732,0,"SYM X"
33731,1349.24,1,6,33.2,-20.15,6733,0,"SYM X"
33735,1349.4,1,6,33.03,-19.38,6734,0,"SYM X"
33739,1349.56,1,6,32.88,-18.62,6735,0,"SYM X"
33743,1349.72,1,6,32.75,-17.87,6736,0,"SYM X"
33747,1349.88,1,6,32.96,-17.63,6737,0,"SYM X"
33751,1350.04,1,6,32.98,-17.06,6738,0,"SYM X"
33755,1350.2,1,6,32.99000000000001,-16.54,6739,0,"SYM X"
33759,1350.36,1,6,32.95,-15.99,6740,0,"SYM X"
33763,1350.52,1,6,32.910000000000004,-15.34,6741,0,"SYM X"
33767,1350.68,1,6,32.82,-14.63,6742,0,"SYM X"
33771,1350.84,1,6,32.74000000000001,-13.98,6743,0,"SYM X"
33779,1351.16,1,6,32.660000000000004,-12.8,6745,0,"SYM X"
33783,1351.32,1,6,32.64,-12.29,6746,0,"SYM X"
33787,1351.48,1,6,32.60000000000001,-11.69,6747,0,"SYM X"
33791,1351.64,1,6,32.56,-11.08,6748,0,"SYM X"
33795,1351.8,1,6,32.57000000000001,-10.57,6749,0,"SYM X"
33799,1351.96,1,6,32.7,-10.27,6750,0,"SYM X"
33803,1352.12,1,6,32.800000000000004,-9.95,6751,0,"SYM X"
33807,1352.28,1,6,32.82,-9.63,6752,0,"SYM X"
33811,1352.44,1,6,32.84,-9.41,6753,0,"SYM X"
33815,1352.6,1,6,32.730000000000004,-8.93,6754,0,"SYM X"
33819,1352.76,1,6,32.59,-8.36,6755,0,"SYM X"
33823,1352.92,1,6,32.410000000000004,-7.99,6756,0,"SYM X"
33827,1353.08,1,6,32.24000000000001,-7.79,6757,0,"SYM X"
33831,1353.24,1,6,32.230000000000004,-7.7,6758,0,"SYM X"
33835,1353.4,1,6,32.14,-7.49,6759,0,"SYM X"
33839,1353.56,1,6,32.12,-7.38,6760,0,"SYM X"
33843,1353.72,1,6,32.12,-7.18,6761,0,"SYM X"
33847,1353.88,1,6,32.160000000000004,-6.86,6762,0,"SYM X"
33851,1354.04,1,6,32.24000000000001,-6.38,6763,0,"SYM X"
33855,1354.2,1,6,32.410000000000004,-5.69,6764,0,"SYM X"
33859,1354.36,1,6,32.63000000000001,-4.75,6765,0,"SYM X"
33863,1354.52,1,6,32.92000000000001,-3.51,6766,0,"SYM X"
33867,1354.68,1,6,33.050000000000004,-2.68,6767,0,"SYM X"
33871,1354.84,1,6,32.77,-2.5,6768,0,"SYM X"
33875,1355,1,6,32.50000000000001,-2.32,6769,0,"SYM X"
33879,1355.16,1,6,32.24000000000001,-2.14,6770,0,"SYM X"
33887,1355.48,1,6,31.740000000000006,-1.78,6772,0,"SYM X"
33891,1355.64,1,6,31.490000000000006,-1.59,6773,0,"SYM X"
33895,1355.8,1,6,31.240000000000006,-1.41,6774,0,"SYM X"
33903,1356.12,1,6,30.740000000000002,-1.05,6776,0,"SYM X"
33907,1356.28,1,6,30.500000000000004,-0.88,6777,0,"SYM X"
33911,1356.44,1,6,30.27,-0.7,6778,0,"SYM X"
33915,1356.6,1,6,30.020000000000007,-0.52,6779,0,"SYM X"
33919,1356.76,1,6,29.950000000000003,-0.34,6780,0,"SYM X"
33923,1356.92,1,6,29.92000000000001,-0.16,6781,0,"SYM X"
33927,1357.08,1,6,29.930000000000003,0.02,6782,0,"SYM X"
33931,1357.24,1,6,29.950000000000003,0.2,6783,0,"SYM X"
33935,1357.4,1,6,29.950000000000003,0.38,6784,0,"SYM X"
33939,1357.56,1,6,29.930000000000003,0.57,6785,0,"SYM X"
33943,1357.72,1,6,29.92000000000001,0.75,6786,0,"SYM X"
33947,1357.88,1,6,29.950000000000003,0.93,6787,0,"SYM X"
33951,1358.04,1,6,29.930000000000003,1.11,6788,0,"SYM X"
33955,1358.2,1,6,29.950000000000003,1.29,6789,0,"SYM X"
33963,1358.52,1,6,29.950000000000003,1.66,6791,0,"SYM X"
33967,1358.68,1,6,29.92000000000001,1.84,6792,0,"SYM X"
33971,1358.84,1,6,29.91,2.02,6793,0,"SYM X"
33975,1359,1,6,29.880000000000003,2.2,6794,0,"SYM X"
33979,1359.16,1,6,29.84,2.38,6795,0,"SYM X"
33983,1359.32,1,6,29.810000000000002,2.55,6796,0,"SYM X"
33987,1359.48,1,6,29.750000000000004,2.73,6797,0,"SYM X"
33991,1359.64,1,6,29.700000000000003,2.91,6798,0,"SYM X"
33999,1359.96,1,6,29.560000000000002,3.27,6800,0,"SYM X"
34003,1360.12,1,6,29.49000000000001,3.45,6801,0,"SYM X"
34007,1360.28,1,6,29.390000000000004,3.63,6802,0,"SYM X"
34011,1360.44,1,6,29.310000000000002,3.81,6803,0,"SYM X"
34019,1360.76,1,6,29.090000000000003,4.17,6805,0,"SYM X"
34023,1360.92,1,6,28.98,4.35,6806,0,"SYM X"
34027,1361.08,1,6,28.840000000000003,4.53,6807,0,"SYM X"
34031,1361.24,1,6,28.710000000000004,4.71,6808,0,"SYM X"
34035,1361.4,1,6,28.570000000000004,4.89,6809,0,"SYM X"
34043,1361.72,1,6,28.270000000000003,5.25,6811,0,"SYM X"
34051,1362.04,1,6,27.93,5.61,6813,0,"SYM X"
34055,1362.2,1,6,27.770000000000003,5.79,6814,0,"SYM X"
34059,1362.36,1,6,27.57,5.97,6815,0,"SYM X"
34063,1362.52,1,6,27.380000000000006,6.16,6816,0,"SYM X"
34071,1362.84,1,6,26.980000000000004,6.52,6818,0,"SYM X"
34075,1363,1,6,26.750000000000007,6.7,6819,0,"SYM X"
34083,1363.32,1,6,26.31,7.06,6821,0,"SYM X"
34087,1363.48,1,6,26.060000000000006,7.24,6822,0,"SYM X"
34091,1363.64,1,6,25.990000000000002,7.39,6823,0,"SYM X"
34095,1363.8,1,6,25.960000000000008,7.59,6824,0,"SYM X"
34099,1363.96,1,6,25.89,7.81,6825,0,"SYM X"
34103,1364.12,1,6,25.800000000000008,8.09,6826,0,"SYM X"
34111,1364.44,1,6,25.560000000000002,8.67,6828,0,"SYM X"
34115,1364.6,1,6,25.410000000000004,8.98,6829,0,"SYM X"
34119,1364.76,1,6,25.23000000000001,9.36,6830,0,"SYM X"
34123,1364.92,1,6,25.130000000000003,9.64,6831,0,"SYM X"
34127,1365.08,1,6,25.050000000000004,9.85,6832,0,"SYM X"
34131,1365.24,1,6,24.96,10.02,6833,0,"SYM X"
34135,1365.4,1,6,24.880000000000003,10.16,6834,0,"SYM X"
34139,1365.56,1,6,24.80000000000001,10.28,6835,0,"SYM X"
34143,1365.72,1,6,24.740000000000002,10.38,6836,0,"SYM X"
34147,1365.88,1,6,24.700000000000003,10.46,6837,0,"SYM X"
34151,1366.04,1,6,24.630000000000003,10.55,6838,0,"SYM X"
34155,1366.2,1,6,24.6,10.64,6839,0,"SYM X"
34159,1366.36,1,6,24.590000000000003,10.73,6840,0,"SYM X"
34163,1366.52,1,6,24.560000000000006,10.85,6841,0,"SYM X"
34167,1366.68,1,6,24.550000000000004,11,6842,0,"SYM X"
34171,1366.84,1,6,24.53,11.16,6843,0,"SYM X"
34175,1367,1,6,24.53,11.32,6844,0,"SYM X"
34179,1367.16,1,6,24.550000000000004,11.49,6845,0,"SYM X"
34183,1367.32,1,6,24.53,11.63,6846,0,"SYM X"
34187,1367.48,1,6,24.550000000000004,11.78,6847,0,"SYM X"
34191,1367.64,1,6,24.52000000000001,11.97,6848,0,"SYM X"
34195,1367.8,1,6,24.500000000000004,12.18,6849,0,"SYM X"
34199,1367.96,1,6,24.550000000000004,12.32,6850,0,"SYM X"
34203,1368.12,1,6,24.6,12.52,6851,0,"SYM X"
34207,1368.28,1,6,24.680000000000007,12.77,6852,0,"SYM X"
34211,1368.44,1,6,24.779999999999998,13.03,6853,0,"SYM X"
34215,1368.6,1,6,24.910000000000004,13.34,6854,0,"SYM X"
34219,1368.76,1,6,25.060000000000002,13.68,6855,0,"SYM X"
34223,1368.92,1,6,25.209999999999997,14.04,6856,0,"SYM X"
34227,1369.08,1,6,25.390000000000008,14.36,6857,0,"SYM X"
34231,1369.24,1,6,25.570000000000004,14.64,6858,0,"SYM X"
34235,1369.4,1,6,25.740000000000002,14.88,6859,0,"SYM X"
34239,1369.56,1,6,25.910000000000004,15.06,6860,0,"SYM X"
34243,1369.72,1,6,26.060000000000006,15.21,6861,0,"SYM X"
34247,1369.88,1,6,26.17,15.35,6862,0,"SYM X"
34251,1370.04,1,6,26.250000000000007,15.41,6863,0,"SYM X"
34255,1370.2,1,6,26.340000000000003,15.38,6864,0,"SYM X"
34259,1370.36,1,6,26.410000000000004,15.38,6865,0,"SYM X"
34263,1370.52,1,6,26.45,15.36,6866,0,"SYM X"
34267,1370.68,1,6,26.46,15.29,6867,0,"SYM X"
34271,1370.84,1,6,26.480000000000004,15.21,6868,0,"SYM X"
34275,1371,1,6,26.490000000000006,15.13,6869,0,"SYM X"
34279,1371.16,1,6,26.490000000000006,15.02,6870,0,"SYM X"
34283,1371.32,1,6,26.52000000000001,14.91,6871,0,"SYM X"
34287,1371.48,1,6,26.560000000000006,14.79,6872,0,"SYM X"
34291,1371.64,1,6,26.630000000000006,14.7,6873,0,"SYM X"
34295,1371.8,1,6,26.730000000000004,14.6,6874,0,"SYM X"
34299,1371.96,1,6,26.810000000000006,14.5,6875,0,"SYM X"
34303,1372.12,1,6,26.890000000000008,14.42,6876,0,"SYM X"
34307,1372.28,1,6,26.990000000000006,14.35,6877,0,"SYM X"
34311,1372.44,1,6,27.130000000000006,14.27,6878,0,"SYM X"
34315,1372.6,1,6,27.31,14.11,6879,0,"SYM X"
34319,1372.76,1,6,27.56,13.89,6880,0,"SYM X"
34323,1372.92,1,6,27.87,13.63,6881,0,"SYM X"
34327,1373.08,1,6,28.24000000000001,13.3,6882,0,"SYM X"
34331,1373.24,1,6,28.700000000000003,12.92,6883,0,"SYM X"
34335,1373.4,1,6,29.200000000000003,12.52,6884,0,"SYM X"
34339,1373.56,1,6,29.770000000000007,12.11,6885,0,"SYM X"
34343,1373.72,1,6,30.380000000000003,11.7,6886,0,"SYM X"
34347,1373.88,1,6,30.980000000000004,11.31,6887,0,"SYM X"
34351,1374.04,1,6,31.570000000000007,10.92,6888,0,"SYM X"
34355,1374.2,1,6,32.14,10.48,6889,0,"SYM X"
34359,1374.36,1,6,32.660000000000004,10.09,6890,0,"SYM X"
34363,1374.52,1,6,33.09,9.74,6891,0,"SYM X"
34367,1374.68,1,6,33.49000000000001,9.38,6892,0,"SYM X"
34371,1374.84,1,6,33.88,8.89,6893,0,"SYM X"
34375,1375,1,6,34.21000000000001,8.47,6894,0,"SYM X"
34379,1375.16,1,6,34.5,8.06,6895,0,"SYM X"
34383,1375.32,1,6,34.77,7.66,6896,0,"SYM X"
34387,1375.48,1,6,35.019999999999996,7.29,6897,0,"SYM X"
34391,1375.64,1,6,35.24,7.02,6898,0,"SYM X"
34395,1375.8,1,6,35.43000000000001,6.78,6899,0,"SYM X"
34399,1375.96,1,6,35.59,6.59,6900,0,"SYM X"
34403,1376.12,1,6,35.7,6.47,6901,0,"SYM X"
34407,1376.28,1,6,35.800000000000004,6.34,6902,0,"SYM X"
34411,1376.44,1,6,35.879999999999995,6.24,6903,0,"SYM X"
34415,1376.6,1,6,35.980000000000004,6.16,6904,0,"SYM X"
34419,1376.76,1,6,36.120000000000005,6,6905,0,"SYM X"
34423,1376.92,1,6,36.309999999999995,5.73,6906,0,"SYM X"
34427,1377.08,1,6,36.550000000000004,5.38,6907,0,"SYM X"
34431,1377.24,1,6,36.82000000000001,5.02,6908,0,"SYM X"
34435,1377.4,1,6,37.160000000000004,4.61,6909,0,"SYM X"
34439,1377.56,1,6,37.550000000000004,4.23,6910,0,"SYM X"
34443,1377.72,1,6,37.95,3.91,6911,0,"SYM X"
34447,1377.88,1,6,38.410000000000004,3.61,6912,0,"SYM X"
34451,1378.04,1,6,38.88,3.34,6913,0,"SYM X"
34455,1378.2,1,6,39.34,3.1,6914,0,"SYM X"
34459,1378.36,1,6,39.75,3,6915,0,"SYM X"
34463,1378.52,1,6,40.16000000000001,2.88,6916,0,"SYM X"
34467,1378.68,1,6,40.59000000000001,2.68,6917,0,"SYM X"
34471,1378.84,1,6,41.03,2.47,6918,0,"SYM X"
34475,1379,1,6,41.480000000000004,2.17,6919,0,"SYM X"
34479,1379.16,1,6,41.89,1.74,6920,0,"SYM X"
34483,1379.32,1,6,42.34,1.18,6921,0,"SYM X"
34487,1379.48,1,6,42.74000000000001,0.57,6922,0,"SYM X"
34491,1379.64,1,6,43.120000000000005,-0.05,6923,0,"SYM X"
34495,1379.8,1,6,43.45,-0.55,6924,0,"SYM X"
