frame,time,team_id,player_id,x,y,id,fragment,type
14708,588.32,1,18,-22.159999999999993,-8.719999999999997,1977,0,"ROT 180"
14712,588.48,1,18,-21.93999999999999,-8.019999999999998,1978,0,"ROT 180"
14716,588.64,1,18,-21.679999999999993,-7.189999999999998,1979,0,"ROT 180"
14720,588.8,1,18,-21.399999999999995,-6.329999999999997,1980,0,"ROT 180"
14724,588.96,1,18,-21.149999999999995,-5.399999999999998,1981,0,"ROT 180"
14728,589.12,1,18,-20.899999999999995,-4.539999999999997,1982,0,"ROT 180"
14732,589.28,1,18,-20.659999999999997,-3.6299999999999977,1983,0,"ROT 180"
14736,589.44,1,18,-20.439999999999994,-2.7899999999999974,1984,0,"ROT 180"
14740,589.6,1,18,-20.189999999999994,-1.8999999999999975,1985,0,"ROT 180"
14744,589.76,1,18,-19.979999999999993,-1.0099999999999976,1986,0,"ROT 180"
14748,589.92,1,18,-19.799999999999994,-0.1199999999999975,1987,0,"ROT 180"
14752,590.08,1,18,-19.649999999999995,0.7400000000000024,1988,0,"ROT 180"
14756,590.24,1,18,-19.509999999999994,1.6400000000000023,1989,0,"ROT 180"
14760,590.4,1,18,-19.369999999999994,2.5500000000000025,1990,0,"ROT 180"
14764,590.56,1,18,-19.259999999999994,3.4300000000000024,1991,0,"ROT 180"
14768,590.72,1,18,-19.159999999999997,4.290000000000003,1992,0,"ROT 180"
14772,590.88,1,18,-19.079999999999995,5.080000000000003,1993,0,"ROT 180"
14776,591.04,1,18,-19.009999999999994,5.870000000000003,1994,0,"ROT 180"
14780,591.2,1,18,-18.939999999999994,6.620000000000003,1995,0,"ROT 180"
14784,591.36,1,18,-18.859999999999996,7.310000000000003,1996,0,"ROT 180"
14788,591.52,1,18,-18.779999999999994,7.9200000000000035,1997,0,"ROT 180"
14792,591.68,1,18,-18.689999999999994,8.470000000000004,1998,0,"ROT 180"
14796,591.84,1,18,-18.589999999999996,9.050000000000004,1999,0,"ROT 180"
14800,592,1,18,-18.499999999999996,9.540000000000003,2000,0,"ROT 180"
14804,592.16,1,18,-18.359999999999996,10.020000000000003,2001,0,"ROT 180"
14812,592.48,1,18,-18.08,10.860000000000003,2003,0,"ROT 180"
14816,592.64,1,18,-17.929999999999996,11.250000000000004,2004,0,"ROT 180"
14820,592.8,1,18,-17.759999999999998,11.590000000000003,2005,0,"ROT 180"
14824,592.96,1,18,-17.549999999999997,12.070000000000004,2006,0,"ROT 180"
14828,593.12,1,18,-17.33,12.480000000000004,2007,0,"ROT 180"
14832,593.28,1,18,-17.08,12.980000000000004,2008,0,"ROT 180"
14836,593.44,1,18,-16.819999999999997,13.360000000000003,2009,0,"ROT 180"
14840,593.6,1,18,-16.509999999999998,13.780000000000003,2010,0,"ROT 180"
14844,593.76,1,18,-16.189999999999998,14.200000000000003,2011,0,"ROT 180"
14848,593.92,1,18,-15.889999999999995,14.590000000000003,2012,0,"ROT 180"
14852,594.08,1,18,-15.579999999999997,15.070000000000004,2013,0,"ROT 180"
14856,594.24,1,18,-15.299999999999995,15.470000000000002,2014,0,"ROT 180"
14860,594.4,1,18,-14.969999999999995,15.930000000000003,2015,0,"ROT 180"
14864,594.56,1,18,-14.709999999999996,16.310000000000002,2016,0,"ROT 180"
14868,594.72,1,18,-14.509999999999996,16.650000000000002,2017,0,"ROT 180"
14872,594.88,1,18,-14.369999999999996,16.970000000000002,2018,0,"ROT 180"
14876,595.04,1,18,-14.259999999999996,17.300000000000004,2019,0,"ROT 180"
14880,595.2,1,18,-14.149999999999997,17.720000000000002,2020,0,"ROT 180"
14884,595.36,1,18,-14.079999999999997,18.010000000000005,2021,0,"ROT 180"
14888,595.52,1,18,-13.959999999999996,18.360000000000003,2022,0,"ROT 180"
14892,595.68,1,18,-13.889999999999995,18.550000000000004,2023,0,"ROT 180"
14896,595.84,1,18,-13.719999999999995,18.810000000000002,2024,0,"ROT 180"
14900,596,1,18,-13.549999999999995,19.050000000000004,2025,0,"ROT 180"
14904,596.16,1,18,-13.369999999999996,19.200000000000003,2026,0,"ROT 180"
14908,596.32,1,18,-13.189999999999996,19.330000000000002,2027,0,"ROT 180"
14912,596.48,1,18,-12.899999999999997,19.530000000000005,2028,0,"ROT 180"
14916,596.64,1,18,-12.569999999999997,19.740000000000002,2029,0,"ROT 180"
14920,596.8,1,18,-12.219999999999995,19.980000000000004,2030,0,"ROT 180"
14924,596.96,1,18,-11.839999999999996,20.240000000000002,2031,0,"ROT 180"
14928,597.12,1,18,-11.459999999999996,20.550000000000004,2032,0,"ROT 180"
14932,597.28,1,18,-11.069999999999997,20.890000000000004,2033,0,"ROT 180"
14936,597.44,1,18,-10.659999999999997,21.310000000000002,2034,0,"ROT 180"
14940,597.6,1,18,-10.579999999999998,21.460000000000004,2035,0,"ROT 180"
14944,597.76,1,18,-10.469999999999995,21.620000000000005,2036,0,"ROT 180"
14948,597.92,1,18,-10.329999999999998,21.780000000000005,2037,0,"ROT 180"
14952,598.08,1,18,-10.149999999999999,21.940000000000005,2038,0,"ROT 180"
14956,598.24,1,18,-9.939999999999998,22.090000000000003,2039,0,"ROT 180"
14960,598.4,1,18,-9.709999999999997,22.250000000000004,2040,0,"ROT 180"
14964,598.56,1,18,-9.439999999999998,22.410000000000004,2041,0,"ROT 180"
14968,598.72,1,18,-9.139999999999997,22.570000000000004,2042,0,"ROT 180"
14972,598.88,1,18,-8.799999999999997,22.720000000000002,2043,0,"ROT 180"
14976,599.04,1,18,-8.439999999999998,22.880000000000003,2044,0,"ROT 180"
14980,599.2,1,18,-8.049999999999997,23.040000000000003,2045,0,"ROT 180"
14984,599.36,1,18,-7.639999999999996,23.190000000000005,2046,0,"ROT 180"
14988,599.52,1,18,-7.189999999999997,23.350000000000005,2047,0,"ROT 180"
14992,599.68,1,18,-6.909999999999996,23.380000000000003,2048,0,"ROT 180"
14996,599.84,1,18,-7.279999999999997,23.020000000000003,2049,0,"ROT 180"
15000,600,1,18,-7.6099999999999985,22.67,2050,0,"ROT 180"
15004,600.16,1,18,-7.899999999999998,22.310000000000002,2051,0,"ROT 180"
15008,600.32,1,18,-8.149999999999999,21.950000000000003,2052,0,"ROT 180"
15012,600.48,1,18,-8.389999999999997,21.590000000000003,2053,0,"ROT 180"
15016,600.64,1,18,-8.439999999999998,21.240000000000002,2054,0,"ROT 180"
15020,600.8,1,18,-8.069999999999997,20.880000000000003,2055,0,"ROT 180"
15024,600.96,1,18,-7.689999999999997,20.520000000000003,2056,0,"ROT 180"
15028,601.12,1,18,-7.299999999999996,20.160000000000004,2057,0,"ROT 180"
15032,601.28,1,18,-6.909999999999996,19.810000000000002,2058,0,"ROT 180"
15036,601.44,1,18,-6.549999999999996,19.450000000000003,2059,0,"ROT 180"
15040,601.6,1,18,-6.219999999999998,19.090000000000003,2060,0,"ROT 180"
15044,601.76,1,18,-5.939999999999997,18.730000000000004,2061,0,"ROT 180"
15048,601.92,1,18,-5.719999999999998,18.370000000000005,2062,0,"ROT 180"
15052,602.08,1,18,-5.569999999999996,18.020000000000003,2063,0,"ROT 180"
15056,602.24,1,18,-5.469999999999998,17.660000000000004,2064,0,"ROT 180"
15060,602.4,1,18,-5.409999999999995,17.300000000000004,2065,0,"ROT 180"
15064,602.56,1,18,-5.429999999999994,16.940000000000005,2066,0,"ROT 180"
15068,602.72,1,18,-5.499999999999995,16.590000000000003,2067,0,"ROT 180"
15072,602.88,1,18,-5.619999999999996,16.230000000000004,2068,0,"ROT 180"
15076,603.04,1,18,-5.789999999999997,15.870000000000005,2069,0,"ROT 180"
15080,603.2,1,18,-6.029999999999996,15.510000000000005,2070,0,"ROT 180"
15084,603.36,1,18,-6.319999999999995,15.160000000000004,2071,0,"ROT 180"
15088,603.52,1,18,-6.649999999999997,14.800000000000004,2072,0,"ROT 180"
15092,603.68,1,18,-6.509999999999996,14.480000000000004,2073,0,"ROT 180"
15096,603.84,1,18,-6.189999999999996,14.100000000000003,2074,0,"ROT 180"
15100,604,1,18,-5.859999999999998,13.650000000000004,2075,0,"ROT 180"
15104,604.16,1,18,-5.509999999999996,13.170000000000003,2076,0,"ROT 180"
15108,604.32,1,18,-5.159999999999995,12.650000000000004,2077,0,"ROT 180"
15112,604.48,1,18,-4.799999999999995,12.110000000000005,2078,0,"ROT 180"
15116,604.64,1,18,-4.399999999999997,11.580000000000005,2079,0,"ROT 180"
15120,604.8,1,18,-3.8399999999999945,10.950000000000005,2080,0,"ROT 180"
15124,604.96,1,18,-3.3399999999999945,10.540000000000004,2081,0,"ROT 180"
15128,605.12,1,18,-2.819999999999995,10.120000000000005,2082,0,"ROT 180"
15132,605.28,1,18,-2.219999999999997,9.800000000000006,2083,0,"ROT 180"
15136,605.44,1,18,-1.6499999999999968,9.450000000000005,2084,0,"ROT 180"
15140,605.6,1,18,-0.9999999999999947,9.230000000000006,2085,0,"ROT 180"
15144,605.76,1,18,-0.28999999999999737,9.110000000000005,2086,0,"ROT 180"
15148,605.92,1,18,0.24000000000000377,8.960000000000004,2087,0,"ROT 180"
15152,606.08,1,18,0.9500000000000046,8.780000000000005,2088,0,"ROT 180"
15156,606.24,1,18,1.650000000000004,8.550000000000006,2089,0,"ROT 180"
15160,606.4,1,18,2.350000000000003,8.250000000000005,2090,0,"ROT 180"
15164,606.56,1,18,2.9900000000000038,7.850000000000005,2091,0,"ROT 180"
15168,606.72,1,18,3.6100000000000048,7.320000000000006,2092,0,"ROT 180"
15172,606.88,1,18,4.190000000000005,6.640000000000005,2093,0,"ROT 180"
15176,607.04,1,18,4.690000000000005,5.790000000000005,2094,0,"ROT 180"
15180,607.2,1,18,5.080000000000005,5.140000000000005,2095,0,"ROT 180"
15184,607.36,1,18,5.450000000000006,4.4900000000000055,2096,0,"ROT 180"
15188,607.52,1,18,5.830000000000005,3.850000000000005,2097,0,"ROT 180"
15192,607.68,1,18,6.300000000000004,3.360000000000005,2098,0,"ROT 180"
15200,608,1,18,7.810000000000002,3.3600000000000056,2100,0,"ROT 180"
15204,608.16,1,18,8.560000000000002,3.3700000000000063,2101,0,"ROT 180"
15212,608.48,1,18,10.060000000000002,3.3700000000000063,2103,0,"ROT 180"
15216,608.64,1,18,10.370000000000005,3.2900000000000063,2104,0,"ROT 180"
15220,608.8,1,18,10.670000000000009,3.350000000000006,2105,0,"ROT 180"
15224,608.96,1,18,10.950000000000003,3.5300000000000065,2106,0,"ROT 180"
15228,609.12,1,18,11.210000000000008,3.810000000000006,2107,0,"ROT 180"
15232,609.28,1,18,11.480000000000004,4.180000000000006,2108,0,"ROT 180"
15236,609.44,1,18,11.710000000000008,4.620000000000006,2109,0,"ROT 180"
15240,609.6,1,18,11.950000000000003,5.120000000000006,2110,0,"ROT 180"
15244,609.76,1,18,12.240000000000009,5.7800000000000065,2111,0,"ROT 180"
15248,609.92,1,18,12.480000000000004,6.3200000000000065,2112,0,"ROT 180"
15252,610.08,1,18,12.780000000000008,6.930000000000006,2113,0,"ROT 180"
15256,610.24,1,18,13.060000000000002,7.440000000000007,2114,0,"ROT 180"
15260,610.4,1,18,13.310000000000002,7.9000000000000075,2115,0,"ROT 180"
15264,610.56,1,18,13.530000000000008,8.380000000000006,2116,0,"ROT 180"
15268,610.72,1,18,13.760000000000005,8.880000000000006,2117,0,"ROT 180"
15272,610.88,1,18,13.850000000000009,9.300000000000008,2118,0,"ROT 180"
15276,611.04,1,18,13.880000000000003,9.690000000000007,2119,0,"ROT 180"
15280,611.2,1,18,13.870000000000005,10.040000000000006,2120,0,"ROT 180"
15284,611.36,1,18,13.820000000000007,10.320000000000007,2121,0,"ROT 180"
15288,611.52,1,18,13.780000000000008,10.550000000000008,2122,0,"ROT 180"
15292,611.68,1,18,13.710000000000008,10.710000000000006,2123,0,"ROT 180"
15296,611.84,1,18,13.630000000000003,10.790000000000006,2124,0,"ROT 180"
15300,612,1,18,13.590000000000003,10.830000000000007,2125,0,"ROT 180"
15304,612.16,1,18,13.590000000000003,10.810000000000008,2126,0,"ROT 180"
15308,612.32,1,18,13.620000000000005,10.720000000000008,2127,0,"ROT 180"
15312,612.48,1,18,13.650000000000006,10.500000000000007,2128,0,"ROT 180"
15316,612.64,1,18,13.670000000000009,10.200000000000006,2129,0,"ROT 180"
15320,612.8,1,18,13.680000000000007,9.920000000000007,2130,0,"ROT 180"
15324,612.96,1,18,13.670000000000009,9.590000000000007,2131,0,"ROT 180"
15328,613.12,1,18,13.540000000000006,9.180000000000007,2132,0,"ROT 180"
15336,613.44,1,18,13.260000000000005,8.420000000000007,2134,0,"ROT 180"
15340,613.6,1,18,13.090000000000003,8.010000000000007,2135,0,"ROT 180"
15344,613.76,1,18,12.900000000000006,7.640000000000008,2136,0,"ROT 180"
15348,613.92,1,18,12.710000000000008,7.280000000000006,2137,0,"ROT 180"
15352,614.08,1,18,12.490000000000009,6.940000000000006,2138,0,"ROT 180"
15356,614.24,1,18,12.290000000000006,6.630000000000006,2139,0,"ROT 180"
15360,614.4,1,18,12.120000000000005,6.3200000000000065,2140,0,"ROT 180"
15364,614.56,1,18,11.950000000000003,5.970000000000006,2141,0,"ROT 180"
15368,614.72,1,18,11.780000000000008,5.5700000000000065,2142,0,"ROT 180"
15372,614.88,1,18,11.620000000000005,5.160000000000006,2143,0,"ROT 180"
15376,615.04,1,18,11.460000000000008,4.730000000000006,2144,0,"ROT 180"
15380,615.2,1,18,11.340000000000003,4.340000000000006,2145,0,"ROT 180"
15384,615.36,1,18,11.200000000000003,3.930000000000006,2146,0,"ROT 180"
15388,615.52,1,18,11.070000000000007,3.5300000000000065,2147,0,"ROT 180"
15392,615.68,1,18,10.950000000000003,3.140000000000006,2148,0,"ROT 180"
15396,615.84,1,18,10.780000000000008,2.740000000000006,2149,0,"ROT 180"
15400,616,1,18,10.620000000000005,2.360000000000006,2150,0,"ROT 180"
15404,616.16,1,18,10.400000000000006,1.9800000000000062,2151,0,"ROT 180"
15408,616.32,1,18,10.170000000000009,1.640000000000006,2152,0,"ROT 180"
15412,616.48,1,18,9.890000000000008,1.2700000000000062,2153,0,"ROT 180"
15416,616.64,1,18,9.560000000000002,0.8200000000000061,2154,0,"ROT 180"
15420,616.8,1,18,9.180000000000007,0.32000000000000606,2155,0,"ROT 180"
15424,616.96,1,18,8.810000000000002,-0.19999999999999402,2156,0,"ROT 180"
15428,617.12,1,18,8.430000000000007,-0.769999999999994,2157,0,"ROT 180"
15432,617.28,1,18,8.100000000000009,-1.359999999999994,2158,0,"ROT 180"
15436,617.44,1,18,7.810000000000002,-1.9299999999999942,2159,0,"ROT 180"
15440,617.6,1,18,7.530000000000008,-2.5199999999999942,2160,0,"ROT 180"
15444,617.76,1,18,7.280000000000005,-3.129999999999994,2161,0,"ROT 180"
15448,617.92,1,18,7.030000000000005,-3.729999999999994,2162,0,"ROT 180"
15452,618.08,1,18,6.760000000000005,-4.359999999999994,2163,0,"ROT 180"
15456,618.24,1,18,6.510000000000005,-4.949999999999994,2164,0,"ROT 180"
15460,618.4,1,18,6.220000000000006,-5.549999999999994,2165,0,"ROT 180"
15464,618.56,1,18,5.900000000000006,-6.229999999999994,2166,0,"ROT 180"
15468,618.72,1,18,5.510000000000005,-6.929999999999994,2167,0,"ROT 180"
15472,618.88,1,18,5.140000000000004,-7.499999999999995,2168,0,"ROT 180"
15476,619.04,1,18,4.800000000000004,-7.979999999999995,2169,0,"ROT 180"
15480,619.2,1,18,4.540000000000006,-8.379999999999995,2170,0,"ROT 180"
15484,619.36,1,18,4.150000000000006,-8.909999999999995,2171,0,"ROT 180"
15488,619.52,1,18,3.6900000000000066,-9.449999999999994,2172,0,"ROT 180"
15492,619.68,1,18,3.1500000000000075,-10.009999999999994,2173,0,"ROT 180"
15496,619.84,1,18,2.4900000000000073,-10.609999999999994,2174,0,"ROT 180"
15500,620,1,18,1.7100000000000062,-11.249999999999995,2175,0,"ROT 180"
15504,620.16,1,18,0.790000000000008,-11.949999999999994,2176,0,"ROT 180"
15508,620.32,1,18,-0.29999999999999183,-12.709999999999996,2177,0,"ROT 180"
15512,620.48,1,18,-0.7599999999999927,-12.869999999999996,2178,0,"ROT 180"
15516,620.64,1,18,-1.209999999999992,-13.039999999999996,2179,0,"ROT 180"
15520,620.8,1,18,-1.6499999999999932,-13.189999999999994,2180,0,"ROT 180"
15524,620.96,1,18,-2.089999999999991,-13.359999999999994,2181,0,"ROT 180"
15528,621.12,1,18,-2.549999999999992,-13.509999999999994,2182,0,"ROT 180"
15532,621.28,1,18,-2.999999999999991,-13.679999999999994,2183,0,"ROT 180"
15536,621.44,1,18,-3.4399999999999924,-13.829999999999995,2184,0,"ROT 180"
15540,621.6,1,18,-3.8999999999999932,-13.999999999999995,2185,0,"ROT 180"
15544,621.76,1,18,-4.339999999999991,-14.149999999999995,2186,0,"ROT 180"
15548,621.92,1,18,-4.789999999999994,-14.319999999999995,2187,0,"ROT 180"
15552,622.08,1,18,-5.2299999999999915,-14.479999999999997,2188,0,"ROT 180"
15556,622.24,1,18,-5.689999999999992,-14.639999999999997,2189,0,"ROT 180"
15560,622.4,1,18,-6.139999999999992,-14.799999999999997,2190,0,"ROT 180"
15564,622.56,1,18,-6.579999999999993,-14.959999999999997,2191,0,"ROT 180"
15568,622.72,1,18,-7.039999999999994,-15.119999999999997,2192,0,"ROT 180"
15572,622.88,1,18,-7.4799999999999915,-15.289999999999997,2193,0,"ROT 180"
15576,623.04,1,18,-7.929999999999991,-15.439999999999996,2194,0,"ROT 180"
15580,623.2,1,18,-8.369999999999992,-15.609999999999996,2195,0,"ROT 180"
15584,623.36,1,18,-8.829999999999993,-15.759999999999996,2196,0,"ROT 180"
15588,623.52,1,18,-9.279999999999992,-15.929999999999996,2197,0,"ROT 180"
15592,623.68,1,18,-9.719999999999992,-16.08,2198,0,"ROT 180"
15596,623.84,1,18,-10.179999999999993,-16.249999999999996,2199,0,"ROT 180"
15600,624,1,18,-10.619999999999992,-16.4,2200,0,"ROT 180"
15604,624.16,1,18,-11.069999999999993,-16.569999999999997,2201,0,"ROT 180"
15608,624.32,1,18,-11.509999999999993,-16.72,2202,0,"ROT 180"
15612,624.48,1,18,-11.969999999999992,-16.879999999999995,2203,0,"ROT 180"
15616,624.64,1,18,-12.409999999999993,-17.04,2204,0,"ROT 180"
15620,624.8,1,18,-12.869999999999992,-17.199999999999996,2205,0,"ROT 180"
15624,624.96,1,18,-13.319999999999993,-17.359999999999996,2206,0,"ROT 180"
15628,625.12,1,18,-13.759999999999993,-17.519999999999996,2207,0,"ROT 180"
15632,625.28,1,18,-14.209999999999992,-17.679999999999996,2208,0,"ROT 180"
15636,625.44,1,18,-14.649999999999993,-17.859999999999996,2209,0,"ROT 180"
15640,625.6,1,18,-15.109999999999992,-18.009999999999998,2210,0,"ROT 180"
15644,625.76,1,18,-15.549999999999992,-18.179999999999996,2211,0,"ROT 180"
15648,625.92,1,18,-16.00999999999999,-18.33,2212,0,"ROT 180"
15652,626.08,1,18,-16.43999999999999,-18.499999999999996,2213,0,"ROT 180"
15656,626.24,1,18,-16.89999999999999,-18.649999999999995,2214,0,"ROT 180"
15660,626.4,1,18,-17.339999999999993,-18.819999999999997,2215,0,"ROT 180"
15664,626.56,1,18,-17.79999999999999,-18.969999999999995,2216,0,"ROT 180"
15668,626.72,1,18,-18.249999999999993,-19.129999999999995,2217,0,"ROT 180"
15672,626.88,1,18,-18.68999999999999,-19.289999999999996,2218,0,"ROT 180"
15676,627.04,1,18,-19.14999999999999,-19.449999999999996,2219,0,"ROT 180"
15680,627.2,1,18,-19.57999999999999,-19.609999999999996,2220,0,"ROT 180"
15684,627.36,1,18,-20.039999999999992,-19.769999999999996,2221,0,"ROT 180"
15688,627.52,1,18,-20.47999999999999,-19.929999999999996,2222,0,"ROT 180"
15692,627.68,1,18,-20.93999999999999,-20.089999999999996,2223,0,"ROT 180"
15696,627.84,1,18,-21.389999999999993,-20.249999999999996,2224,0,"ROT 180"
15700,628,1,18,-21.82999999999999,-20.409999999999997,2225,0,"ROT 180"
15704,628.16,1,18,-22.279999999999994,-20.569999999999997,2226,0,"ROT 180"
15708,628.32,1,18,-22.71999999999999,-20.729999999999997,2227,0,"ROT 180"
15712,628.48,1,18,-23.179999999999993,-20.889999999999997,2228,0,"ROT 180"
15716,628.64,1,18,-23.61999999999999,-21.049999999999997,2229,0,"ROT 180"
15720,628.8,1,18,-24.07999999999999,-21.219999999999995,2230,0,"ROT 180"
15728,629.12,1,18,-24.979999999999993,-21.539999999999996,2232,0,"ROT 180"
15732,629.28,1,18,-25.409999999999993,-21.699999999999996,2233,0,"ROT 180"
15736,629.44,1,18,-25.86999999999999,-21.859999999999996,2234,0,"ROT 180"
15740,629.6,1,18,-26.319999999999993,-22.019999999999996,2235,0,"ROT 180"
15744,629.76,1,18,-26.75999999999999,-22.179999999999996,2236,0,"ROT 180"
15748,629.92,1,18,-27.21999999999999,-22.34,2237,0,"ROT 180"
15752,630.08,1,18,-27.65999999999999,-22.5,2238,0,"ROT 180"
15756,630.24,1,18,-28.109999999999992,-22.66,2239,0,"ROT 180"
15760,630.4,1,18,-28.54999999999999,-22.82,2240,0,"ROT 180"
15764,630.56,1,18,-29.00999999999999,-22.98,2241,0,"ROT 180"
15768,630.72,1,18,-29.45999999999999,-23.14,2242,0,"ROT 180"
15772,630.88,1,18,-29.89999999999999,-23.3,2243,0,"ROT 180"
15776,631.04,1,18,-30.35999999999999,-23.46,2244,0,"ROT 180"
15780,631.2,1,18,-30.79999999999999,-23.62,2245,0,"ROT 180"
15784,631.36,1,18,-31.24999999999999,-23.79,2246,0,"ROT 180"
15788,631.52,1,18,-31.699999999999992,-23.94,2247,0,"ROT 180"
15792,631.68,1,18,-32.139999999999986,-24.11,2248,0,"ROT 180"
15796,631.84,1,18,-32.58999999999999,-24.26,2249,0,"ROT 180"
15800,632,1,18,-33.04999999999999,-24.43,2250,0,"ROT 180"
15804,632.16,1,18,-33.18999999999999,-24.51,2251,0,"ROT 180"
15808,632.32,1,18,-33.249999999999986,-24.54,2252,0,"ROT 180"
15812,632.48,1,18,-33.359999999999985,-24.5,2253,0,"ROT 180"
15816,632.64,1,18,-33.499999999999986,-24.41,2254,0,"ROT 180"
15820,632.8,1,18,-33.66999999999999,-24.29,2255,0,"ROT 180"
15824,632.96,1,18,-33.859999999999985,-24.13,2256,0,"ROT 180"
15828,633.12,1,18,-34.05999999999999,-23.94,2257,0,"ROT 180"
15832,633.28,1,18,-34.33999999999999,-23.68,2258,0,"ROT 180"
15836,633.44,1,18,-34.55999999999999,-23.45,2259,0,"ROT 180"
15840,633.6,1,18,-34.79999999999999,-23.21,2260,0,"ROT 180"
15844,633.76,1,18,-35.00999999999999,-22.94,2261,0,"ROT 180"
15848,633.92,1,18,-35.249999999999986,-22.7,2262,0,"ROT 180"
15852,634.08,1,18,-35.469999999999985,-22.45,2263,0,"ROT 180"
15856,634.24,1,18,-35.64999999999999,-22.18,2264,0,"ROT 180"
15860,634.4,1,18,-35.82999999999999,-21.95,2265,0,"ROT 180"
15864,634.56,1,18,-35.94999999999999,-21.71,2266,0,"ROT 180"
15868,634.72,1,18,-36.109999999999985,-21.43,2267,0,"ROT 180"
15872,634.88,1,18,-36.22999999999999,-21.14,2268,0,"ROT 180"
15876,635.04,1,18,-36.33999999999999,-20.87,2269,0,"ROT 180"
15880,635.2,1,18,-36.44999999999999,-20.55,2270,0,"ROT 180"
15884,635.36,1,18,-36.609999999999985,-20.25,2271,0,"ROT 180"
15888,635.52,1,18,-36.77999999999999,-19.94,2272,0,"ROT 180"
15892,635.68,1,18,-36.97999999999999,-19.63,2273,0,"ROT 180"
15896,635.84,1,18,-37.16999999999999,-19.330000000000002,2274,0,"ROT 180"
15900,636,1,18,-37.39999999999999,-19.080000000000002,2275,0,"ROT 180"
15904,636.16,1,18,-37.639999999999986,-18.830000000000002,2276,0,"ROT 180"
15908,636.32,1,18,-37.859999999999985,-18.57,2277,0,"ROT 180"
15912,636.48,1,18,-38.05999999999999,-18.34,2278,0,"ROT 180"
15916,636.64,1,18,-38.22999999999999,-18.11,2279,0,"ROT 180"
15920,636.8,1,18,-38.389999999999986,-17.87,2280,0,"ROT 180"
15924,636.96,1,18,-38.47999999999999,-17.62,2281,0,"ROT 180"
