frame,time,team_id,player_id,x,y,id,fragment,type
7469,298.76,1,2,21.89,29.67,167,0,"SYM X"
7473,298.92,1,2,21.480000000000004,29.22,168,0,"SYM X"
7477,299.08,1,2,21.070000000000004,28.75,169,0,"SYM X"
7481,299.24,1,2,20.650000000000006,28.3,170,0,"SYM X"
7485,299.4,1,2,20.23,27.83,171,0,"SYM X"
7489,299.56,1,2,19.81,27.36,172,0,"SYM X"
7493,299.72,1,2,19.39,26.91,173,0,"SYM X"
7497,299.88,1,2,18.97,26.45,174,0,"SYM X"
7501,300.04,1,2,18.529999999999998,25.98,175,0,"SYM X"
7505,300.2,1,2,18.110000000000003,25.52,176,0,"SYM X"
7509,300.36,1,2,17.65,25.05,177,0,"SYM X"
7513,300.52,1,2,17.200000000000003,24.59,178,0,"SYM X"
7517,300.68,1,2,16.76,24.13,179,0,"SYM X"
7521,300.84,1,2,16.309999999999995,23.67,180,0,"SYM X"
7525,301,1,2,15.870000000000001,23.18,181,0,"SYM X"
7529,301.16,1,2,15.31,22.77,182,0,"SYM X"
7533,301.32,1,2,14.639999999999999,22.41,183,0,"SYM X"
7537,301.48,1,2,13.890000000000002,22.13,184,0,"SYM X"
7541,301.64,1,2,13.070000000000004,21.89,185,0,"SYM X"
7545,301.8,1,2,12.200000000000001,21.7,186,0,"SYM X"
7549,301.96,1,2,11.29,21.54,187,0,"SYM X"
7553,302.12,1,2,10.110000000000003,21.35,188,0,"SYM X"
7557,302.28,1,2,9.120000000000001,21.17,189,0,"SYM X"
7561,302.44,1,2,8.140000000000004,21,190,0,"SYM X"
7565,302.6,1,2,7.170000000000003,20.81,191,0,"SYM X"
7569,302.76,1,2,6.2,20.59,192,0,"SYM X"
7573,302.92,1,2,5.250000000000002,20.35,193,0,"SYM X"
7577,303.08,1,2,4.370000000000003,20.11,194,0,"SYM X"
7581,303.24,1,2,3.5100000000000016,19.82,195,0,"SYM X"
7585,303.4,1,2,2.7299999999999978,19.57,196,0,"SYM X"
7589,303.56,1,2,2.0000000000000013,19.29,197,0,"SYM X"
7593,303.72,1,2,1.259999999999999,18.95,198,0,"SYM X"
7597,303.88,1,2,0.5599999999999992,18.54,199,0,"SYM X"
7601,304.04,1,2,-0.11000000000000387,18.11,200,0,"SYM X"
7605,304.2,1,2,-0.7700000000000014,17.66,201,0,"SYM X"
7609,304.36,1,2,-1.3300000000000038,17.23,202,0,"SYM X"
7613,304.52,1,2,-1.8300000000000005,16.79,203,0,"SYM X"
7617,304.68,1,2,-2.2399999999999998,16.38,204,0,"SYM X"
7621,304.84,1,2,-2.55,15.99,205,0,"SYM X"
7625,305,1,2,-2.7799999999999994,15.61,206,0,"SYM X"
7629,305.16,1,2,-2.94,15.21,207,0,"SYM X"
7633,305.32,1,2,-3.02,14.85,208,0,"SYM X"
7637,305.48,1,2,-3.02,14.5,209,0,"SYM X"
7641,305.64,1,2,-2.94,14.23,210,0,"SYM X"
7645,305.8,1,2,-2.8600000000000034,13.91,211,0,"SYM X"
7649,305.96,1,2,-2.770000000000002,13.57,212,0,"SYM X"
7653,306.12,1,2,-2.709999999999996,13.27,213,0,"SYM X"
7657,306.28,1,2,-2.610000000000005,13.02,214,0,"SYM X"
7661,306.44,1,2,-2.4400000000000026,12.82,215,0,"SYM X"
7665,306.6,1,2,-2.2700000000000005,12.67,216,0,"SYM X"
7669,306.76,1,2,-2.050000000000003,12.54,217,0,"SYM X"
7673,306.92,1,2,-1.8200000000000034,12.39,218,0,"SYM X"
7677,307.08,1,2,-1.580000000000002,12.27,219,0,"SYM X"
7681,307.24,1,2,-1.3600000000000045,12.09,220,0,"SYM X"
7685,307.4,1,2,-1.1300000000000008,11.91,221,0,"SYM X"
7689,307.56,1,2,-0.9099999999999988,11.7,222,0,"SYM X"
7693,307.72,1,2,-0.6900000000000013,11.47,223,0,"SYM X"
7697,307.88,1,2,-0.4700000000000033,11.21,224,0,"SYM X"
7701,308.04,1,2,-0.30000000000000115,10.93,225,0,"SYM X"
7705,308.2,1,2,-0.12999999999999856,10.63,226,0,"SYM X"
7709,308.36,1,2,0.04000000000000359,10.32,227,0,"SYM X"
7713,308.52,1,2,0.250000000000004,10.09,228,0,"SYM X"
7717,308.68,1,2,0.5000000000000027,9.91,229,0,"SYM X"
7721,308.84,1,2,0.7500000000000009,9.8,230,0,"SYM X"
7725,309,1,2,1.0300000000000038,9.75,231,0,"SYM X"
7729,309.16,1,2,1.2800000000000025,9.75,232,0,"SYM X"
7733,309.32,1,2,1.510000000000002,9.74,233,0,"SYM X"
7737,309.48,1,2,1.7500000000000036,9.77,234,0,"SYM X"
7741,309.64,1,2,1.9799999999999986,9.81,235,0,"SYM X"
7745,309.8,1,2,2.2200000000000037,9.84,236,0,"SYM X"
7749,309.96,1,2,2.430000000000004,9.85,237,0,"SYM X"
7753,310.12,1,2,2.640000000000004,9.85,238,0,"SYM X"
7757,310.28,1,2,2.8099999999999983,9.84,239,0,"SYM X"
7765,310.6,1,2,3.090000000000001,9.72,241,0,"SYM X"
7769,310.76,1,2,3.2500000000000018,9.72,242,0,"SYM X"
7773,310.92,1,2,3.4200000000000004,9.74,243,0,"SYM X"
7777,311.08,1,2,3.5900000000000025,9.84,244,0,"SYM X"
7781,311.24,1,2,3.780000000000004,9.93,245,0,"SYM X"
7785,311.4,1,2,3.950000000000002,10.03,246,0,"SYM X"
7789,311.56,1,2,4.110000000000003,10.11,247,0,"SYM X"
7793,311.72,1,2,4.280000000000005,10.23,248,0,"SYM X"
7797,311.88,1,2,4.450000000000003,10.39,249,0,"SYM X"
7801,312.04,1,2,4.6200000000000045,10.52,250,0,"SYM X"
7805,312.2,1,2,4.810000000000002,10.66,251,0,"SYM X"
7809,312.36,1,2,4.980000000000004,10.81,252,0,"SYM X"
7813,312.52,1,2,5.170000000000002,10.93,253,0,"SYM X"
7817,312.68,1,2,5.340000000000003,11.02,254,0,"SYM X"
7821,312.84,1,2,5.510000000000002,11.09,255,0,"SYM X"
7825,313,1,2,5.720000000000003,11.16,256,0,"SYM X"
7829,313.16,1,2,5.890000000000004,11.27,257,0,"SYM X"
7833,313.32,1,2,6.070000000000004,11.35,258,0,"SYM X"
7837,313.48,1,2,6.250000000000004,11.42,259,0,"SYM X"
7841,313.64,1,2,6.420000000000002,11.46,260,0,"SYM X"
7845,313.8,1,2,6.590000000000001,11.43,261,0,"SYM X"
7849,313.96,1,2,6.750000000000002,11.47,262,0,"SYM X"
7853,314.12,1,2,6.919999999999999,11.57,263,0,"SYM X"
7857,314.28,1,2,7.090000000000002,11.61,264,0,"SYM X"
7861,314.44,1,2,7.250000000000002,11.66,265,0,"SYM X"
7865,314.6,1,2,7.400000000000002,11.66,266,0,"SYM X"
7869,314.76,1,2,7.590000000000003,11.61,267,0,"SYM X"
7873,314.92,1,2,7.780000000000005,11.54,268,0,"SYM X"
7877,315.08,1,2,7.980000000000002,11.48,269,0,"SYM X"
7881,315.24,1,2,8.17,11.41,270,0,"SYM X"
7885,315.4,1,2,8.39,11.32,271,0,"SYM X"
7889,315.56,1,2,8.59,11.2,272,0,"SYM X"
7893,315.72,1,2,8.810000000000004,11.04,273,0,"SYM X"
7897,315.88,1,2,9.030000000000005,10.84,274,0,"SYM X"
7901,316.04,1,2,9.26,10.64,275,0,"SYM X"
7905,316.2,1,2,9.480000000000002,10.52,276,0,"SYM X"
7909,316.36,1,2,9.7,10.41,277,0,"SYM X"
7913,316.52,1,2,9.920000000000002,10.23,278,0,"SYM X"
7917,316.68,1,2,10.120000000000005,10.05,279,0,"SYM X"
7921,316.84,1,2,10.310000000000002,9.85,280,0,"SYM X"
7929,317.16,1,2,10.680000000000003,9.48,282,0,"SYM X"
7933,317.32,1,2,10.860000000000001,9.29,283,0,"SYM X"
7937,317.48,1,2,11.030000000000005,9.09,284,0,"SYM X"
7941,317.64,1,2,11.180000000000003,8.91,285,0,"SYM X"
7945,317.8,1,2,11.34,8.71,286,0,"SYM X"
7949,317.96,1,2,11.5,8.52,287,0,"SYM X"
7953,318.12,1,2,11.669999999999998,8.35,288,0,"SYM X"
7957,318.28,1,2,11.81,8.2,289,0,"SYM X"
7961,318.44,1,2,11.97,8,290,0,"SYM X"
7969,318.76,1,2,12.25,7.6,292,0,"SYM X"
7973,318.92,1,2,12.390000000000002,7.39,293,0,"SYM X"
7977,319.08,1,2,12.540000000000003,7.22,294,0,"SYM X"
7981,319.24,1,2,12.700000000000001,7.06,295,0,"SYM X"
7985,319.4,1,2,12.860000000000003,6.89,296,0,"SYM X"
7989,319.56,1,2,13.030000000000005,6.73,297,0,"SYM X"
7993,319.72,1,2,13.18,6.57,298,0,"SYM X"
7997,319.88,1,2,13.370000000000001,6.43,299,0,"SYM X"
8001,320.04,1,2,13.560000000000002,6.34,300,0,"SYM X"
8005,320.2,1,2,13.780000000000005,6.27,301,0,"SYM X"
8009,320.36,1,2,14.030000000000003,6.21,302,0,"SYM X"
8013,320.52,1,2,14.280000000000001,6.09,303,0,"SYM X"
8017,320.68,1,2,14.570000000000002,5.98,304,0,"SYM X"
8021,320.84,1,2,14.840000000000002,5.85,305,0,"SYM X"
8025,321,1,2,15.090000000000003,5.67,306,0,"SYM X"
8029,321.16,1,2,15.36,5.49,307,0,"SYM X"
8033,321.32,1,2,15.669999999999998,5.39,308,0,"SYM X"
8037,321.48,1,2,15.920000000000003,5.24,309,0,"SYM X"
8041,321.64,1,2,16.14,5.06,310,0,"SYM X"
8045,321.8,1,2,16.309999999999995,4.86,311,0,"SYM X"
8049,321.96,1,2,16.450000000000003,4.64,312,0,"SYM X"
8053,322.12,1,2,16.560000000000002,4.42,313,0,"SYM X"
8057,322.28,1,2,16.650000000000002,4.24,314,0,"SYM X"
8061,322.44,1,2,16.730000000000004,4.02,315,0,"SYM X"
8065,322.6,1,2,16.810000000000002,3.75,316,0,"SYM X"
8069,322.76,1,2,16.9,3.45,317,0,"SYM X"
8077,323.08,1,2,17.119999999999997,2.89,319,0,"SYM X"
8081,323.24,1,2,17.26,2.63,320,0,"SYM X"
8085,323.4,1,2,17.430000000000003,2.41,321,0,"SYM X"
8089,323.56,1,2,17.64,2.22,322,0,"SYM X"
8093,323.72,1,2,17.840000000000003,2.04,323,0,"SYM X"
8097,323.88,1,2,18.03,1.88,324,0,"SYM X"
8101,324.04,1,2,18.200000000000003,1.73,325,0,"SYM X"
8105,324.2,1,2,18.29,1.63,326,0,"SYM X"
8109,324.36,1,2,18.389999999999997,1.53,327,0,"SYM X"
8113,324.52,1,2,18.48,1.46,328,0,"SYM X"
8117,324.68,1,2,18.57,1.42,329,0,"SYM X"
8121,324.84,1,2,18.65,1.45,330,0,"SYM X"
8125,325,1,2,18.68,1.52,331,0,"SYM X"
8133,325.32,1,2,18.68,1.81,333,0,"SYM X"
8137,325.48,1,2,18.67,1.96,334,0,"SYM X"
8141,325.64,1,2,18.619999999999997,2.06,335,0,"SYM X"
8145,325.8,1,2,18.57,2.2,336,0,"SYM X"
8149,325.96,1,2,18.529999999999998,2.34,337,0,"SYM X"
8153,326.12,1,2,18.42,2.47,338,0,"SYM X"
8157,326.28,1,2,18.310000000000002,2.59,339,0,"SYM X"
8161,326.44,1,2,18.169999999999998,2.7,340,0,"SYM X"
8165,326.6,1,2,18.06,2.82,341,0,"SYM X"
8169,326.76,1,2,17.93,2.95,342,0,"SYM X"
8173,326.92,1,2,17.840000000000003,3.09,343,0,"SYM X"
8177,327.08,1,2,17.720000000000002,3.28,344,0,"SYM X"
8181,327.24,1,2,17.590000000000003,3.47,345,0,"SYM X"
8185,327.4,1,2,17.54,3.59,346,0,"SYM X"
8189,327.56,1,2,17.509999999999998,3.66,347,0,"SYM X"
8193,327.72,1,2,17.48,3.63,348,0,"SYM X"
8197,327.88,1,2,17.47,3.59,349,0,"SYM X"
8201,328.04,1,2,17.450000000000003,3.64,350,0,"SYM X"
8205,328.2,1,2,17.419999999999998,3.73,351,0,"SYM X"
8209,328.36,1,2,17.37,3.82,352,0,"SYM X"
8213,328.52,1,2,17.31,3.92,353,0,"SYM X"
8217,328.68,1,2,17.230000000000004,4.04,354,0,"SYM X"
8221,328.84,1,2,17.11,4.2,355,0,"SYM X"
8225,329,1,2,16.98,4.34,356,0,"SYM X"
8229,329.16,1,2,16.810000000000002,4.48,357,0,"SYM X"
8233,329.32,1,2,16.669999999999998,4.63,358,0,"SYM X"
8237,329.48,1,2,16.540000000000003,4.77,359,0,"SYM X"
8241,329.64,1,2,16.47,4.82,360,0,"SYM X"
8245,329.8,1,2,16.37,4.88,361,0,"SYM X"
8249,329.96,1,2,16.26,4.91,362,0,"SYM X"
8253,330.12,1,2,16.180000000000003,4.99,363,0,"SYM X"
8257,330.28,1,2,16.17,5.17,364,0,"SYM X"
8261,330.44,1,2,16.17,5.41,365,0,"SYM X"
8265,330.6,1,2,16.200000000000003,5.68,366,0,"SYM X"
8269,330.76,1,2,16.25,5.89,367,0,"SYM X"
8273,330.92,1,2,16.37,6.13,368,0,"SYM X"
8277,331.08,1,2,16.53,6.3,369,0,"SYM X"
8281,331.24,1,2,16.779999999999998,6.47,370,0,"SYM X"
8285,331.4,1,2,17.07,6.66,371,0,"SYM X"
8289,331.56,1,2,17.430000000000003,6.8,372,0,"SYM X"
8293,331.72,1,2,17.869999999999997,6.96,373,0,"SYM X"
8297,331.88,1,2,18.32,7.09,374,0,"SYM X"
8301,332.04,1,2,18.810000000000002,7.23,375,0,"SYM X"
8305,332.2,1,2,19.280000000000005,7.29,376,0,"SYM X"
8309,332.36,1,2,19.81,7.41,377,0,"SYM X"
8313,332.52,1,2,20.31,7.54,378,0,"SYM X"
8317,332.68,1,2,20.82,7.75,379,0,"SYM X"
8321,332.84,1,2,21.310000000000002,7.97,380,0,"SYM X"
8325,333,1,2,21.78,8.13,381,0,"SYM X"
8329,333.16,1,2,22.28,8.36,382,0,"SYM X"
8333,333.32,1,2,22.750000000000004,8.57,383,0,"SYM X"
8337,333.48,1,2,23.250000000000004,8.84,384,0,"SYM X"
8341,333.64,1,2,23.73,9.1,385,0,"SYM X"
8345,333.8,1,2,24.230000000000004,9.38,386,0,"SYM X"
8349,333.96,1,2,24.729999999999997,9.68,387,0,"SYM X"
8353,334.12,1,2,25.23,10.02,388,0,"SYM X"
8357,334.28,1,2,25.72,10.31,389,0,"SYM X"
8361,334.44,1,2,26.189999999999998,10.57,390,0,"SYM X"
8365,334.6,1,2,26.68,10.88,391,0,"SYM X"
8369,334.76,1,2,27.15,11.14,392,0,"SYM X"
8373,334.92,1,2,27.62,11.38,393,0,"SYM X"
8377,335.08,1,2,28.07,11.66,394,0,"SYM X"
8381,335.24,1,2,28.509999999999998,11.98,395,0,"SYM X"
8385,335.4,1,2,28.94,12.29,396,0,"SYM X"
8389,335.56,1,2,29.34,12.63,397,0,"SYM X"
8393,335.72,1,2,29.73,12.97,398,0,"SYM X"
8397,335.88,1,2,30.069999999999997,13.3,399,0,"SYM X"
8401,336.04,1,2,30.400000000000002,13.6,400,0,"SYM X"
8405,336.2,1,2,30.72,13.88,401,0,"SYM X"
8409,336.36,1,2,31.04,14.16,402,0,"SYM X"
8413,336.52,1,2,31.319999999999997,14.43,403,0,"SYM X"
8417,336.68,1,2,31.549999999999997,14.77,404,0,"SYM X"
8421,336.84,1,2,31.759999999999998,15.09,405,0,"SYM X"
8425,337,1,2,31.939999999999998,15.38,406,0,"SYM X"
8429,337.16,1,2,32.11,15.67,407,0,"SYM X"
8433,337.32,1,2,32.23,16,408,0,"SYM X"
8437,337.48,1,2,32.32999999999999,16.41,409,0,"SYM X"
8441,337.64,1,2,32.41,16.8,410,0,"SYM X"
8445,337.8,1,2,32.459999999999994,17.24,411,0,"SYM X"
8449,337.96,1,2,32.47,17.66,412,0,"SYM X"
8457,338.28,1,2,32.47,18.3,414,0,"SYM X"
8461,338.44,1,2,32.459999999999994,18.52,415,0,"SYM X"
8465,338.6,1,2,32.41,18.74,416,0,"SYM X"
8469,338.76,1,2,32.32999999999999,19.02,417,0,"SYM X"
8473,338.92,1,2,32.21,19.34,418,0,"SYM X"
8477,339.08,1,2,32.05,19.63,419,0,"SYM X"
8481,339.24,1,2,31.9,19.92,420,0,"SYM X"
8485,339.4,1,2,31.729999999999997,20.22,421,0,"SYM X"
8489,339.56,1,2,31.58,20.5,422,0,"SYM X"
8493,339.72,1,2,31.39,20.89,423,0,"SYM X"
8497,339.88,1,2,31.18,21.31,424,0,"SYM X"
8501,340.04,1,2,30.959999999999997,21.77,425,0,"SYM X"
8505,340.2,1,2,30.729999999999997,22.24,426,0,"SYM X"
8509,340.36,1,2,30.539999999999996,22.68,427,0,"SYM X"
8513,340.52,1,2,30.359999999999996,23.06,428,0,"SYM X"
8517,340.68,1,2,30.159999999999997,23.47,429,0,"SYM X"
8521,340.84,1,2,30.01,23.82,430,0,"SYM X"
8525,341,1,2,29.959999999999997,24.13,431,0,"SYM X"
8529,341.16,1,2,29.959999999999997,24.34,432,0,"SYM X"
8533,341.32,1,2,30.040000000000003,24.52,433,0,"SYM X"
8537,341.48,1,2,30.12,24.59,434,0,"SYM X"
8541,341.64,1,2,30.3,24.57,435,0,"SYM X"
8545,341.8,1,2,30.5,24.43,436,0,"SYM X"
8549,341.96,1,2,30.69,24.35,437,0,"SYM X"
8553,342.12,1,2,30.91,24.2,438,0,"SYM X"
8557,342.28,1,2,31.11,24.06,439,0,"SYM X"
8561,342.44,1,2,31.319999999999997,23.97,440,0,"SYM X"
8565,342.6,1,2,31.5,23.92,441,0,"SYM X"
8569,342.76,1,2,31.66,23.92,442,0,"SYM X"
8573,342.92,1,2,31.819999999999997,24.02,443,0,"SYM X"
8577,343.08,1,2,31.999999999999996,24.07,444,0,"SYM X"
8581,343.24,1,2,32.21,24.16,445,0,"SYM X"
8585,343.4,1,2,32.400000000000006,24.27,446,0,"SYM X"
8589,343.56,1,2,32.57,24.41,447,0,"SYM X"
8593,343.72,1,2,32.68,24.52,448,0,"SYM X"
8597,343.88,1,2,32.82,24.59,449,0,"SYM X"
8601,344.04,1,2,32.92999999999999,24.63,450,0,"SYM X"
8605,344.2,1,2,33.04,24.67,451,0,"SYM X"
8609,344.36,1,2,33.15,24.68,452,0,"SYM X"
8613,344.52,1,2,33.230000000000004,24.68,453,0,"SYM X"
8617,344.68,1,2,33.32,24.72,454,0,"SYM X"
8621,344.84,1,2,33.410000000000004,24.74,455,0,"SYM X"
8625,345,1,2,33.54,24.77,456,0,"SYM X"
8629,345.16,1,2,33.65,24.84,457,0,"SYM X"
8633,345.32,1,2,33.78,24.88,458,0,"SYM X"
8637,345.48,1,2,33.93,24.85,459,0,"SYM X"
8641,345.64,1,2,34.07,24.84,460,0,"SYM X"
8645,345.8,1,2,34.17999999999999,24.79,461,0,"SYM X"
8649,345.96,1,2,34.3,24.68,462,0,"SYM X"
8653,346.12,1,2,34.44,24.54,463,0,"SYM X"
8657,346.28,1,2,34.57,24.36,464,0,"SYM X"
8661,346.44,1,2,34.68,24.11,465,0,"SYM X"
8665,346.6,1,2,34.779999999999994,23.84,466,0,"SYM X"
8669,346.76,1,2,34.83,23.52,467,0,"SYM X"
8673,346.92,1,2,34.89,23.2,468,0,"SYM X"
8677,347.08,1,2,34.93,22.89,469,0,"SYM X"
8681,347.24,1,2,34.97,22.57,470,0,"SYM X"
8685,347.4,1,2,35.01,22.27,471,0,"SYM X"
8689,347.56,1,2,35.04,21.96,472,0,"SYM X"
