frame,time,team_id,player_id,x,y,id,fragment,type
26183,1047.32,1,43,-30.33,26.470000000000002,4846,0,"ROT 180"
26187,1047.48,1,43,-30.65,26.380000000000003,4847,0,"ROT 180"
26191,1047.64,1,43,-30.93,26.28,4848,0,"ROT 180"
26195,1047.8,1,43,-31.189999999999998,26.26,4849,0,"ROT 180"
26199,1047.96,1,43,-31.459999999999994,26.220000000000002,4850,0,"ROT 180"
26203,1048.12,1,43,-31.72,26.14,4851,0,"ROT 180"
26207,1048.28,1,43,-31.999999999999993,26.040000000000003,4852,0,"ROT 180"
26211,1048.44,1,43,-32.29,25.880000000000003,4853,0,"ROT 180"
26215,1048.6,1,43,-32.599999999999994,25.67,4854,0,"ROT 180"
26219,1048.76,1,43,-32.87,25.509999999999998,4855,0,"ROT 180"
26223,1048.92,1,43,-33.13999999999999,25.28,4856,0,"ROT 180"
26227,1049.08,1,43,-33.4,24.97,4857,0,"ROT 180"
26231,1049.24,1,43,-33.65,24.72,4858,0,"ROT 180"
26235,1049.4,1,43,-33.88999999999999,24.55,4859,0,"ROT 180"
26239,1049.56,1,43,-34.14,24.380000000000003,4860,0,"ROT 180"
26243,1049.72,1,43,-34.37,24.22,4861,0,"ROT 180"
26247,1049.88,1,43,-34.62,24.08,4862,0,"ROT 180"
26251,1050.04,1,43,-34.849999999999994,23.97,4863,0,"ROT 180"
26255,1050.2,1,43,-35.06999999999999,23.83,4864,0,"ROT 180"
26259,1050.36,1,43,-35.28999999999999,23.71,4865,0,"ROT 180"
26263,1050.52,1,43,-35.53999999999999,23.58,4866,0,"ROT 180"
26267,1050.68,1,43,-35.78999999999999,23.47,4867,0,"ROT 180"
26271,1050.84,1,43,-36.08,23.36,4868,0,"ROT 180"
26275,1051,1,43,-36.33,23.259999999999998,4869,0,"ROT 180"
26279,1051.16,1,43,-36.599999999999994,23.119999999999997,4870,0,"ROT 180"
26283,1051.32,1,43,-36.89,22.89,4871,0,"ROT 180"
26287,1051.48,1,43,-37.19,22.689999999999998,4872,0,"ROT 180"
26291,1051.64,1,43,-37.47,22.43,4873,0,"ROT 180"
26295,1051.8,1,43,-37.779999999999994,22.130000000000003,4874,0,"ROT 180"
26299,1051.96,1,43,-38.05,21.79,4875,0,"ROT 180"
26303,1052.12,1,43,-38.31999999999999,21.4,4876,0,"ROT 180"
26307,1052.28,1,43,-38.58,21.04,4877,0,"ROT 180"
26311,1052.44,1,43,-38.78999999999999,20.79,4878,0,"ROT 180"
26315,1052.6,1,43,-39,20.57,4879,0,"ROT 180"
26319,1052.76,1,43,-39.209999999999994,20.39,4880,0,"ROT 180"
26323,1052.92,1,43,-39.41,20.33,4881,0,"ROT 180"
26331,1053.24,1,43,-39.86,20.33,4883,0,"ROT 180"
26335,1053.4,1,43,-40.08,20.35,4884,0,"ROT 180"
26339,1053.56,1,43,-40.36,20.310000000000002,4885,0,"ROT 180"
26343,1053.72,1,43,-40.62,20.14,4886,0,"ROT 180"
26347,1053.88,1,43,-40.9,19.95,4887,0,"ROT 180"
26351,1054.04,1,43,-41.19,19.759999999999998,4888,0,"ROT 180"
26355,1054.2,1,43,-41.459999999999994,19.58,4889,0,"ROT 180"
26359,1054.36,1,43,-41.69,19.45,4890,0,"ROT 180"
26363,1054.52,1,43,-41.89999999999999,19.33,4891,0,"ROT 180"
26367,1054.68,1,43,-42.11999999999999,19.22,4892,0,"ROT 180"
26375,1055,1,43,-42.53999999999999,19,4894,0,"ROT 180"
26379,1055.16,1,43,-42.709999999999994,18.97,4895,0,"ROT 180"
26383,1055.32,1,43,-42.86999999999999,18.96,4896,0,"ROT 180"
26387,1055.48,1,43,-43.00999999999999,18.9,4897,0,"ROT 180"
26391,1055.64,1,43,-43.16,18.83,4898,0,"ROT 180"
26395,1055.8,1,43,-43.33,18.7,4899,0,"ROT 180"
26399,1055.96,1,43,-43.50999999999999,18.439999999999998,4900,0,"ROT 180"
26403,1056.12,1,43,-43.69,18.189999999999998,4901,0,"ROT 180"
26407,1056.28,1,43,-43.88999999999999,17.919999999999998,4902,0,"ROT 180"
26411,1056.44,1,43,-44.08,17.619999999999997,4903,0,"ROT 180"
26415,1056.6,1,43,-44.25,17.33,4904,0,"ROT 180"
26419,1056.76,1,43,-44.42999999999999,16.97,4905,0,"ROT 180"
26423,1056.92,1,43,-44.61,16.619999999999997,4906,0,"ROT 180"
26427,1057.08,1,43,-44.75,16.279999999999998,4907,0,"ROT 180"
26431,1057.24,1,43,-44.86999999999999,15.97,4908,0,"ROT 180"
26435,1057.4,1,43,-44.959999999999994,15.709999999999997,4909,0,"ROT 180"
26439,1057.56,1,43,-45.00999999999999,15.469999999999999,4910,0,"ROT 180"
26443,1057.72,1,43,-45.029999999999994,15.279999999999998,4911,0,"ROT 180"
26447,1057.88,1,43,-45.03999999999999,15.099999999999998,4912,0,"ROT 180"
26451,1058.04,1,43,-45.06999999999999,14.919999999999998,4913,0,"ROT 180"
26455,1058.2,1,43,-45.08,14.739999999999998,4914,0,"ROT 180"
26459,1058.36,1,43,-45.099999999999994,14.529999999999998,4915,0,"ROT 180"
26463,1058.52,1,43,-45.11,14.309999999999999,4916,0,"ROT 180"
26467,1058.68,1,43,-45.11999999999999,14.1,4917,0,"ROT 180"
26471,1058.84,1,43,-45.14999999999999,13.87,4918,0,"ROT 180"
26475,1059,1,43,-45.16,13.63,4919,0,"ROT 180"
26483,1059.32,1,43,-45.16,13.209999999999999,4921,0,"ROT 180"
26487,1059.48,1,43,-45.14999999999999,13,4922,0,"ROT 180"
26491,1059.64,1,43,-45.11999999999999,12.76,4923,0,"ROT 180"
26495,1059.8,1,43,-45.099999999999994,12.56,4924,0,"ROT 180"
26499,1059.96,1,43,-45.03999999999999,12.36,4925,0,"ROT 180"
26503,1060.12,1,43,-44.97999999999999,12.18,4926,0,"ROT 180"
26507,1060.28,1,43,-44.91,12.01,4927,0,"ROT 180"
26511,1060.44,1,43,-44.849999999999994,11.88,4928,0,"ROT 180"
26515,1060.6,1,43,-44.75999999999999,11.75,4929,0,"ROT 180"
26519,1060.76,1,43,-44.69,11.64,4930,0,"ROT 180"
26523,1060.92,1,43,-44.61999999999999,11.58,4931,0,"ROT 180"
26527,1061.08,1,43,-44.53999999999999,11.51,4932,0,"ROT 180"
26531,1061.24,1,43,-44.47,11.459999999999999,4933,0,"ROT 180"
26535,1061.4,1,43,-44.39999999999999,11.49,4934,0,"ROT 180"
26539,1061.56,1,43,-44.33,11.53,4935,0,"ROT 180"
26543,1061.72,1,43,-44.25,11.56,4936,0,"ROT 180"
26547,1061.88,1,43,-44.16,11.54,4937,0,"ROT 180"
26551,1062.04,1,43,-44.08,11.51,4938,0,"ROT 180"
26555,1062.2,1,43,-44.00999999999999,11.47,4939,0,"ROT 180"
26559,1062.36,1,43,-43.89999999999999,11.4,4940,0,"ROT 180"
26563,1062.52,1,43,-43.8,11.28,4941,0,"ROT 180"
26567,1062.68,1,43,-43.709999999999994,11.15,4942,0,"ROT 180"
26571,1062.84,1,43,-43.61,10.99,4943,0,"ROT 180"
26575,1063,1,43,-43.50999999999999,10.81,4944,0,"ROT 180"
26579,1063.16,1,43,-43.42999999999999,10.62,4945,0,"ROT 180"
26583,1063.32,1,43,-43.33,10.43,4946,0,"ROT 180"
26587,1063.48,1,43,-43.22999999999999,10.19,4947,0,"ROT 180"
26591,1063.64,1,43,-43.13999999999999,10,4948,0,"ROT 180"
26595,1063.8,1,43,-43.03999999999999,9.79,4949,0,"ROT 180"
26599,1063.96,1,43,-42.959999999999994,9.54,4950,0,"ROT 180"
26603,1064.12,1,43,-42.89999999999999,9.22,4951,0,"ROT 180"
26607,1064.28,1,43,-42.83,8.88,4952,0,"ROT 180"
26611,1064.44,1,43,-42.75,8.51,4953,0,"ROT 180"
26615,1064.6,1,43,-42.61999999999999,8.15,4954,0,"ROT 180"
26619,1064.76,1,43,-42.47999999999999,7.76,4955,0,"ROT 180"
26623,1064.92,1,43,-42.31999999999999,7.369999999999999,4956,0,"ROT 180"
26627,1065.08,1,43,-42.08,6.99,4957,0,"ROT 180"
26631,1065.24,1,43,-41.779999999999994,6.6800000000000015,4958,0,"ROT 180"
26635,1065.4,1,43,-41.39999999999999,6.4399999999999995,4959,0,"ROT 180"
26639,1065.56,1,43,-40.94,6.26,4960,0,"ROT 180"
26643,1065.72,1,43,-40.47,6.01,4961,0,"ROT 180"
26647,1065.88,1,43,-39.99999999999999,5.790000000000001,4962,0,"ROT 180"
26651,1066.04,1,43,-39.50999999999999,5.5699999999999985,4963,0,"ROT 180"
26655,1066.2,1,43,-38.99999999999999,5.4,4964,0,"ROT 180"
26659,1066.36,1,43,-38.49999999999999,5.209999999999999,4965,0,"ROT 180"
26663,1066.52,1,43,-37.99999999999999,5.08,4966,0,"ROT 180"
26667,1066.68,1,43,-37.61999999999999,5.029999999999999,4967,0,"ROT 180"
26671,1066.84,1,43,-37.10999999999999,4.959999999999999,4968,0,"ROT 180"
26675,1067,1,43,-36.58,4.959999999999999,4969,0,"ROT 180"
26679,1067.16,1,43,-36.00999999999999,5.040000000000001,4970,0,"ROT 180"
26683,1067.32,1,43,-35.41,5.21,4971,0,"ROT 180"
26687,1067.48,1,43,-34.779999999999994,5.499999999999999,4972,0,"ROT 180"
26691,1067.64,1,43,-34.08,5.900000000000001,4973,0,"ROT 180"
26695,1067.8,1,43,-33.31999999999999,6.450000000000002,4974,0,"ROT 180"
26699,1067.96,1,43,-32.93999999999999,5.950000000000002,4975,0,"ROT 180"
26703,1068.12,1,43,-32.49999999999999,5.450000000000002,4976,0,"ROT 180"
26707,1068.28,1,43,-31.939999999999994,5.040000000000002,4977,0,"ROT 180"
26711,1068.44,1,43,-31.289999999999996,4.96,4978,0,"ROT 180"
26715,1068.6,1,43,-30.619999999999994,4.930000000000002,4979,0,"ROT 180"
26719,1068.76,1,43,-29.939999999999994,4.94,4980,0,"ROT 180"
26723,1068.92,1,43,-29.259999999999994,4.990000000000001,4981,0,"ROT 180"
26727,1069.08,1,43,-28.599999999999994,5.060000000000001,4982,0,"ROT 180"
26731,1069.24,1,43,-27.959999999999994,5.150000000000002,4983,0,"ROT 180"
26735,1069.4,1,43,-27.329999999999995,5.240000000000002,4984,0,"ROT 180"
26739,1069.56,1,43,-26.759999999999994,5.330000000000002,4985,0,"ROT 180"
26743,1069.72,1,43,-26.259999999999994,5.400000000000002,4986,0,"ROT 180"
26747,1069.88,1,43,-25.639999999999993,5.57,4987,0,"ROT 180"
26751,1070.04,1,43,-24.859999999999996,5.850000000000001,4988,0,"ROT 180"
26755,1070.2,1,43,-24.239999999999995,5.930000000000003,4989,0,"ROT 180"
26759,1070.36,1,43,-23.709999999999994,5.790000000000003,4990,0,"ROT 180"
26763,1070.52,1,43,-23.169999999999995,5.530000000000001,4991,0,"ROT 180"
26767,1070.68,1,43,-22.769999999999996,5.260000000000002,4992,0,"ROT 180"
26771,1070.84,1,43,-22.219999999999995,4.890000000000001,4993,0,"ROT 180"
26775,1071,1,43,-21.679999999999996,4.5,4994,0,"ROT 180"
26779,1071.16,1,43,-21.119999999999994,4.150000000000002,4995,0,"ROT 180"
26783,1071.32,1,43,-20.579999999999995,3.6400000000000006,4996,0,"ROT 180"
26787,1071.48,1,43,-20.039999999999996,3.0600000000000023,4997,0,"ROT 180"
26791,1071.64,1,43,-19.559999999999995,2.490000000000002,4998,0,"ROT 180"
26795,1071.8,1,43,-19.559999999999995,2.0100000000000016,4999,0,"ROT 180"
26799,1071.96,1,43,-18.759999999999994,1.8500000000000014,5000,0,"ROT 180"
26803,1072.12,1,43,-17.949999999999996,1.6900000000000013,5001,0,"ROT 180"
26807,1072.28,1,43,-17.14999999999999,1.5100000000000033,5002,0,"ROT 180"
26811,1072.44,1,43,-16.32999999999999,1.3600000000000048,5003,0,"ROT 180"
26815,1072.6,1,43,-15.53999999999999,1.190000000000003,5004,0,"ROT 180"
26819,1072.76,1,43,-14.729999999999995,1.030000000000003,5005,0,"ROT 180"
26823,1072.92,1,43,-13.92999999999999,0.8600000000000048,5006,0,"ROT 180"
26827,1073.08,1,43,-13.199999999999994,0.7000000000000046,5007,0,"ROT 180"
26831,1073.24,1,43,-12.71999999999999,0.560000000000004,5008,0,"ROT 180"
26835,1073.4,1,43,-12.21999999999999,0.4000000000000039,5009,0,"ROT 180"
26839,1073.56,1,43,-11.729999999999995,0.26000000000000334,5010,0,"ROT 180"
26843,1073.72,1,43,-11.229999999999995,0.12000000000000277,5011,0,"ROT 180"
26847,1073.88,1,43,-10.71999999999999,-0.029999999999995808,5012,0,"ROT 180"
26851,1074.04,1,43,-10.21999999999999,-0.16999999999999638,5013,0,"ROT 180"
26855,1074.2,1,43,-9.699999999999994,-0.30999999999999694,5014,0,"ROT 180"
26859,1074.36,1,43,-9.189999999999996,-0.4599999999999955,5015,0,"ROT 180"
26863,1074.52,1,43,-8.669999999999995,-0.5999999999999961,5016,0,"ROT 180"
26867,1074.68,1,43,-8.139999999999993,-0.7499999999999982,5017,0,"ROT 180"
26871,1074.84,1,43,-7.609999999999992,-0.8899999999999952,5018,0,"ROT 180"
26875,1075,1,43,-7.069999999999993,-1.0399999999999974,5019,0,"ROT 180"
26879,1075.16,1,43,-7.609999999999992,-1.1199999999999957,5020,0,"ROT 180"
26883,1075.32,1,43,-8.149999999999991,-1.2099999999999955,5021,0,"ROT 180"
26887,1075.48,1,43,-8.689999999999998,-1.2899999999999974,5022,0,"ROT 180"
26891,1075.64,1,43,-9.21999999999999,-1.3799999999999972,5023,0,"ROT 180"
26895,1075.8,1,43,-9.759999999999996,-1.4599999999999955,5024,0,"ROT 180"
26899,1075.96,1,43,-10.28999999999999,-1.5399999999999974,5025,0,"ROT 180"
26903,1076.12,1,43,-10.82999999999999,-1.6299999999999972,5026,0,"ROT 180"
26907,1076.28,1,43,-11.369999999999996,-1.7099999999999955,5027,0,"ROT 180"
26911,1076.44,1,43,-11.889999999999992,-1.7999999999999954,5028,0,"ROT 180"
26915,1076.6,1,43,-12.139999999999992,-1.8799999999999972,5029,0,"ROT 180"
26919,1076.76,1,43,-12.07999999999999,-1.9599999999999955,5030,0,"ROT 180"
26923,1076.92,1,43,-11.71999999999999,-2.0499999999999954,5031,0,"ROT 180"
26927,1077.08,1,43,-11.089999999999995,-1.2799999999999958,5032,0,"ROT 180"
26931,1077.24,1,43,-10.439999999999996,-0.2199999999999971,5033,0,"ROT 180"
26935,1077.4,1,43,-9.779999999999992,0.8300000000000036,5034,0,"ROT 180"
26939,1077.56,1,43,-9.119999999999996,1.8900000000000023,5035,0,"ROT 180"
26943,1077.72,1,43,-8.449999999999996,2.940000000000003,5036,0,"ROT 180"
26947,1077.88,1,43,-7.789999999999992,4.000000000000002,5037,0,"ROT 180"
26951,1078.04,1,43,-7.8899999999999935,3.680000000000005,5038,0,"ROT 180"
26955,1078.2,1,43,-8.089999999999996,3.0100000000000033,5039,0,"ROT 180"
26959,1078.36,1,43,-8.149999999999991,2.4500000000000046,5040,0,"ROT 180"
26963,1078.52,1,43,-8.079999999999991,1.9900000000000038,5041,0,"ROT 180"
26967,1078.68,1,43,-7.8999999999999915,1.6200000000000028,5042,0,"ROT 180"
26971,1078.84,1,43,-7.669999999999995,1.3300000000000036,5043,0,"ROT 180"
26975,1079,1,43,-7.369999999999997,1.1200000000000028,5044,0,"ROT 180"
26979,1079.16,1,43,-6.969999999999992,0.9600000000000026,5045,0,"ROT 180"
26983,1079.32,1,43,-6.669999999999995,0.9000000000000039,5046,0,"ROT 180"
26987,1079.48,1,43,-6.3899999999999935,0.8900000000000023,5047,0,"ROT 180"
26991,1079.64,1,43,-6.179999999999993,0.8800000000000043,5048,0,"ROT 180"
26995,1079.8,1,43,-6.069999999999993,0.8500000000000032,5049,0,"ROT 180"
26999,1079.96,1,43,-6.039999999999992,0.7600000000000033,5050,0,"ROT 180"
27003,1080.12,1,43,-6.039999999999992,0.6500000000000039,5051,0,"ROT 180"
27007,1080.28,1,43,-5.999999999999993,0.6000000000000032,5052,0,"ROT 180"
27011,1080.44,1,43,-5.829999999999991,0.5700000000000021,5053,0,"ROT 180"
27015,1080.6,1,43,-5.619999999999997,0.5100000000000033,5054,0,"ROT 180"
27019,1080.76,1,43,-5.439999999999998,0.4700000000000042,5055,0,"ROT 180"
27023,1080.92,1,43,-5.259999999999998,0.4000000000000039,5056,0,"ROT 180"
27027,1081.08,1,43,-5.079999999999991,0.3500000000000032,5057,0,"ROT 180"
27031,1081.24,1,43,-4.929999999999993,0.31000000000000405,5058,0,"ROT 180"
27035,1081.4,1,43,-4.829999999999991,0.2900000000000045,5059,0,"ROT 180"
27039,1081.56,1,43,-4.759999999999998,0.2900000000000045,5060,0,"ROT 180"
27043,1081.72,1,43,-4.809999999999995,0.2200000000000042,5061,0,"ROT 180"
27047,1081.88,1,43,-4.929999999999993,0.1500000000000039,5062,0,"ROT 180"
27051,1082.04,1,43,-5.1499999999999915,0.040000000000004476,5063,0,"ROT 180"
27055,1082.2,1,43,-5.439999999999998,-0.07999999999999652,5064,0,"ROT 180"
27059,1082.36,1,43,-5.759999999999998,-0.23999999999999666,5065,0,"ROT 180"
27063,1082.52,1,43,-6.1399999999999935,-0.4199999999999964,5066,0,"ROT 180"
27067,1082.68,1,43,-6.539999999999992,-0.6099999999999977,5067,0,"ROT 180"
27071,1082.84,1,43,-6.939999999999998,-0.8299999999999965,5068,0,"ROT 180"
27075,1083,1,43,-7.329999999999991,-0.9999999999999982,5069,0,"ROT 180"
27079,1083.16,1,43,-7.6399999999999935,-0.9699999999999971,5070,0,"ROT 180"
27083,1083.32,1,43,-7.939999999999998,-0.9599999999999955,5071,0,"ROT 180"
27087,1083.48,1,43,-8.259999999999998,-0.9199999999999964,5072,0,"ROT 180"
27091,1083.64,1,43,-8.559999999999995,-0.8999999999999968,5073,0,"ROT 180"
27095,1083.8,1,43,-8.889999999999993,-0.8699999999999957,5074,0,"ROT 180"
27099,1083.96,1,43,-9.199999999999994,-0.8499999999999961,5075,0,"ROT 180"
27103,1084.12,1,43,-9.509999999999996,-0.819999999999995,5076,0,"ROT 180"
27107,1084.28,1,43,-9.809999999999993,-0.7899999999999974,5077,0,"ROT 180"
27111,1084.44,1,43,-10.119999999999996,-0.7799999999999958,5078,0,"ROT 180"
27115,1084.6,1,43,-10.449999999999994,-0.7399999999999967,5079,0,"ROT 180"
27119,1084.76,1,43,-10.759999999999996,-0.7199999999999971,5080,0,"ROT 180"
27123,1084.92,1,43,-11.059999999999993,-0.689999999999996,5081,0,"ROT 180"
27127,1085.08,1,43,-11.369999999999996,-0.6699999999999964,5082,0,"ROT 180"
27131,1085.24,1,43,-11.689999999999996,-0.6399999999999952,5083,0,"ROT 180"
27135,1085.4,1,43,-11.999999999999991,-0.6099999999999977,5084,0,"ROT 180"
27139,1085.56,1,43,-12.309999999999993,-0.5999999999999961,5085,0,"ROT 180"
27143,1085.72,1,43,-12.60999999999999,-0.5099999999999962,5086,0,"ROT 180"
27147,1085.88,1,43,-12.85999999999999,-0.3299999999999965,5087,0,"ROT 180"
27151,1086.04,1,43,-13.189999999999996,-0.20999999999999552,5088,0,"ROT 180"
27155,1086.2,1,43,-13.559999999999993,-0.10999999999999766,5089,0,"ROT 180"
27159,1086.36,1,43,-13.999999999999991,-0.04999999999999538,5090,0,"ROT 180"
27163,1086.52,1,43,-14.46999999999999,-0.009999999999996234,5091,0,"ROT 180"
27167,1086.68,1,43,-14.949999999999994,0.01000000000000334,5092,0,"ROT 180"
27171,1086.84,1,43,-15.449999999999994,0.040000000000004476,5093,0,"ROT 180"
27175,1087,1,43,-16.089999999999996,0.08000000000000362,5094,0,"ROT 180"
27179,1087.16,1,43,-16.589999999999996,0.1500000000000039,5095,0,"ROT 180"
27183,1087.32,1,43,-17.009999999999998,0.3300000000000036,5096,0,"ROT 180"
27187,1087.48,1,43,-17.419999999999995,0.5300000000000029,5097,0,"ROT 180"
27191,1087.64,1,43,-17.82999999999999,0.7200000000000024,5098,0,"ROT 180"
27195,1087.8,1,43,-18.239999999999995,0.870000000000001,5099,0,"ROT 180"
27199,1087.96,1,43,-18.679999999999993,0.990000000000002,5100,0,"ROT 180"
27203,1088.12,1,43,-19.099999999999994,1.1300000000000026,5101,0,"ROT 180"
27207,1088.28,1,43,-19.539999999999992,1.2200000000000024,5102,0,"ROT 180"
27211,1088.44,1,43,-19.989999999999995,1.3100000000000023,5103,0,"ROT 180"
27215,1088.6,1,43,-20.449999999999996,1.4000000000000021,5104,0,"ROT 180"
27219,1088.76,1,43,-20.899999999999995,1.5,5105,0,"ROT 180"
27223,1088.92,1,43,-21.399999999999995,1.6000000000000014,5106,0,"ROT 180"
27227,1089.08,1,43,-21.879999999999995,1.7100000000000009,5107,0,"ROT 180"
27231,1089.24,1,43,-22.349999999999994,1.7900000000000027,5108,0,"ROT 180"
27235,1089.4,1,43,-22.789999999999996,1.9000000000000021,5109,0,"ROT 180"
27239,1089.56,1,43,-23.179999999999996,2.0600000000000023,5110,0,"ROT 180"
27243,1089.72,1,43,-23.599999999999994,2.150000000000002,5111,0,"ROT 180"
27247,1089.88,1,43,-24.029999999999994,2.2200000000000024,5112,0,"ROT 180"
27251,1090.04,1,43,-24.449999999999996,2.280000000000001,5113,0,"ROT 180"
27255,1090.2,1,43,-24.859999999999996,2.360000000000003,5114,0,"ROT 180"
27259,1090.36,1,43,-25.259999999999994,2.4400000000000013,5115,0,"ROT 180"
27263,1090.52,1,43,-25.649999999999995,2.5400000000000027,5116,0,"ROT 180"
27267,1090.68,1,43,-26.029999999999994,2.700000000000003,5117,0,"ROT 180"
27271,1090.84,1,43,-26.369999999999994,2.8900000000000006,5118,0,"ROT 180"
27275,1091,1,43,-26.689999999999994,3.1000000000000014,5119,0,"ROT 180"
27279,1091.16,1,43,-27.029999999999994,3.280000000000001,5120,0,"ROT 180"
27283,1091.32,1,43,-27.369999999999994,3.400000000000002,5121,0,"ROT 180"
27287,1091.48,1,43,-27.709999999999994,3.5,5122,0,"ROT 180"
27291,1091.64,1,43,-28.039999999999996,3.6000000000000014,5123,0,"ROT 180"
27295,1091.8,1,43,-28.349999999999994,3.700000000000003,5124,0,"ROT 180"
27299,1091.96,1,43,-28.649999999999995,3.780000000000001,5125,0,"ROT 180"
27303,1092.12,1,43,-28.959999999999994,3.830000000000002,5126,0,"ROT 180"
27307,1092.28,1,43,-29.259999999999994,3.9300000000000033,5127,0,"ROT 180"
27311,1092.44,1,43,-29.549999999999994,4.010000000000002,5128,0,"ROT 180"
27315,1092.6,1,43,-29.829999999999995,4.07,5129,0,"ROT 180"
27319,1092.76,1,43,-30.049999999999994,4.190000000000001,5130,0,"ROT 180"
27323,1092.92,1,43,-30.279999999999994,4.330000000000001,5131,0,"ROT 180"
27327,1093.08,1,43,-30.469999999999995,4.4700000000000015,5132,0,"ROT 180"
27331,1093.24,1,43,-30.659999999999993,4.680000000000002,5133,0,"ROT 180"
27335,1093.4,1,43,-30.859999999999996,4.860000000000002,5134,0,"ROT 180"
27339,1093.56,1,43,-31.079999999999995,4.999999999999999,5135,0,"ROT 180"
27343,1093.72,1,43,-31.319999999999993,5.150000000000001,5136,0,"ROT 180"
27347,1093.88,1,43,-31.569999999999993,5.319999999999999,5137,0,"ROT 180"
27351,1094.04,1,43,-31.789999999999996,5.53,5138,0,"ROT 180"
27355,1094.2,1,43,-32.04999999999999,5.69,5139,0,"ROT 180"
27359,1094.36,1,43,-32.32999999999999,5.87,5140,0,"ROT 180"
27363,1094.52,1,43,-32.61999999999999,6.040000000000002,5141,0,"ROT 180"
27367,1094.68,1,43,-32.88999999999999,6.19,5142,0,"ROT 180"
27371,1094.84,1,43,-33.14999999999999,6.319999999999999,5143,0,"ROT 180"
27375,1095,1,43,-33.39999999999999,6.490000000000001,5144,0,"ROT 180"
27379,1095.16,1,43,-33.64999999999999,6.650000000000001,5145,0,"ROT 180"
27383,1095.32,1,43,-33.89999999999999,6.830000000000001,5146,0,"ROT 180"
27387,1095.48,1,43,-34.11999999999999,7.040000000000002,5147,0,"ROT 180"
27391,1095.64,1,43,-34.33,7.240000000000001,5148,0,"ROT 180"
